{"Arabidopsis, SAM":
[-6.00E-04,
0.018,
0.3,
0.4374,
0.2004,
0.036,
0.0084,
-6.00E-04,
6.00E-04],
"ShortestPath|COM":
[6.00E-04,
0.0066,
0.2628,
0.495,
0.2184,
0.018,
0.0012,
-1.39E-17,
1.25E-16],
"StrainPerpendicular|COM":
[0.0024,
0.0594,
0.279,
0.3858,
0.2004,
0.0594,
0.0114,
0.0018,
1.25E-16],
"Orthogonal|COM":
[0.00E+00,
0.003,
0.2526,
0.5112,
0.2202,
0.0102,
0.00E+00,
0.00E+00,
0.00E+00],
"RandomDirection|COM":
[0.0042,
0.0738,
0.2778,
0.3522,
0.21,
0.069,
0.0132,
0.0024,
6.00E-04],
"Orthogonal|Random":
[0.0132,
0.1236,
0.2754,
0.2844,
0.1824,
0.0858,
0.0318,
0.0084,
0.0024],
"RandomDirection|Random":
[0.0486,
0.1428,
0.2304,
0.2394,
0.1788,
0.0978,
0.042,
0.0138,
0.0048],
"ShortestPath|Random":
[0.1062,
0.1596,
0.1866,
0.1812,
0.1566,
0.1134,
0.0618,
0.027,
0.0096],
"spch Arabidopsis Leaf":
[0,
0.085712496,
0.266872775,
0.346128581,
0.174854605,
0.060327793,
0.016644392,
0.005578671,
0],
"Topology Model":
[0,
0.06941998,
0.287643433,
0.34372282,
0.201425672,
0.07382369,
0.019299865,
0.003928185,
0.000637054]}
