0.000,0.000,0.000,0.000,0.000,0.000,0.000,0.000,0.000,0.000,0.000,0.000,,
0.000,0.000,0.000,0.000,0.000,0.000,0.000,0.000,0.000,0.000,0.000,0.000,,
0.000,0.000,0.000,0.000,0.500,0.500,0.000,0.000,0.000,0.000,0.000,0.000,,
0.000,0.000,0.000,0.000,0.333,0.333,0.167,0.167,0.000,0.000,0.000,0.000,,
0.000,0.000,0.017,0.067,0.400,0.417,0.083,0.017,0.000,0.000,0.000,0.000,,
0.000,0.000,0.000,0.055,0.336,0.397,0.205,0.007,0.000,0.000,0.000,0.000,,
0.000,0.000,0.000,0.016,0.122,0.618,0.187,0.057,0.000,0.000,0.000,0.000,,
0.000,0.000,0.000,0.004,0.096,0.378,0.393,0.115,0.015,0.000,0.000,0.000,,
0.000,0.000,0.000,0.000,0.024,0.220,0.488,0.256,0.012,0.000,0.000,0.000,,
0.000,0.000,0.000,0.000,0.000,0.250,0.250,0.300,0.150,0.050,0.000,0.000,,
0.000,0.000,0.000,0.000,0.000,0.000,0.000,0.500,0.500,0.000,0.000,0.000,,
0.000,0.000,0.000,0.000,0.000,0.000,0.500,0.000,0.000,0.500,0.000,0.000,,