{
    "0": {
        "area": 259261, 
        "av_neighbour_normed_area": 0.94739376976191281, 
        "neighbours": [
            513, 
            386, 
            259, 
            98, 
            135, 
            1033, 
            138, 
            272, 
            786, 
            276, 
            533, 
            73, 
            407, 
            408, 
            409, 
            669, 
            329, 
            930, 
            161, 
            1058, 
            475, 
            804, 
            550, 
            551, 
            427, 
            556, 
            1069, 
            817, 
            178, 
            307, 
            436, 
            309, 
            694, 
            649, 
            312, 
            185, 
            315, 
            62, 
            63, 
            448, 
            961, 
            834, 
            579, 
            438, 
            454, 
            199, 
            460, 
            714, 
            439, 
            588, 
            973, 
            596, 
            341, 
            420, 
            474, 
            987, 
            220, 
            159, 
            218, 
            864, 
            610, 
            357, 
            744, 
            492, 
            751, 
            113, 
            626, 
            115, 
            373, 
            332, 
            249, 
            90, 
            381
        ], 
        "norm_area": 319.756255386335, 
        "num_neighbours": 73
    }, 
    "62": {
        "area": 1468, 
        "av_neighbour_normed_area": 0.95226184921921897, 
        "neighbours": [
            0, 
            73, 
            98, 
            63
        ], 
        "norm_area": 1.3831658301503393, 
        "num_neighbours": 3
    }, 
    "63": {
        "area": 882, 
        "av_neighbour_normed_area": 1.1040805551976376, 
        "neighbours": [
            0, 
            73, 
            62
        ], 
        "norm_area": 0.75320239212246798, 
        "num_neighbours": 2
    }, 
    "73": {
        "area": 874, 
        "av_neighbour_normed_area": 0.99053158844247668, 
        "neighbours": [
            0, 
            98, 
            108, 
            90, 
            62, 
            63
        ], 
        "norm_area": 0.82499528134901645, 
        "num_neighbours": 5
    }, 
    "90": {
        "area": 789, 
        "av_neighbour_normed_area": 0.92452811082732778, 
        "neighbours": [
            0, 
            130, 
            135, 
            73, 
            108
        ], 
        "norm_area": 0.82359081519830113, 
        "num_neighbours": 4
    }, 
    "98": {
        "area": 1428, 
        "av_neighbour_normed_area": 0.95231708516645652, 
        "neighbours": [
            0, 
            113, 
            136, 
            73, 
            108, 
            130, 
            145, 
            62
        ], 
        "norm_area": 1.2785878751384343, 
        "num_neighbours": 7
    }, 
    "108": {
        "area": 730, 
        "av_neighbour_normed_area": 0.9458035000833066, 
        "neighbours": [
            73, 
            130, 
            98, 
            90
        ], 
        "norm_area": 0.71411103059337244, 
        "num_neighbours": 4
    }, 
    "113": {
        "area": 692, 
        "av_neighbour_normed_area": 1.2355744826110633, 
        "neighbours": [
            0, 
            98, 
            136, 
            139, 
            115
        ], 
        "norm_area": 0.53873102474599455, 
        "num_neighbours": 4
    }, 
    "115": {
        "area": 950, 
        "av_neighbour_normed_area": 0.75488181806577526, 
        "neighbours": [
            0, 
            113, 
            138, 
            139
        ], 
        "norm_area": 1.1791477047689285, 
        "num_neighbours": 3
    }, 
    "130": {
        "area": 998, 
        "av_neighbour_normed_area": 1.0502043352795138, 
        "neighbours": [
            135, 
            108, 
            98, 
            145, 
            90, 
            155
        ], 
        "norm_area": 0.85604002959327796, 
        "num_neighbours": 6
    }, 
    "135": {
        "area": 1230, 
        "av_neighbour_normed_area": 0.86485742883757577, 
        "neighbours": [
            0, 
            161, 
            130, 
            90, 
            155
        ], 
        "norm_area": 1.3029661026981727, 
        "num_neighbours": 4
    }, 
    "136": {
        "area": 1606, 
        "av_neighbour_normed_area": 1.0289000306427905, 
        "neighbours": [
            160, 
            98, 
            113, 
            145, 
            139, 
            168
        ], 
        "norm_area": 1.3270899335183943, 
        "num_neighbours": 6
    }, 
    "138": {
        "area": 571, 
        "av_neighbour_normed_area": 1.1178238756042629, 
        "neighbours": [
            160, 
            0, 
            139, 
            115, 
            159
        ], 
        "norm_area": 0.56844201195214283, 
        "num_neighbours": 4
    }, 
    "139": {
        "area": 1154, 
        "av_neighbour_normed_area": 0.94890164720275683, 
        "neighbours": [
            160, 
            136, 
            138, 
            113, 
            115
        ], 
        "norm_area": 1.1574724182540703, 
        "num_neighbours": 5
    }, 
    "145": {
        "area": 1450, 
        "av_neighbour_normed_area": 1.1665140910086711, 
        "neighbours": [
            130, 
            167, 
            168, 
            98, 
            136, 
            155
        ], 
        "norm_area": 1.022086467167117, 
        "num_neighbours": 6
    }, 
    "155": {
        "area": 1368, 
        "av_neighbour_normed_area": 1.032494315250833, 
        "neighbours": [
            161, 
            130, 
            167, 
            135, 
            207, 
            145, 
            189
        ], 
        "norm_area": 1.1598837219318896, 
        "num_neighbours": 7
    }, 
    "159": {
        "area": 748, 
        "av_neighbour_normed_area": 0.7340612481435872, 
        "neighbours": [
            160, 
            0, 
            138, 
            199
        ], 
        "norm_area": 1.0035778185346513, 
        "num_neighbours": 3
    }, 
    "160": {
        "area": 1166, 
        "av_neighbour_normed_area": 0.97890177739087891, 
        "neighbours": [
            198, 
            199, 
            168, 
            138, 
            139, 
            136, 
            159
        ], 
        "norm_area": 1.1310975619772257, 
        "num_neighbours": 7
    }, 
    "161": {
        "area": 621, 
        "av_neighbour_normed_area": 1.0725797032905189, 
        "neighbours": [
            0, 
            135, 
            185, 
            155, 
            189
        ], 
        "norm_area": 0.61991514949169202, 
        "num_neighbours": 4
    }, 
    "167": {
        "area": 1741, 
        "av_neighbour_normed_area": 1.0258161068045801, 
        "neighbours": [
            168, 
            203, 
            207, 
            145, 
            155, 
            223
        ], 
        "norm_area": 1.3320581494337427, 
        "num_neighbours": 6
    }, 
    "168": {
        "area": 1371, 
        "av_neighbour_normed_area": 1.0872142596522572, 
        "neighbours": [
            160, 
            198, 
            167, 
            203, 
            145, 
            211, 
            136
        ], 
        "norm_area": 1.0454248376028008, 
        "num_neighbours": 7
    }, 
    "178": {
        "area": 524, 
        "av_neighbour_normed_area": 1.1037636940279414, 
        "neighbours": [
            0, 
            185, 
            218
        ], 
        "norm_area": 0.70810810911164868, 
        "num_neighbours": 2
    }, 
    "185": {
        "area": 647, 
        "av_neighbour_normed_area": 0.82901345721766717, 
        "neighbours": [
            0, 
            161, 
            178, 
            214, 
            218, 
            189
        ], 
        "norm_area": 0.97527886744753378, 
        "num_neighbours": 5
    }, 
    "189": {
        "area": 762, 
        "av_neighbour_normed_area": 0.90471772701512587, 
        "neighbours": [
            161, 
            155, 
            207, 
            214, 
            185, 
            219
        ], 
        "norm_area": 0.85219012215705869, 
        "num_neighbours": 6
    }, 
    "198": {
        "area": 1267, 
        "av_neighbour_normed_area": 0.93113870531963971, 
        "neighbours": [
            160, 
            199, 
            168, 
            242, 
            211, 
            220
        ], 
        "norm_area": 1.2476612516175398, 
        "num_neighbours": 6
    }, 
    "199": {
        "area": 499, 
        "av_neighbour_normed_area": 1.0743839726574038, 
        "neighbours": [
            0, 
            160, 
            198, 
            220, 
            159
        ], 
        "norm_area": 0.50264417123545457, 
        "num_neighbours": 4
    }, 
    "203": {
        "area": 951, 
        "av_neighbour_normed_area": 1.0124020548429293, 
        "neighbours": [
            167, 
            168, 
            211, 
            245, 
            223
        ], 
        "norm_area": 0.73720930332705581, 
        "num_neighbours": 5
    }, 
    "207": {
        "area": 1454, 
        "av_neighbour_normed_area": 1.0037640678778488, 
        "neighbours": [
            155, 
            167, 
            248, 
            219, 
            189, 
            223
        ], 
        "norm_area": 1.2422041872472649, 
        "num_neighbours": 6
    }, 
    "211": {
        "area": 999, 
        "av_neighbour_normed_area": 1.079830844636035, 
        "neighbours": [
            260, 
            198, 
            168, 
            203, 
            242, 
            245
        ], 
        "norm_area": 0.81329715161193883, 
        "num_neighbours": 6
    }, 
    "214": {
        "area": 577, 
        "av_neighbour_normed_area": 0.97931874295526833, 
        "neighbours": [
            185, 
            218, 
            219, 
            189, 
            255
        ], 
        "norm_area": 0.73260538444483747, 
        "num_neighbours": 5
    }, 
    "218": {
        "area": 833, 
        "av_neighbour_normed_area": 0.87328620828317127, 
        "neighbours": [
            0, 
            263, 
            178, 
            214, 
            185, 
            249, 
            255
        ], 
        "norm_area": 1.2322485217121129, 
        "num_neighbours": 6
    }, 
    "219": {
        "area": 698, 
        "av_neighbour_normed_area": 0.99948041651902442, 
        "neighbours": [
            207, 
            214, 
            248, 
            189, 
            255
        ], 
        "norm_area": 0.69841905243225533, 
        "num_neighbours": 5
    }, 
    "220": {
        "area": 790, 
        "av_neighbour_normed_area": 0.9039681646420541, 
        "neighbours": [
            0, 
            198, 
            199, 
            269, 
            242, 
            276
        ], 
        "norm_area": 0.91519925957458292, 
        "num_neighbours": 5
    }, 
    "223": {
        "area": 1248, 
        "av_neighbour_normed_area": 1.0967873627369387, 
        "neighbours": [
            167, 
            265, 
            203, 
            207, 
            245, 
            248
        ], 
        "norm_area": 0.94808812457716884, 
        "num_neighbours": 6
    }, 
    "242": {
        "area": 1268, 
        "av_neighbour_normed_area": 1.0520774930937653, 
        "neighbours": [
            260, 
            198, 
            296, 
            269, 
            211, 
            220
        ], 
        "norm_area": 1.1791692508469747, 
        "num_neighbours": 6
    }, 
    "245": {
        "area": 1091, 
        "av_neighbour_normed_area": 1.0110275742798926, 
        "neighbours": [
            260, 
            265, 
            203, 
            211, 
            316, 
            223
        ], 
        "norm_area": 0.92314201200139756, 
        "num_neighbours": 6
    }, 
    "248": {
        "area": 1206, 
        "av_neighbour_normed_area": 1.0554396919676508, 
        "neighbours": [
            290, 
            265, 
            207, 
            255, 
            219, 
            223
        ], 
        "norm_area": 1.0319452377387424, 
        "num_neighbours": 6
    }, 
    "249": {
        "area": 813, 
        "av_neighbour_normed_area": 1.1067598133575418, 
        "neighbours": [
            0, 
            218, 
            259, 
            263
        ], 
        "norm_area": 1.1076294287966078, 
        "num_neighbours": 3
    }, 
    "255": {
        "area": 998, 
        "av_neighbour_normed_area": 0.95136673607271038, 
        "neighbours": [
            290, 
            263, 
            295, 
            304, 
            214, 
            248, 
            218, 
            219
        ], 
        "norm_area": 1.1384571520066991, 
        "num_neighbours": 8
    }, 
    "259": {
        "area": 872, 
        "av_neighbour_normed_area": 0.8377347665359165, 
        "neighbours": [
            0, 
            263, 
            295, 
            300, 
            272, 
            308, 
            249
        ], 
        "norm_area": 1.5103926107022865, 
        "num_neighbours": 6
    }, 
    "260": {
        "area": 1422, 
        "av_neighbour_normed_area": 0.93530983599358364, 
        "neighbours": [
            296, 
            242, 
            370, 
            211, 
            245, 
            316
        ], 
        "norm_area": 1.3463784135002714, 
        "num_neighbours": 6
    }, 
    "263": {
        "area": 497, 
        "av_neighbour_normed_area": 1.2062731150869508, 
        "neighbours": [
            259, 
            295, 
            249, 
            218, 
            255
        ], 
        "norm_area": 0.57763830876498601, 
        "num_neighbours": 5
    }, 
    "265": {
        "area": 1455, 
        "av_neighbour_normed_area": 0.9271135375434022, 
        "neighbours": [
            290, 
            327, 
            245, 
            248, 
            316, 
            223
        ], 
        "norm_area": 1.3141652877702168, 
        "num_neighbours": 6
    }, 
    "269": {
        "area": 715, 
        "av_neighbour_normed_area": 1.0510317863430978, 
        "neighbours": [
            323, 
            296, 
            242, 
            276, 
            312, 
            220
        ], 
        "norm_area": 0.79429735334348261, 
        "num_neighbours": 6
    }, 
    "272": {
        "area": 423, 
        "av_neighbour_normed_area": 1.1322019884304626, 
        "neighbours": [
            0, 
            307, 
            300, 
            259
        ], 
        "norm_area": 0.70382695607722134, 
        "num_neighbours": 3
    }, 
    "276": {
        "area": 567, 
        "av_neighbour_normed_area": 1.0299800406843169, 
        "neighbours": [
            0, 
            269, 
            309, 
            312, 
            220
        ], 
        "norm_area": 0.79606879707078626, 
        "num_neighbours": 4
    }, 
    "290": {
        "area": 1159, 
        "av_neighbour_normed_area": 1.1182098958928048, 
        "neighbours": [
            304, 
            327, 
            265, 
            336, 
            248, 
            255
        ], 
        "norm_area": 0.99130434882773899, 
        "num_neighbours": 6
    }, 
    "295": {
        "area": 786, 
        "av_neighbour_normed_area": 0.99125112139017801, 
        "neighbours": [
            259, 
            263, 
            304, 
            308, 
            342, 
            347, 
            255
        ], 
        "norm_area": 1.0426378634233202, 
        "num_neighbours": 7
    }, 
    "296": {
        "area": 1259, 
        "av_neighbour_normed_area": 1.119907087039423, 
        "neighbours": [
            323, 
            260, 
            242, 
            269, 
            370, 
            439
        ], 
        "norm_area": 1.1956315299668552, 
        "num_neighbours": 6
    }, 
    "300": {
        "area": 562, 
        "av_neighbour_normed_area": 0.93076048952334101, 
        "neighbours": [
            259, 
            272, 
            307, 
            308, 
            342, 
            343
        ], 
        "norm_area": 1.0691185805832657, 
        "num_neighbours": 6
    }, 
    "304": {
        "area": 1257, 
        "av_neighbour_normed_area": 1.0581976942528935, 
        "neighbours": [
            336, 
            290, 
            295, 
            364, 
            376, 
            347, 
            255
        ], 
        "norm_area": 1.3041351721890575, 
        "num_neighbours": 7
    }, 
    "307": {
        "area": 369, 
        "av_neighbour_normed_area": 0.9192524786817482, 
        "neighbours": [
            0, 
            300, 
            272, 
            341, 
            343, 
            315
        ], 
        "norm_area": 0.81709477513803808, 
        "num_neighbours": 5
    }, 
    "308": {
        "area": 383, 
        "av_neighbour_normed_area": 1.2172363922753278, 
        "neighbours": [
            300, 
            259, 
            342, 
            295
        ], 
        "norm_area": 0.52555746240783185, 
        "num_neighbours": 4
    }, 
    "309": {
        "area": 602, 
        "av_neighbour_normed_area": 0.89277813823504582, 
        "neighbours": [
            0, 
            386, 
            329, 
            276, 
            312
        ], 
        "norm_area": 1.1363850883081736, 
        "num_neighbours": 4
    }, 
    "312": {
        "area": 742, 
        "av_neighbour_normed_area": 0.80938211149631567, 
        "neighbours": [
            0, 
            323, 
            357, 
            269, 
            276, 
            309
        ], 
        "norm_area": 1.2740384625410095, 
        "num_neighbours": 5
    }, 
    "315": {
        "area": 386, 
        "av_neighbour_normed_area": 0.97241253478242096, 
        "neighbours": [
            0, 
            307, 
            341
        ], 
        "norm_area": 0.91469194413253563, 
        "num_neighbours": 2
    }, 
    "316": {
        "area": 1016, 
        "av_neighbour_normed_area": 1.0238589643977676, 
        "neighbours": [
            260, 
            327, 
            361, 
            365, 
            370, 
            245, 
            265
        ], 
        "norm_area": 0.90702716590373167, 
        "num_neighbours": 7
    }, 
    "323": {
        "area": 775, 
        "av_neighbour_normed_area": 1.0203080747026678, 
        "neighbours": [
            357, 
            296, 
            269, 
            439, 
            312, 
            381
        ], 
        "norm_area": 0.94608341910940996, 
        "num_neighbours": 6
    }, 
    "327": {
        "area": 923, 
        "av_neighbour_normed_area": 1.137312129946126, 
        "neighbours": [
            290, 
            361, 
            336, 
            265, 
            316
        ], 
        "norm_area": 0.76117433713874816, 
        "num_neighbours": 5
    }, 
    "329": {
        "area": 389, 
        "av_neighbour_normed_area": 1.0579097677804148, 
        "neighbours": [
            0, 
            332, 
            309
        ], 
        "norm_area": 0.79145473142104783, 
        "num_neighbours": 2
    }, 
    "332": {
        "area": 381, 
        "av_neighbour_normed_area": 0.79145473062959304, 
        "neighbours": [
            0, 
            329
        ], 
        "norm_area": 0.97943444831056559, 
        "num_neighbours": 1
    }, 
    "336": {
        "area": 1176, 
        "av_neighbour_normed_area": 0.99518950382201499, 
        "neighbours": [
            304, 
            290, 
            327, 
            361, 
            391, 
            364
        ], 
        "norm_area": 1.1593821896315741, 
        "num_neighbours": 6
    }, 
    "341": {
        "area": 475, 
        "av_neighbour_normed_area": 0.89466607882346971, 
        "neighbours": [
            384, 
            0, 
            307, 
            343, 
            315, 
            373
        ], 
        "norm_area": 1.1277302953992165, 
        "num_neighbours": 5
    }, 
    "342": {
        "area": 695, 
        "av_neighbour_normed_area": 0.86074005094290784, 
        "neighbours": [
            384, 
            390, 
            295, 
            300, 
            308, 
            343, 
            347
        ], 
        "norm_area": 1.2467965156096747, 
        "num_neighbours": 7
    }, 
    "343": {
        "area": 412, 
        "av_neighbour_normed_area": 1.0693684898479336, 
        "neighbours": [
            384, 
            300, 
            307, 
            341, 
            342
        ], 
        "norm_area": 0.78089461813575434, 
        "num_neighbours": 5
    }, 
    "347": {
        "area": 575, 
        "av_neighbour_normed_area": 1.18311208783907, 
        "neighbours": [
            390, 
            295, 
            304, 
            342, 
            376
        ], 
        "norm_area": 0.63578062904196153, 
        "num_neighbours": 5
    }, 
    "357": {
        "area": 253, 
        "av_neighbour_normed_area": 0.94800163454596165, 
        "neighbours": [
            0, 
            312, 
            323, 
            381
        ], 
        "norm_area": 0.37407590045910799, 
        "num_neighbours": 3
    }, 
    "361": {
        "area": 1257, 
        "av_neighbour_normed_area": 0.92498416955231499, 
        "neighbours": [
            391, 
            327, 
            365, 
            430, 
            336, 
            434, 
            457, 
            316
        ], 
        "norm_area": 1.3146816587346803, 
        "num_neighbours": 8
    }, 
    "364": {
        "area": 916, 
        "av_neighbour_normed_area": 1.0369688706886102, 
        "neighbours": [
            336, 
            391, 
            304, 
            432, 
            433, 
            376
        ], 
        "norm_area": 1.0029197090308688, 
        "num_neighbours": 6
    }, 
    "365": {
        "area": 989, 
        "av_neighbour_normed_area": 1.0480211791962695, 
        "neighbours": [
            361, 
            430, 
            399, 
            370, 
            316
        ], 
        "norm_area": 0.91387913609700411, 
        "num_neighbours": 5
    }, 
    "370": {
        "area": 704, 
        "av_neighbour_normed_area": 1.1929790165531615, 
        "neighbours": [
            260, 
            296, 
            365, 
            399, 
            439, 
            316
        ], 
        "norm_area": 0.59359190656591332, 
        "num_neighbours": 6
    }, 
    "373": {
        "area": 402, 
        "av_neighbour_normed_area": 1.0015936182801701, 
        "neighbours": [
            408, 
            0, 
            384, 
            341
        ], 
        "norm_area": 0.87454677402684544, 
        "num_neighbours": 3
    }, 
    "376": {
        "area": 1137, 
        "av_neighbour_normed_area": 0.91896457105636697, 
        "neighbours": [
            304, 
            347, 
            390, 
            364, 
            432, 
            443, 
            447
        ], 
        "norm_area": 1.4369019688662883, 
        "num_neighbours": 7
    }, 
    "381": {
        "area": 512, 
        "av_neighbour_normed_area": 1.0600271661662946, 
        "neighbours": [
            0, 
            323, 
            357, 
            439
        ], 
        "norm_area": 0.62388302293546705, 
        "num_neighbours": 3
    }, 
    "384": {
        "area": 537, 
        "av_neighbour_normed_area": 0.92612157685496055, 
        "neighbours": [
            390, 
            408, 
            373, 
            342, 
            343, 
            440, 
            341
        ], 
        "norm_area": 1.0861022835788414, 
        "num_neighbours": 7
    }, 
    "386": {
        "area": 421, 
        "av_neighbour_normed_area": 1.2330633842379441, 
        "neighbours": [
            0, 
            420, 
            309, 
            438
        ], 
        "norm_area": 0.70955056280011797, 
        "num_neighbours": 3
    }, 
    "390": {
        "area": 647, 
        "av_neighbour_normed_area": 1.0793132943466179, 
        "neighbours": [
            384, 
            347, 
            376, 
            342, 
            440, 
            443
        ], 
        "norm_area": 0.88508892029012087, 
        "num_neighbours": 6
    }, 
    "391": {
        "area": 574, 
        "av_neighbour_normed_area": 1.0646994394109834, 
        "neighbours": [
            361, 
            364, 
            336, 
            433, 
            434
        ], 
        "norm_area": 0.5969217980061855, 
        "num_neighbours": 5
    }, 
    "399": {
        "area": 996, 
        "av_neighbour_normed_area": 1.1100061390212805, 
        "neighbours": [
            365, 
            430, 
            370, 
            439, 
            472
        ], 
        "norm_area": 0.93503567505369134, 
        "num_neighbours": 5
    }, 
    "407": {
        "area": 260, 
        "av_neighbour_normed_area": 1.0477934254082151, 
        "neighbours": [
            409, 
            441, 
            427, 
            0
        ], 
        "norm_area": 0.8262711874434322, 
        "num_neighbours": 3
    }, 
    "408": {
        "area": 367, 
        "av_neighbour_normed_area": 0.92699872750809575, 
        "neighbours": [
            384, 
            0, 
            440, 
            436, 
            373
        ], 
        "norm_area": 0.79094827686404634, 
        "num_neighbours": 4
    }, 
    "409": {
        "area": 364, 
        "av_neighbour_normed_area": 0.76101329031814957, 
        "neighbours": [
            0, 
            407, 
            460, 
            441
        ], 
        "norm_area": 1.4877384206234878, 
        "num_neighbours": 3
    }, 
    "420": {
        "area": 569, 
        "av_neighbour_normed_area": 0.80670647820603703, 
        "neighbours": [
            0, 
            386, 
            458, 
            427, 
            438, 
            490
        ], 
        "norm_area": 1.4014778335151183, 
        "num_neighbours": 5
    }, 
    "427": {
        "area": 325, 
        "av_neighbour_normed_area": 0.95120483239194487, 
        "neighbours": [
            0, 
            420, 
            490, 
            466, 
            407, 
            441
        ], 
        "norm_area": 0.85751978991992084, 
        "num_neighbours": 5
    }, 
    "430": {
        "area": 1438, 
        "av_neighbour_normed_area": 0.9253499603151828, 
        "neighbours": [
            517, 
            457, 
            365, 
            399, 
            472, 
            498, 
            361, 
            504
        ], 
        "norm_area": 1.4897694907713519, 
        "num_neighbours": 8
    }, 
    "432": {
        "area": 453, 
        "av_neighbour_normed_area": 1.0973241832773606, 
        "neighbours": [
            364, 
            433, 
            376, 
            477, 
            447
        ], 
        "norm_area": 0.50558035814386826, 
        "num_neighbours": 5
    }, 
    "433": {
        "area": 883, 
        "av_neighbour_normed_area": 0.78447080725696527, 
        "neighbours": [
            391, 
            457, 
            364, 
            432, 
            434, 
            500, 
            477
        ], 
        "norm_area": 1.2188917383316564, 
        "num_neighbours": 7
    }, 
    "434": {
        "area": 576, 
        "av_neighbour_normed_area": 1.0186481328644867, 
        "neighbours": [
            457, 
            391, 
            361, 
            433
        ], 
        "norm_area": 0.62762190239083626, 
        "num_neighbours": 4
    }, 
    "436": {
        "area": 454, 
        "av_neighbour_normed_area": 0.86408501029383611, 
        "neighbours": [
            0, 
            483, 
            408, 
            470, 
            440, 
            475
        ], 
        "norm_area": 0.97050021476850779, 
        "num_neighbours": 5
    }, 
    "438": {
        "area": 609, 
        "av_neighbour_normed_area": 0.98715331385130412, 
        "neighbours": [
            448, 
            0, 
            386, 
            420, 
            458, 
            491
        ], 
        "norm_area": 1.1613272321236041, 
        "num_neighbours": 5
    }, 
    "439": {
        "area": 1434, 
        "av_neighbour_normed_area": 0.79524367480656355, 
        "neighbours": [
            0, 
            323, 
            454, 
            487, 
            296, 
            399, 
            496, 
            370, 
            472, 
            381
        ], 
        "norm_area": 1.8599221799903933, 
        "num_neighbours": 9
    }, 
    "440": {
        "area": 463, 
        "av_neighbour_normed_area": 0.99682185611018193, 
        "neighbours": [
            384, 
            390, 
            408, 
            436, 
            470, 
            443
        ], 
        "norm_area": 0.77684563858518729, 
        "num_neighbours": 6
    }, 
    "441": {
        "area": 255, 
        "av_neighbour_normed_area": 0.9321929480448734, 
        "neighbours": [
            407, 
            488, 
            427, 
            460, 
            466, 
            409
        ], 
        "norm_area": 0.79812206672902974, 
        "num_neighbours": 6
    }, 
    "443": {
        "area": 979, 
        "av_neighbour_normed_area": 1.0102649859715944, 
        "neighbours": [
            507, 
            390, 
            447, 
            376, 
            501, 
            470, 
            440, 
            541, 
            511
        ], 
        "norm_area": 1.2934527314770683, 
        "num_neighbours": 9
    }, 
    "447": {
        "area": 712, 
        "av_neighbour_normed_area": 1.0673368890345039, 
        "neighbours": [
            507, 
            432, 
            376, 
            443, 
            477
        ], 
        "norm_area": 0.80579447814058847, 
        "num_neighbours": 5
    }, 
    "448": {
        "area": 619, 
        "av_neighbour_normed_area": 0.94995877777508708, 
        "neighbours": [
            0, 
            502, 
            454, 
            487, 
            491, 
            438
        ], 
        "norm_area": 0.99581724681923756, 
        "num_neighbours": 5
    }, 
    "454": {
        "area": 447, 
        "av_neighbour_normed_area": 1.2604797597377637, 
        "neighbours": [
            448, 
            0, 
            439, 
            487
        ], 
        "norm_area": 0.48133524866851041, 
        "num_neighbours": 3
    }, 
    "457": {
        "area": 957, 
        "av_neighbour_normed_area": 1.1141684296669723, 
        "neighbours": [
            430, 
            433, 
            434, 
            500, 
            361, 
            504
        ], 
        "norm_area": 0.94409733740407265, 
        "num_neighbours": 6
    }, 
    "458": {
        "area": 177, 
        "av_neighbour_normed_area": 1.2832916322351369, 
        "neighbours": [
            491, 
            420, 
            490, 
            438
        ], 
        "norm_area": 0.28184713475866646, 
        "num_neighbours": 4
    }, 
    "460": {
        "area": 219, 
        "av_neighbour_normed_area": 0.99335871304705614, 
        "neighbours": [
            0, 
            488, 
            492, 
            441, 
            409
        ], 
        "norm_area": 0.65864661754300002, 
        "num_neighbours": 4
    }, 
    "466": {
        "area": 313, 
        "av_neighbour_normed_area": 1.0062684191716478, 
        "neighbours": [
            488, 
            490, 
            427, 
            441, 
            505
        ], 
        "norm_area": 0.70686540298876688, 
        "num_neighbours": 5
    }, 
    "470": {
        "area": 592, 
        "av_neighbour_normed_area": 1.0136967519353297, 
        "neighbours": [
            483, 
            436, 
            501, 
            440, 
            443
        ], 
        "norm_area": 0.95483871067932902, 
        "num_neighbours": 5
    }, 
    "472": {
        "area": 761, 
        "av_neighbour_normed_area": 1.179795225518947, 
        "neighbours": [
            430, 
            399, 
            496, 
            498, 
            439, 
            542
        ], 
        "norm_area": 0.69286798279174666, 
        "num_neighbours": 6
    }, 
    "474": {
        "area": 608, 
        "av_neighbour_normed_area": 0.93304708924437052, 
        "neighbours": [
            0, 
            513, 
            475, 
            516
        ], 
        "norm_area": 1.2274562594159355, 
        "num_neighbours": 3
    }, 
    "475": {
        "area": 394, 
        "av_neighbour_normed_area": 0.99602169587533929, 
        "neighbours": [
            0, 
            483, 
            516, 
            436, 
            474
        ], 
        "norm_area": 0.77750370105127775, 
        "num_neighbours": 4
    }, 
    "477": {
        "area": 832, 
        "av_neighbour_normed_area": 0.92180660085566835, 
        "neighbours": [
            522, 
            432, 
            433, 
            500, 
            507, 
            447
        ], 
        "norm_area": 1.0221130231147257, 
        "num_neighbours": 6
    }, 
    "483": {
        "area": 523, 
        "av_neighbour_normed_area": 0.89521613229391306, 
        "neighbours": [
            516, 
            436, 
            501, 
            470, 
            475
        ], 
        "norm_area": 1.0202887251534258, 
        "num_neighbours": 5
    }, 
    "487": {
        "area": 733, 
        "av_neighbour_normed_area": 1.0149466334352644, 
        "neighbours": [
            448, 
            454, 
            523, 
            496, 
            502, 
            439
        ], 
        "norm_area": 0.9256998536641402, 
        "num_neighbours": 6
    }, 
    "488": {
        "area": 436, 
        "av_neighbour_normed_area": 0.92766588953614104, 
        "neighbours": [
            550, 
            460, 
            492, 
            466, 
            441, 
            505
        ], 
        "norm_area": 1.056116270682826, 
        "num_neighbours": 6
    }, 
    "490": {
        "area": 498, 
        "av_neighbour_normed_area": 1.0151800416359957, 
        "neighbours": [
            427, 
            420, 
            458, 
            491, 
            466, 
            505
        ], 
        "norm_area": 1.0232876722345823, 
        "num_neighbours": 6
    }, 
    "491": {
        "area": 836, 
        "av_neighbour_normed_area": 0.90809503440952755, 
        "neighbours": [
            448, 
            438, 
            490, 
            528, 
            502, 
            505, 
            539, 
            458
        ], 
        "norm_area": 1.5470737923505342, 
        "num_neighbours": 8
    }, 
    "492": {
        "area": 275, 
        "av_neighbour_normed_area": 1.0427250224084039, 
        "neighbours": [
            0, 
            550, 
            488, 
            460, 
            533
        ], 
        "norm_area": 0.63145809514623985, 
        "num_neighbours": 4
    }, 
    "496": {
        "area": 752, 
        "av_neighbour_normed_area": 1.1781890380978475, 
        "neighbours": [
            544, 
            487, 
            523, 
            439, 
            472, 
            542
        ], 
        "norm_area": 0.76306443529858281, 
        "num_neighbours": 6
    }, 
    "498": {
        "area": 952, 
        "av_neighbour_normed_area": 1.1128739582332392, 
        "neighbours": [
            548, 
            517, 
            554, 
            430, 
            472, 
            542
        ], 
        "norm_area": 0.85355648635707104, 
        "num_neighbours": 6
    }, 
    "500": {
        "area": 763, 
        "av_neighbour_normed_area": 1.0603517381095025, 
        "neighbours": [
            547, 
            457, 
            522, 
            433, 
            504, 
            477
        ], 
        "norm_area": 0.79204152349266954, 
        "num_neighbours": 6
    }, 
    "501": {
        "area": 681, 
        "av_neighbour_normed_area": 1.0854322052626069, 
        "neighbours": [
            483, 
            516, 
            470, 
            443, 
            541
        ], 
        "norm_area": 1.0073964507061568, 
        "num_neighbours": 5
    }, 
    "502": {
        "area": 483, 
        "av_neighbour_normed_area": 1.1275517403497393, 
        "neighbours": [
            448, 
            491, 
            487, 
            523, 
            528
        ], 
        "norm_area": 0.63435776301860514, 
        "num_neighbours": 5
    }, 
    "504": {
        "area": 1165, 
        "av_neighbour_normed_area": 0.9075388829074541, 
        "neighbours": [
            547, 
            517, 
            457, 
            430, 
            500
        ], 
        "norm_area": 1.242004265394808, 
        "num_neighbours": 5
    }, 
    "505": {
        "area": 700, 
        "av_neighbour_normed_area": 1.0672870622363781, 
        "neighbours": [
            491, 
            550, 
            488, 
            490, 
            555, 
            466, 
            539
        ], 
        "norm_area": 1.2962962972981484, 
        "num_neighbours": 7
    }, 
    "507": {
        "area": 1017, 
        "av_neighbour_normed_area": 1.0608354735147838, 
        "neighbours": [
            443, 
            522, 
            557, 
            560, 
            447, 
            477, 
            511
        ], 
        "norm_area": 1.0786363646379047, 
        "num_neighbours": 7
    }, 
    "511": {
        "area": 719, 
        "av_neighbour_normed_area": 1.2023732675692917, 
        "neighbours": [
            507, 
            553, 
            557, 
            443, 
            541
        ], 
        "norm_area": 0.7541430679199056, 
        "num_neighbours": 5
    }, 
    "513": {
        "area": 650, 
        "av_neighbour_normed_area": 0.96912262662305415, 
        "neighbours": [
            0, 
            516, 
            545, 
            556, 
            474, 
            571
        ], 
        "norm_area": 1.2557959824553711, 
        "num_neighbours": 5
    }, 
    "516": {
        "area": 442, 
        "av_neighbour_normed_area": 1.0351645921556707, 
        "neighbours": [
            545, 
            483, 
            513, 
            501, 
            474, 
            475, 
            541
        ], 
        "norm_area": 0.76584158515950984, 
        "num_neighbours": 7
    }, 
    "517": {
        "area": 645, 
        "av_neighbour_normed_area": 1.2755045210769023, 
        "neighbours": [
            547, 
            548, 
            430, 
            498, 
            504
        ], 
        "norm_area": 0.50667714161373911, 
        "num_neighbours": 5
    }, 
    "522": {
        "area": 1056, 
        "av_neighbour_normed_area": 0.96454574823847883, 
        "neighbours": [
            547, 
            560, 
            500, 
            507, 
            477
        ], 
        "norm_area": 1.1298951433091291, 
        "num_neighbours": 5
    }, 
    "523": {
        "area": 1016, 
        "av_neighbour_normed_area": 0.91520661965977324, 
        "neighbours": [
            544, 
            496, 
            487, 
            528, 
            561, 
            563, 
            502
        ], 
        "norm_area": 1.3551829278312042, 
        "num_neighbours": 7
    }, 
    "528": {
        "area": 603, 
        "av_neighbour_normed_area": 1.124917935451718, 
        "neighbours": [
            491, 
            523, 
            561, 
            502, 
            539
        ], 
        "norm_area": 0.81398488221113119, 
        "num_neighbours": 5
    }, 
    "533": {
        "area": 372, 
        "av_neighbour_normed_area": 0.83374208135945227, 
        "neighbours": [
            0, 
            492, 
            550, 
            551
        ], 
        "norm_area": 0.98153034401118733, 
        "num_neighbours": 3
    }, 
    "539": {
        "area": 634, 
        "av_neighbour_normed_area": 0.99218232923989191, 
        "neighbours": [
            491, 
            555, 
            528, 
            561, 
            505, 
            572
        ], 
        "norm_area": 1.0578420477203394, 
        "num_neighbours": 6
    }, 
    "541": {
        "area": 844, 
        "av_neighbour_normed_area": 0.82918775785354448, 
        "neighbours": [
            545, 
            516, 
            553, 
            573, 
            501, 
            567, 
            443, 
            511
        ], 
        "norm_area": 1.3927392749291334, 
        "num_neighbours": 8
    }, 
    "542": {
        "area": 1018, 
        "av_neighbour_normed_area": 0.8381899417627775, 
        "neighbours": [
            544, 
            554, 
            496, 
            498, 
            472
        ], 
        "norm_area": 1.1774230868223872, 
        "num_neighbours": 5
    }, 
    "544": {
        "area": 951, 
        "av_neighbour_normed_area": 1.0113782967530736, 
        "neighbours": [
            583, 
            554, 
            523, 
            496, 
            563, 
            542
        ], 
        "norm_area": 1.0580381986654015, 
        "num_neighbours": 6
    }, 
    "545": {
        "area": 340, 
        "av_neighbour_normed_area": 1.0931964497853031, 
        "neighbours": [
            516, 
            513, 
            567, 
            571, 
            541
        ], 
        "norm_area": 0.56497175241355935, 
        "num_neighbours": 5
    }, 
    "547": {
        "area": 887, 
        "av_neighbour_normed_area": 1.0885466600140172, 
        "neighbours": [
            576, 
            548, 
            517, 
            522, 
            560, 
            500, 
            504
        ], 
        "norm_area": 0.8051089221629758, 
        "num_neighbours": 7
    }, 
    "548": {
        "area": 1923, 
        "av_neighbour_normed_area": 0.78668405158715449, 
        "neighbours": [
            608, 
            576, 
            547, 
            517, 
            615, 
            554, 
            587, 
            498
        ], 
        "norm_area": 1.987083441973809, 
        "num_neighbours": 8
    }, 
    "550": {
        "area": 715, 
        "av_neighbour_normed_area": 0.94689494274999786, 
        "neighbours": [
            0, 
            577, 
            555, 
            488, 
            492, 
            619, 
            588, 
            533, 
            505
        ], 
        "norm_area": 1.474606858439327, 
        "num_neighbours": 8
    }, 
    "551": {
        "area": 147, 
        "av_neighbour_normed_area": 0.98153034302965692, 
        "neighbours": [
            0, 
            533
        ], 
        "norm_area": 0.39516129132653227, 
        "num_neighbours": 1
    }, 
    "553": {
        "area": 799, 
        "av_neighbour_normed_area": 1.093530487562004, 
        "neighbours": [
            557, 
            541, 
            593, 
            573, 
            511
        ], 
        "norm_area": 0.95141700505048588, 
        "num_neighbours": 5
    }, 
    "554": {
        "area": 907, 
        "av_neighbour_normed_area": 1.1122201194685402, 
        "neighbours": [
            544, 
            548, 
            583, 
            587, 
            498, 
            542
        ], 
        "norm_area": 0.82342260653927524, 
        "num_neighbours": 6
    }, 
    "555": {
        "area": 348, 
        "av_neighbour_normed_area": 1.0670623030618769, 
        "neighbours": [
            577, 
            550, 
            505, 
            539, 
            572
        ], 
        "norm_area": 0.60521739230555827, 
        "num_neighbours": 5
    }, 
    "556": {
        "area": 438, 
        "av_neighbour_normed_area": 1.1733859505373632, 
        "neighbours": [
            0, 
            571, 
            579, 
            513
        ], 
        "norm_area": 0.72556598664570948, 
        "num_neighbours": 3
    }, 
    "557": {
        "area": 1128, 
        "av_neighbour_normed_area": 0.95410702049722829, 
        "neighbours": [
            581, 
            553, 
            560, 
            593, 
            600, 
            507, 
            606, 
            511
        ], 
        "norm_area": 1.2956209629542397, 
        "num_neighbours": 8
    }, 
    "560": {
        "area": 1174, 
        "av_neighbour_normed_area": 1.0437844490642225, 
        "neighbours": [
            576, 
            547, 
            581, 
            522, 
            557, 
            601, 
            507
        ], 
        "norm_area": 1.1248289087486643, 
        "num_neighbours": 7
    }, 
    "561": {
        "area": 735, 
        "av_neighbour_normed_area": 0.99131278760274599, 
        "neighbours": [
            523, 
            590, 
            528, 
            563, 
            539, 
            572
        ], 
        "norm_area": 1.0301331474628241, 
        "num_neighbours": 6
    }, 
    "563": {
        "area": 991, 
        "av_neighbour_normed_area": 1.0540129995804204, 
        "neighbours": [
            544, 
            583, 
            523, 
            590, 
            561, 
            594
        ], 
        "norm_area": 1.1811680582129342, 
        "num_neighbours": 6
    }, 
    "567": {
        "area": 313, 
        "av_neighbour_normed_area": 1.0709197147141376, 
        "neighbours": [
            545, 
            589, 
            541, 
            571, 
            573
        ], 
        "norm_area": 0.48982785702601878, 
        "num_neighbours": 5
    }, 
    "571": {
        "area": 760, 
        "av_neighbour_normed_area": 0.84148130754615413, 
        "neighbours": [
            545, 
            579, 
            613, 
            513, 
            617, 
            556, 
            589, 
            567
        ], 
        "norm_area": 1.5617775504496789, 
        "num_neighbours": 8
    }, 
    "572": {
        "area": 374, 
        "av_neighbour_normed_area": 0.88273782819949509, 
        "neighbours": [
            577, 
            555, 
            590, 
            561, 
            595, 
            539
        ], 
        "norm_area": 0.66038846480333724, 
        "num_neighbours": 6
    }, 
    "573": {
        "area": 575, 
        "av_neighbour_normed_area": 1.0162680076258404, 
        "neighbours": [
            553, 
            589, 
            593, 
            567, 
            541
        ], 
        "norm_area": 0.80645161390483866, 
        "num_neighbours": 5
    }, 
    "576": {
        "area": 986, 
        "av_neighbour_normed_area": 1.1156383581301219, 
        "neighbours": [
            608, 
            547, 
            548, 
            560, 
            601
        ], 
        "norm_area": 0.83729619665384847, 
        "num_neighbours": 5
    }, 
    "577": {
        "area": 452, 
        "av_neighbour_normed_area": 0.92897847214352192, 
        "neighbours": [
            555, 
            550, 
            572, 
            619, 
            595, 
            604
        ], 
        "norm_area": 0.84617784811529484, 
        "num_neighbours": 6
    }, 
    "579": {
        "area": 401, 
        "av_neighbour_normed_area": 1.1575534178526798, 
        "neighbours": [
            0, 
            617, 
            556, 
            596, 
            571
        ], 
        "norm_area": 0.70258431988042491, 
        "num_neighbours": 4
    }, 
    "581": {
        "area": 1006, 
        "av_neighbour_normed_area": 1.0702908939111462, 
        "neighbours": [
            557, 
            622, 
            560, 
            600, 
            601
        ], 
        "norm_area": 0.97669903012816695, 
        "num_neighbours": 5
    }, 
    "583": {
        "area": 709, 
        "av_neighbour_normed_area": 0.95973425352712638, 
        "neighbours": [
            544, 
            554, 
            587, 
            621, 
            594, 
            563
        ], 
        "norm_area": 0.76800866682543589, 
        "num_neighbours": 6
    }, 
    "587": {
        "area": 1056, 
        "av_neighbour_normed_area": 1.148573527192956, 
        "neighbours": [
            548, 
            583, 
            554, 
            621, 
            615, 
            636
        ], 
        "norm_area": 0.82921083727935607, 
        "num_neighbours": 6
    }, 
    "588": {
        "area": 578, 
        "av_neighbour_normed_area": 1.1654158246516964, 
        "neighbours": [
            0, 
            610, 
            550, 
            619, 
            634
        ], 
        "norm_area": 0.93489688737516363, 
        "num_neighbours": 4
    }, 
    "589": {
        "area": 676, 
        "av_neighbour_normed_area": 1.0211337966012306, 
        "neighbours": [
            613, 
            637, 
            593, 
            567, 
            571, 
            573
        ], 
        "norm_area": 1.0286583829443978, 
        "num_neighbours": 6
    }, 
    "590": {
        "area": 663, 
        "av_neighbour_normed_area": 1.0014109224569541, 
        "neighbours": [
            561, 
            623, 
            624, 
            563, 
            594, 
            595, 
            572
        ], 
        "norm_area": 0.87931034582884238, 
        "num_neighbours": 7
    }, 
    "593": {
        "area": 933, 
        "av_neighbour_normed_area": 1.0020784534684188, 
        "neighbours": [
            646, 
            553, 
            589, 
            637, 
            557, 
            573, 
            606
        ], 
        "norm_area": 1.2186975191954339, 
        "num_neighbours": 7
    }, 
    "594": {
        "area": 960, 
        "av_neighbour_normed_area": 0.89798927025542685, 
        "neighbours": [
            583, 
            621, 
            590, 
            624, 
            563, 
            631
        ], 
        "norm_area": 1.2334047119228266, 
        "num_neighbours": 6
    }, 
    "595": {
        "area": 566, 
        "av_neighbour_normed_area": 0.99753981136441638, 
        "neighbours": [
            577, 
            604, 
            590, 
            623, 
            632, 
            572
        ], 
        "norm_area": 0.87774618864684939, 
        "num_neighbours": 6
    }, 
    "596": {
        "area": 498, 
        "av_neighbour_normed_area": 0.77773762619757691, 
        "neighbours": [
            0, 
            617, 
            626, 
            579
        ], 
        "norm_area": 1.0969163005631279, 
        "num_neighbours": 3
    }, 
    "600": {
        "area": 647, 
        "av_neighbour_normed_area": 1.0164510051234124, 
        "neighbours": [
            581, 
            647, 
            557, 
            622, 
            606
        ], 
        "norm_area": 0.71255506708072025, 
        "num_neighbours": 5
    }, 
    "601": {
        "area": 1226, 
        "av_neighbour_normed_area": 0.89202470353633867, 
        "neighbours": [
            608, 
            576, 
            581, 
            622, 
            655, 
            560, 
            638
        ], 
        "norm_area": 1.1832345246470786, 
        "num_neighbours": 7
    }, 
    "604": {
        "area": 484, 
        "av_neighbour_normed_area": 1.0816314069436979, 
        "neighbours": [
            577, 
            619, 
            595, 
            632, 
            633
        ], 
        "norm_area": 0.7324455215825787, 
        "num_neighbours": 5
    }, 
    "606": {
        "area": 670, 
        "av_neighbour_normed_area": 0.99413609711214335, 
        "neighbours": [
            646, 
            647, 
            557, 
            593, 
            600
        ], 
        "norm_area": 0.81587920217065268, 
        "num_neighbours": 5
    }, 
    "608": {
        "area": 678, 
        "av_neighbour_normed_area": 1.2289813623318495, 
        "neighbours": [
            576, 
            548, 
            615, 
            601, 
            638
        ], 
        "norm_area": 0.47793599423372063, 
        "num_neighbours": 5
    }, 
    "610": {
        "area": 482, 
        "av_neighbour_normed_area": 0.77247781853952646, 
        "neighbours": [
            0, 
            634, 
            588, 
            669
        ], 
        "norm_area": 1.0485859328381582, 
        "num_neighbours": 3
    }, 
    "613": {
        "area": 488, 
        "av_neighbour_normed_area": 1.2181760623572526, 
        "neighbours": [
            648, 
            617, 
            589, 
            571, 
            637
        ], 
        "norm_area": 0.71849234493547698, 
        "num_neighbours": 5
    }, 
    "615": {
        "area": 1631, 
        "av_neighbour_normed_area": 1.1345672514081566, 
        "neighbours": [
            608, 
            548, 
            587, 
            656, 
            659, 
            636, 
            638
        ], 
        "norm_area": 1.160264228643934, 
        "num_neighbours": 7
    }, 
    "617": {
        "area": 587, 
        "av_neighbour_normed_area": 0.83358871776105248, 
        "neighbours": [
            642, 
            579, 
            613, 
            648, 
            650, 
            626, 
            596, 
            571
        ], 
        "norm_area": 1.2459538349097559, 
        "num_neighbours": 8
    }, 
    "619": {
        "area": 718, 
        "av_neighbour_normed_area": 0.9375170187547166, 
        "neighbours": [
            577, 
            550, 
            588, 
            653, 
            633, 
            634, 
            604
        ], 
        "norm_area": 1.2234664080124589, 
        "num_neighbours": 7
    }, 
    "621": {
        "area": 674, 
        "av_neighbour_normed_area": 1.0134415468153581, 
        "neighbours": [
            651, 
            583, 
            587, 
            594, 
            631, 
            636
        ], 
        "norm_area": 0.63316110950269922, 
        "num_neighbours": 6
    }, 
    "622": {
        "area": 975, 
        "av_neighbour_normed_area": 0.91551655013782918, 
        "neighbours": [
            581, 
            647, 
            655, 
            663, 
            600, 
            601
        ], 
        "norm_area": 1.0352150071953194, 
        "num_neighbours": 6
    }, 
    "623": {
        "area": 738, 
        "av_neighbour_normed_area": 1.1535874311891372, 
        "neighbours": [
            590, 
            624, 
            595, 
            660, 
            632
        ], 
        "norm_area": 0.90752582490737321, 
        "num_neighbours": 5
    }, 
    "624": {
        "area": 914, 
        "av_neighbour_normed_area": 0.95506060401398374, 
        "neighbours": [
            590, 
            623, 
            594, 
            660, 
            631, 
            666, 
            667
        ], 
        "norm_area": 1.119510062243944, 
        "num_neighbours": 7
    }, 
    "626": {
        "area": 374, 
        "av_neighbour_normed_area": 1.3520045395562685, 
        "neighbours": [
            0, 
            649, 
            650, 
            596, 
            617
        ], 
        "norm_area": 0.38467472458028801, 
        "num_neighbours": 4
    }, 
    "631": {
        "area": 719, 
        "av_neighbour_normed_area": 0.90931825224594887, 
        "neighbours": [
            651, 
            621, 
            624, 
            594, 
            666
        ], 
        "norm_area": 0.8067773798166944, 
        "num_neighbours": 5
    }, 
    "632": {
        "area": 1158, 
        "av_neighbour_normed_area": 0.77212496216547277, 
        "neighbours": [
            675, 
            681, 
            653, 
            623, 
            595, 
            660, 
            633, 
            604
        ], 
        "norm_area": 1.9593908639466118, 
        "num_neighbours": 8
    }, 
    "633": {
        "area": 410, 
        "av_neighbour_normed_area": 1.2683537453550755, 
        "neighbours": [
            632, 
            619, 
            604, 
            653
        ], 
        "norm_area": 0.50137572707890554, 
        "num_neighbours": 4
    }, 
    "634": {
        "area": 558, 
        "av_neighbour_normed_area": 0.98200862832089464, 
        "neighbours": [
            610, 
            619, 
            588, 
            653, 
            661, 
            669
        ], 
        "norm_area": 0.91500410048225744, 
        "num_neighbours": 6
    }, 
    "636": {
        "area": 1797, 
        "av_neighbour_normed_area": 0.88638156518876599, 
        "neighbours": [
            587, 
            679, 
            651, 
            621, 
            656, 
            689, 
            696, 
            615
        ], 
        "norm_area": 1.5195011108211574, 
        "num_neighbours": 8
    }, 
    "637": {
        "area": 874, 
        "av_neighbour_normed_area": 0.99061523856645994, 
        "neighbours": [
            613, 
            646, 
            648, 
            683, 
            589, 
            593, 
            670, 
            671
        ], 
        "norm_area": 1.331555895117071, 
        "num_neighbours": 8
    }, 
    "638": {
        "area": 1327, 
        "av_neighbour_normed_area": 1.0474101918719076, 
        "neighbours": [
            608, 
            615, 
            655, 
            659, 
            601
        ], 
        "norm_area": 0.97702842096955822, 
        "num_neighbours": 5
    }, 
    "642": {
        "area": 293, 
        "av_neighbour_normed_area": 0.84641218832255605, 
        "neighbours": [
            648, 
            617, 
            650, 
            662
        ], 
        "norm_area": 0.64431006147439795, 
        "num_neighbours": 4
    }, 
    "646": {
        "area": 637, 
        "av_neighbour_normed_area": 1.0674916852150991, 
        "neighbours": [
            673, 
            647, 
            593, 
            670, 
            637, 
            606
        ], 
        "norm_area": 0.7849661131393243, 
        "num_neighbours": 6
    }, 
    "647": {
        "area": 761, 
        "av_neighbour_normed_area": 0.87543570861335096, 
        "neighbours": [
            673, 
            646, 
            622, 
            663, 
            600, 
            606
        ], 
        "norm_area": 0.95884082418513439, 
        "num_neighbours": 6
    }, 
    "648": {
        "area": 499, 
        "av_neighbour_normed_area": 0.98219311254179964, 
        "neighbours": [
            642, 
            613, 
            617, 
            662, 
            637, 
            671
        ], 
        "norm_area": 0.92293464958353577, 
        "num_neighbours": 6
    }, 
    "649": {
        "area": 2348, 
        "av_neighbour_normed_area": 0.9646750223666537, 
        "neighbours": [
            0, 
            704, 
            678, 
            650, 
            751, 
            626
        ], 
        "norm_area": 2.4281282326491169, 
        "num_neighbours": 5
    }, 
    "650": {
        "area": 456, 
        "av_neighbour_normed_area": 0.95891700985962025, 
        "neighbours": [
            642, 
            678, 
            649, 
            626, 
            662, 
            617
        ], 
        "norm_area": 0.63701979145507803, 
        "num_neighbours": 6
    }, 
    "651": {
        "area": 1146, 
        "av_neighbour_normed_area": 1.0601086123300223, 
        "neighbours": [
            621, 
            689, 
            631, 
            666, 
            636
        ], 
        "norm_area": 0.92374657524011927, 
        "num_neighbours": 5
    }, 
    "653": {
        "area": 911, 
        "av_neighbour_normed_area": 1.1422411481606667, 
        "neighbours": [
            675, 
            619, 
            707, 
            661, 
            632, 
            633, 
            634, 
            699
        ], 
        "norm_area": 1.1581121891470061, 
        "num_neighbours": 8
    }, 
    "655": {
        "area": 1107, 
        "av_neighbour_normed_area": 1.1365103538319898, 
        "neighbours": [
            663, 
            622, 
            659, 
            695, 
            601, 
            638
        ], 
        "norm_area": 0.81516936771711701, 
        "num_neighbours": 6
    }, 
    "656": {
        "area": 910, 
        "av_neighbour_normed_area": 1.261220799501042, 
        "neighbours": [
            615, 
            659, 
            636, 
            679
        ], 
        "norm_area": 0.55076411054896357, 
        "num_neighbours": 4
    }, 
    "659": {
        "area": 2149, 
        "av_neighbour_normed_area": 0.97196760579878072, 
        "neighbours": [
            679, 
            715, 
            718, 
            655, 
            656, 
            695, 
            615, 
            638
        ], 
        "norm_area": 1.6004468451650986, 
        "num_neighbours": 8
    }, 
    "660": {
        "area": 765, 
        "av_neighbour_normed_area": 1.0976259651052567, 
        "neighbours": [
            681, 
            623, 
            624, 
            690, 
            632, 
            667
        ], 
        "norm_area": 0.93197969643302536, 
        "num_neighbours": 6
    }, 
    "661": {
        "area": 727, 
        "av_neighbour_normed_area": 0.9771265680880723, 
        "neighbours": [
            707, 
            653, 
            694, 
            634, 
            669
        ], 
        "norm_area": 1.0594578850009531, 
        "num_neighbours": 5
    }, 
    "662": {
        "area": 277, 
        "av_neighbour_normed_area": 0.80961305832524688, 
        "neighbours": [
            642, 
            678, 
            648, 
            650, 
            671
        ], 
        "norm_area": 0.57974047818826702, 
        "num_neighbours": 5
    }, 
    "663": {
        "area": 904, 
        "av_neighbour_normed_area": 1.0086320822482617, 
        "neighbours": [
            673, 
            647, 
            622, 
            655, 
            695
        ], 
        "norm_area": 0.84660048798427412, 
        "num_neighbours": 5
    }, 
    "666": {
        "area": 762, 
        "av_neighbour_normed_area": 1.0869509406650602, 
        "neighbours": [
            651, 
            684, 
            624, 
            689, 
            631, 
            667
        ], 
        "norm_area": 0.63676880322947349, 
        "num_neighbours": 6
    }, 
    "667": {
        "area": 1108, 
        "av_neighbour_normed_area": 0.81962827761469348, 
        "neighbours": [
            684, 
            716, 
            690, 
            624, 
            722, 
            660, 
            666
        ], 
        "norm_area": 1.2896574669147125, 
        "num_neighbours": 7
    }, 
    "669": {
        "area": 243, 
        "av_neighbour_normed_area": 0.86707129106586833, 
        "neighbours": [
            0, 
            610, 
            661, 
            694, 
            634
        ], 
        "norm_area": 0.46753246853363634, 
        "num_neighbours": 4
    }, 
    "670": {
        "area": 702, 
        "av_neighbour_normed_area": 0.90689895465122361, 
        "neighbours": [
            673, 
            646, 
            710, 
            683, 
            688, 
            637
        ], 
        "norm_area": 1.0225782967045449, 
        "num_neighbours": 6
    }, 
    "671": {
        "area": 725, 
        "av_neighbour_normed_area": 0.76513106570642819, 
        "neighbours": [
            704, 
            705, 
            678, 
            648, 
            683, 
            662, 
            637
        ], 
        "norm_area": 1.3731060616080224, 
        "num_neighbours": 7
    }, 
    "673": {
        "area": 929, 
        "av_neighbour_normed_area": 0.93774004798623833, 
        "neighbours": [
            646, 
            711, 
            663, 
            647, 
            688, 
            695, 
            670
        ], 
        "norm_area": 1.0573983749852505, 
        "num_neighbours": 7
    }, 
    "675": {
        "area": 360, 
        "av_neighbour_normed_area": 1.2365395017792564, 
        "neighbours": [
            632, 
            681, 
            699, 
            653
        ], 
        "norm_area": 0.40932348025059695, 
        "num_neighbours": 4
    }, 
    "678": {
        "area": 416, 
        "av_neighbour_normed_area": 1.1052432405193393, 
        "neighbours": [
            704, 
            649, 
            650, 
            662, 
            671
        ], 
        "norm_area": 0.47069472831481335, 
        "num_neighbours": 5
    }, 
    "679": {
        "area": 1032, 
        "av_neighbour_normed_area": 1.0068910057884364, 
        "neighbours": [
            715, 
            656, 
            659, 
            696, 
            636
        ], 
        "norm_area": 0.7646710146351986, 
        "num_neighbours": 5
    }, 
    "681": {
        "area": 494, 
        "av_neighbour_normed_area": 1.0244076856966313, 
        "neighbours": [
            675, 
            690, 
            660, 
            632, 
            699
        ], 
        "norm_area": 0.65849107004957075, 
        "num_neighbours": 5
    }, 
    "683": {
        "area": 591, 
        "av_neighbour_normed_area": 1.0174486186310365, 
        "neighbours": [
            705, 
            710, 
            719, 
            637, 
            670, 
            671
        ], 
        "norm_area": 0.8554885414115585, 
        "num_neighbours": 6
    }, 
    "684": {
        "area": 1042, 
        "av_neighbour_normed_area": 1.2221110497664338, 
        "neighbours": [
            738, 
            689, 
            722, 
            666, 
            667
        ], 
        "norm_area": 0.67767950152164669, 
        "num_neighbours": 5
    }, 
    "688": {
        "area": 649, 
        "av_neighbour_normed_area": 0.92458877846803111, 
        "neighbours": [
            673, 
            710, 
            711, 
            732, 
            670
        ], 
        "norm_area": 0.83526383626550571, 
        "num_neighbours": 5
    }, 
    "689": {
        "area": 2251, 
        "av_neighbour_normed_area": 0.92086031533756796, 
        "neighbours": [
            738, 
            651, 
            684, 
            755, 
            696, 
            729, 
            666, 
            636
        ], 
        "norm_area": 1.7043346593401958, 
        "num_neighbours": 8
    }, 
    "690": {
        "area": 513, 
        "av_neighbour_normed_area": 0.927537479334132, 
        "neighbours": [
            667, 
            681, 
            716, 
            660, 
            699
        ], 
        "norm_area": 0.65118050366695357, 
        "num_neighbours": 5
    }, 
    "694": {
        "area": 312, 
        "av_neighbour_normed_area": 0.99900055584761782, 
        "neighbours": [
            0, 
            707, 
            714, 
            661, 
            669
        ], 
        "norm_area": 0.44523724680917592, 
        "num_neighbours": 4
    }, 
    "695": {
        "area": 1567, 
        "av_neighbour_normed_area": 1.0854971554710882, 
        "neighbours": [
            673, 
            711, 
            663, 
            718, 
            655, 
            659, 
            727, 
            730
        ], 
        "norm_area": 1.1765368381671204, 
        "num_neighbours": 8
    }, 
    "696": {
        "area": 761, 
        "av_neighbour_normed_area": 1.1059870768584452, 
        "neighbours": [
            679, 
            715, 
            689, 
            729, 
            636
        ], 
        "norm_area": 0.52489998720604358, 
        "num_neighbours": 5
    }, 
    "699": {
        "area": 955, 
        "av_neighbour_normed_area": 0.90145935656466281, 
        "neighbours": [
            736, 
            707, 
            745, 
            716, 
            653, 
            690, 
            675, 
            681
        ], 
        "norm_area": 1.1701638852103768, 
        "num_neighbours": 8
    }, 
    "704": {
        "area": 613, 
        "av_neighbour_normed_area": 1.3484838917654249, 
        "neighbours": [
            705, 
            678, 
            649, 
            751, 
            723, 
            671
        ], 
        "norm_area": 0.50822163980145507, 
        "num_neighbours": 6
    }, 
    "705": {
        "area": 426, 
        "av_neighbour_normed_area": 0.75877966969216815, 
        "neighbours": [
            704, 
            683, 
            719, 
            723, 
            726, 
            671
        ], 
        "norm_area": 0.68728152829342826, 
        "num_neighbours": 6
    }, 
    "707": {
        "area": 1407, 
        "av_neighbour_normed_area": 0.8351470014711988, 
        "neighbours": [
            744, 
            745, 
            714, 
            653, 
            786, 
            661, 
            694, 
            699
        ], 
        "norm_area": 1.8997468364454126, 
        "num_neighbours": 8
    }, 
    "710": {
        "area": 439, 
        "av_neighbour_normed_area": 0.97072638997597349, 
        "neighbours": [
            683, 
            719, 
            688, 
            732, 
            670
        ], 
        "norm_area": 0.57672096789553073, 
        "num_neighbours": 5
    }, 
    "711": {
        "area": 930, 
        "av_neighbour_normed_area": 0.95314087711408169, 
        "neighbours": [
            673, 
            743, 
            688, 
            695, 
            730, 
            732
        ], 
        "norm_area": 0.93939394039550506, 
        "num_neighbours": 6
    }, 
    "714": {
        "area": 426, 
        "av_neighbour_normed_area": 0.96002690874205066, 
        "neighbours": [
            0, 
            744, 
            707, 
            694
        ], 
        "norm_area": 0.56926503440946996, 
        "num_neighbours": 3
    }, 
    "715": {
        "area": 1131, 
        "av_neighbour_normed_area": 0.95199189198592582, 
        "neighbours": [
            737, 
            742, 
            679, 
            718, 
            659, 
            696, 
            729
        ], 
        "norm_area": 0.8388429762078099, 
        "num_neighbours": 7
    }, 
    "716": {
        "area": 617, 
        "av_neighbour_normed_area": 1.0714846143326546, 
        "neighbours": [
            736, 
            699, 
            690, 
            722, 
            667
        ], 
        "norm_area": 0.58739527899051214, 
        "num_neighbours": 5
    }, 
    "718": {
        "area": 2037, 
        "av_neighbour_normed_area": 0.98768458333201403, 
        "neighbours": [
            737, 
            715, 
            747, 
            695, 
            659, 
            727, 
            760
        ], 
        "norm_area": 1.4924638904725109, 
        "num_neighbours": 7
    }, 
    "719": {
        "area": 979, 
        "av_neighbour_normed_area": 0.91291322707962697, 
        "neighbours": [
            705, 
            710, 
            683, 
            782, 
            751, 
            756, 
            726, 
            732
        ], 
        "norm_area": 1.113448963185071, 
        "num_neighbours": 8
    }, 
    "722": {
        "area": 1401, 
        "av_neighbour_normed_area": 0.95884652204783427, 
        "neighbours": [
            736, 
            738, 
            716, 
            684, 
            667, 
            766
        ], 
        "norm_area": 1.1328840980369286, 
        "num_neighbours": 6
    }, 
    "723": {
        "area": 346, 
        "av_neighbour_normed_area": 1.1029379090286482, 
        "neighbours": [
            704, 
            705, 
            726, 
            751
        ], 
        "norm_area": 0.3089285724293438, 
        "num_neighbours": 4
    }, 
    "726": {
        "area": 465, 
        "av_neighbour_normed_area": 1.2331058228302616, 
        "neighbours": [
            705, 
            751, 
            723, 
            719
        ], 
        "norm_area": 0.39348424047633807, 
        "num_neighbours": 4
    }, 
    "727": {
        "area": 1692, 
        "av_neighbour_normed_area": 0.98662718993126675, 
        "neighbours": [
            771, 
            695, 
            718, 
            760, 
            794, 
            730
        ], 
        "norm_area": 1.2226905947633289, 
        "num_neighbours": 6
    }, 
    "729": {
        "area": 1038, 
        "av_neighbour_normed_area": 1.0071508454930351, 
        "neighbours": [
            742, 
            715, 
            689, 
            755, 
            696
        ], 
        "norm_area": 0.7025856243938513, 
        "num_neighbours": 5
    }, 
    "730": {
        "area": 907, 
        "av_neighbour_normed_area": 1.0110633679487961, 
        "neighbours": [
            771, 
            743, 
            711, 
            727, 
            695
        ], 
        "norm_area": 0.70981374337111747, 
        "num_neighbours": 5
    }, 
    "732": {
        "area": 885, 
        "av_neighbour_normed_area": 0.85338471730699728, 
        "neighbours": [
            710, 
            711, 
            779, 
            743, 
            719, 
            688, 
            756
        ], 
        "norm_area": 1.0268523132839136, 
        "num_neighbours": 7
    }, 
    "736": {
        "area": 1275, 
        "av_neighbour_normed_area": 0.92855685331022553, 
        "neighbours": [
            745, 
            716, 
            722, 
            699, 
            766, 
            799
        ], 
        "norm_area": 1.1135371189057861, 
        "num_neighbours": 6
    }, 
    "737": {
        "area": 1031, 
        "av_neighbour_normed_area": 1.1073627658810883, 
        "neighbours": [
            715, 
            742, 
            747, 
            718, 
            784
        ], 
        "norm_area": 0.64598997593863539, 
        "num_neighbours": 5
    }, 
    "738": {
        "area": 2166, 
        "av_neighbour_normed_area": 1.0049514229577128, 
        "neighbours": [
            800, 
            684, 
            689, 
            722, 
            755, 
            790, 
            828, 
            766
        ], 
        "norm_area": 1.3469102225329701, 
        "num_neighbours": 8
    }, 
    "742": {
        "area": 1390, 
        "av_neighbour_normed_area": 0.9555096901710427, 
        "neighbours": [
            737, 
            715, 
            784, 
            755, 
            729
        ], 
        "norm_area": 0.93288590704213414, 
        "num_neighbours": 5
    }, 
    "743": {
        "area": 1003, 
        "av_neighbour_normed_area": 0.92834409895412129, 
        "neighbours": [
            771, 
            711, 
            779, 
            730, 
            732
        ], 
        "norm_area": 0.91298015756472417, 
        "num_neighbours": 5
    }, 
    "744": {
        "area": 526, 
        "av_neighbour_normed_area": 1.1596555406094895, 
        "neighbours": [
            0, 
            786, 
            707, 
            714
        ], 
        "norm_area": 0.5350966439315904, 
        "num_neighbours": 3
    }, 
    "745": {
        "area": 952, 
        "av_neighbour_normed_area": 1.2805025059246515, 
        "neighbours": [
            736, 
            707, 
            786, 
            699, 
            799
        ], 
        "norm_area": 0.73388837596292311, 
        "num_neighbours": 5
    }, 
    "747": {
        "area": 1026, 
        "av_neighbour_normed_area": 0.97566981964189081, 
        "neighbours": [
            737, 
            718, 
            784, 
            785, 
            760
        ], 
        "norm_area": 0.71728188019606542, 
        "num_neighbours": 5
    }, 
    "751": {
        "area": 2976, 
        "av_neighbour_normed_area": 0.88435607537217675, 
        "neighbours": [
            0, 
            704, 
            649, 
            782, 
            719, 
            817, 
            723, 
            726
        ], 
        "norm_area": 2.8227642286463093, 
        "num_neighbours": 7
    }, 
    "755": {
        "area": 1854, 
        "av_neighbour_normed_area": 1.1541332054766482, 
        "neighbours": [
            800, 
            738, 
            742, 
            784, 
            689, 
            729
        ], 
        "norm_area": 1.0347906986761433, 
        "num_neighbours": 6
    }, 
    "756": {
        "area": 459, 
        "av_neighbour_normed_area": 0.95225512348291219, 
        "neighbours": [
            732, 
            779, 
            782, 
            719
        ], 
        "norm_area": 0.43393996791198064, 
        "num_neighbours": 4
    }, 
    "760": {
        "area": 958, 
        "av_neighbour_normed_area": 0.93258123478464916, 
        "neighbours": [
            747, 
            718, 
            785, 
            727, 
            794, 
            797
        ], 
        "norm_area": 0.7120029738737248, 
        "num_neighbours": 6
    }, 
    "766": {
        "area": 1212, 
        "av_neighbour_normed_area": 1.0634646225390194, 
        "neighbours": [
            736, 
            738, 
            808, 
            722, 
            790, 
            799
        ], 
        "norm_area": 0.73789954438022531, 
        "num_neighbours": 6
    }, 
    "771": {
        "area": 1197, 
        "av_neighbour_normed_area": 1.0368731604367891, 
        "neighbours": [
            743, 
            779, 
            813, 
            727, 
            794, 
            730
        ], 
        "norm_area": 0.80371530986436546, 
        "num_neighbours": 6
    }, 
    "779": {
        "area": 1574, 
        "av_neighbour_normed_area": 0.89842880941816672, 
        "neighbours": [
            864, 
            771, 
            743, 
            813, 
            782, 
            817, 
            756, 
            732
        ], 
        "norm_area": 1.1619451887840488, 
        "num_neighbours": 8
    }, 
    "782": {
        "area": 793, 
        "av_neighbour_normed_area": 1.2927210395104172, 
        "neighbours": [
            779, 
            719, 
            817, 
            756, 
            751
        ], 
        "norm_area": 0.50677402963087037, 
        "num_neighbours": 5
    }, 
    "784": {
        "area": 2396, 
        "av_neighbour_normed_area": 0.89127568385207545, 
        "neighbours": [
            800, 
            737, 
            742, 
            747, 
            815, 
            785, 
            755, 
            829
        ], 
        "norm_area": 1.5553391765942841, 
        "num_neighbours": 8
    }, 
    "785": {
        "area": 730, 
        "av_neighbour_normed_area": 1.017533710204517, 
        "neighbours": [
            747, 
            815, 
            784, 
            760, 
            797
        ], 
        "norm_area": 0.47255308230596843, 
        "num_neighbours": 5
    }, 
    "786": {
        "area": 1116, 
        "av_neighbour_normed_area": 0.97465794376586468, 
        "neighbours": [
            0, 
            707, 
            804, 
            744, 
            745, 
            799
        ], 
        "norm_area": 1.0099547521332417, 
        "num_neighbours": 5
    }, 
    "790": {
        "area": 1352, 
        "av_neighbour_normed_area": 0.891387686491522, 
        "neighbours": [
            738, 
            808, 
            874, 
            850, 
            828, 
            766
        ], 
        "norm_area": 0.76905574616624184, 
        "num_neighbours": 6
    }, 
    "794": {
        "area": 1637, 
        "av_neighbour_normed_area": 1.0071584215064502, 
        "neighbours": [
            771, 
            813, 
            815, 
            835, 
            727, 
            760, 
            797
        ], 
        "norm_area": 1.0252303848253888, 
        "num_neighbours": 7
    }, 
    "797": {
        "area": 951, 
        "av_neighbour_normed_area": 0.91189084609800541, 
        "neighbours": [
            760, 
            785, 
            794, 
            815
        ], 
        "norm_area": 0.66526757707721407, 
        "num_neighbours": 4
    }, 
    "799": {
        "area": 1733, 
        "av_neighbour_normed_area": 0.85053743569028728, 
        "neighbours": [
            736, 
            834, 
            804, 
            808, 
            745, 
            786, 
            766
        ], 
        "norm_area": 1.2091099382089436, 
        "num_neighbours": 7
    }, 
    "800": {
        "area": 1509, 
        "av_neighbour_normed_area": 1.2886893856177819, 
        "neighbours": [
            738, 
            784, 
            755, 
            828, 
            829
        ], 
        "norm_area": 0.6827436441105863, 
        "num_neighbours": 5
    }, 
    "804": {
        "area": 907, 
        "av_neighbour_normed_area": 1.0909361369499335, 
        "neighbours": [
            0, 
            834, 
            786, 
            799
        ], 
        "norm_area": 0.49544792525511111, 
        "num_neighbours": 3
    }, 
    "808": {
        "area": 1928, 
        "av_neighbour_normed_area": 1.2813792516571547, 
        "neighbours": [
            834, 
            874, 
            877, 
            790, 
            766, 
            799
        ], 
        "norm_area": 0.80929061244671052, 
        "num_neighbours": 6
    }, 
    "813": {
        "area": 2123, 
        "av_neighbour_normed_area": 1.0573362082307598, 
        "neighbours": [
            864, 
            835, 
            871, 
            779, 
            771, 
            794
        ], 
        "norm_area": 1.1885788943489999, 
        "num_neighbours": 6
    }, 
    "815": {
        "area": 2393, 
        "av_neighbour_normed_area": 0.9523475114384935, 
        "neighbours": [
            835, 
            797, 
            876, 
            784, 
            785, 
            852, 
            794, 
            829
        ], 
        "norm_area": 1.4377769442988306, 
        "num_neighbours": 8
    }, 
    "817": {
        "area": 1836, 
        "av_neighbour_normed_area": 1.4686415997285245, 
        "neighbours": [
            0, 
            864, 
            779, 
            782, 
            751
        ], 
        "norm_area": 0.93150685031739722, 
        "num_neighbours": 4
    }, 
    "828": {
        "area": 2244, 
        "av_neighbour_normed_area": 0.87561283409789215, 
        "neighbours": [
            800, 
            738, 
            873, 
            850, 
            790, 
            887, 
            829
        ], 
        "norm_area": 1.300223492434686, 
        "num_neighbours": 7
    }, 
    "829": {
        "area": 2391, 
        "av_neighbour_normed_area": 1.1098659987230342, 
        "neighbours": [
            800, 
            873, 
            876, 
            878, 
            815, 
            784, 
            828
        ], 
        "norm_area": 1.2061833391395151, 
        "num_neighbours": 7
    }, 
    "834": {
        "area": 2643, 
        "av_neighbour_normed_area": 1.2879462034934759, 
        "neighbours": [
            0, 
            804, 
            808, 
            930, 
            877, 
            799
        ], 
        "norm_area": 1.0537437215985512, 
        "num_neighbours": 5
    }, 
    "835": {
        "area": 1863, 
        "av_neighbour_normed_area": 1.0143321400357208, 
        "neighbours": [
            871, 
            875, 
            813, 
            815, 
            852, 
            794
        ], 
        "norm_area": 1.0200766573258471, 
        "num_neighbours": 6
    }, 
    "850": {
        "area": 1650, 
        "av_neighbour_normed_area": 1.3206903864198658, 
        "neighbours": [
            874, 
            877, 
            790, 
            887, 
            828
        ], 
        "norm_area": 0.66095177155091323, 
        "num_neighbours": 5
    }, 
    "852": {
        "area": 1003, 
        "av_neighbour_normed_area": 1.1680225102443185, 
        "neighbours": [
            876, 
            835, 
            875, 
            815
        ], 
        "norm_area": 0.47216664805308112, 
        "num_neighbours": 4
    }, 
    "864": {
        "area": 2541, 
        "av_neighbour_normed_area": 1.0188031280484626, 
        "neighbours": [
            961, 
            0, 
            871, 
            779, 
            813, 
            817
        ], 
        "norm_area": 1.3830829533215121, 
        "num_neighbours": 5
    }, 
    "871": {
        "area": 1905, 
        "av_neighbour_normed_area": 1.0651877759631529, 
        "neighbours": [
            864, 
            897, 
            835, 
            961, 
            875, 
            813
        ], 
        "norm_area": 0.94996675632073224, 
        "num_neighbours": 6
    }, 
    "873": {
        "area": 1481, 
        "av_neighbour_normed_area": 0.84093782088157421, 
        "neighbours": [
            878, 
            829, 
            912, 
            887, 
            828, 
            925
        ], 
        "norm_area": 0.84773898211188803, 
        "num_neighbours": 6
    }, 
    "874": {
        "area": 1348, 
        "av_neighbour_normed_area": 1.4161785532807551, 
        "neighbours": [
            808, 
            850, 
            877, 
            790
        ], 
        "norm_area": 0.49305047649501466, 
        "num_neighbours": 4
    }, 
    "875": {
        "area": 1897, 
        "av_neighbour_normed_area": 0.96482402823658542, 
        "neighbours": [
            897, 
            835, 
            871, 
            876, 
            915, 
            852
        ], 
        "norm_area": 1.0122732133816232, 
        "num_neighbours": 6
    }, 
    "876": {
        "area": 2344, 
        "av_neighbour_normed_area": 1.0659860834373347, 
        "neighbours": [
            875, 
            878, 
            815, 
            915, 
            852, 
            949, 
            829
        ], 
        "norm_area": 1.2019632271389964, 
        "num_neighbours": 7
    }, 
    "877": {
        "area": 6006, 
        "av_neighbour_normed_area": 0.69816202059338983, 
        "neighbours": [
            1024, 
            930, 
            997, 
            808, 
            874, 
            912, 
            850, 
            887, 
            987, 
            834, 
            925
        ], 
        "norm_area": 3.4254160843753332, 
        "num_neighbours": 11
    }, 
    "878": {
        "area": 1509, 
        "av_neighbour_normed_area": 1.0825611963326558, 
        "neighbours": [
            873, 
            876, 
            925, 
            949, 
            829
        ], 
        "norm_area": 0.74327652548183332, 
        "num_neighbours": 5
    }, 
    "887": {
        "area": 1532, 
        "av_neighbour_normed_area": 1.3256398700240593, 
        "neighbours": [
            873, 
            877, 
            912, 
            850, 
            828
        ], 
        "norm_area": 0.61570613394874363, 
        "num_neighbours": 5
    }, 
    "897": {
        "area": 1860, 
        "av_neighbour_normed_area": 1.1527432530375583, 
        "neighbours": [
            961, 
            871, 
            875, 
            915, 
            981
        ], 
        "norm_area": 0.92509698697618614, 
        "num_neighbours": 5
    }, 
    "912": {
        "area": 1060, 
        "av_neighbour_normed_area": 1.4188074032924118, 
        "neighbours": [
            873, 
            887, 
            877, 
            925
        ], 
        "norm_area": 0.3938690209731166, 
        "num_neighbours": 4
    }, 
    "915": {
        "area": 2269, 
        "av_neighbour_normed_area": 1.1011825599345542, 
        "neighbours": [
            897, 
            875, 
            876, 
            1005, 
            949, 
            981
        ], 
        "norm_area": 1.2196738945694938, 
        "num_neighbours": 6
    }, 
    "925": {
        "area": 1746, 
        "av_neighbour_normed_area": 1.2166064600161686, 
        "neighbours": [
            997, 
            873, 
            877, 
            878, 
            912, 
            949
        ], 
        "norm_area": 0.78636841415248915, 
        "num_neighbours": 6
    }, 
    "930": {
        "area": 1967, 
        "av_neighbour_normed_area": 1.9172036513980717, 
        "neighbours": [
            0, 
            987, 
            834, 
            877
        ], 
        "norm_area": 0.50046645846922821, 
        "num_neighbours": 3
    }, 
    "949": {
        "area": 2189, 
        "av_neighbour_normed_area": 0.80791560852223232, 
        "neighbours": [
            997, 
            876, 
            1005, 
            878, 
            915, 
            925
        ], 
        "norm_area": 1.3705520202029522, 
        "num_neighbours": 6
    }, 
    "961": {
        "area": 1748, 
        "av_neighbour_normed_area": 1.1980767317221499, 
        "neighbours": [
            864, 
            897, 
            0, 
            871, 
            973, 
            981
        ], 
        "norm_area": 0.86201795148993787, 
        "num_neighbours": 5
    }, 
    "973": {
        "area": 1599, 
        "av_neighbour_normed_area": 1.0503241208313641, 
        "neighbours": [
            0, 
            1033, 
            961, 
            981
        ], 
        "norm_area": 1.0124525126116484, 
        "num_neighbours": 3
    }, 
    "981": {
        "area": 2234, 
        "av_neighbour_normed_area": 0.7932876438662021, 
        "neighbours": [
            961, 
            897, 
            1033, 
            1005, 
            973, 
            915, 
            1014, 
            1052
        ], 
        "norm_area": 1.7197844505787472, 
        "num_neighbours": 8
    }, 
    "987": {
        "area": 3142, 
        "av_neighbour_normed_area": 1.2473222493566107, 
        "neighbours": [
            0, 
            1024, 
            1058, 
            877, 
            930
        ], 
        "norm_area": 1.2724511501375337, 
        "num_neighbours": 4
    }, 
    "997": {
        "area": 1077, 
        "av_neighbour_normed_area": 1.1842899374737819, 
        "neighbours": [
            1024, 
            1005, 
            877, 
            949, 
            1014, 
            925
        ], 
        "norm_area": 0.51878612816849468, 
        "num_neighbours": 6
    }, 
    "1005": {
        "area": 638, 
        "av_neighbour_normed_area": 1.0799351596042603, 
        "neighbours": [
            997, 
            915, 
            949, 
            1014, 
            981
        ], 
        "norm_area": 0.37742546243000236, 
        "num_neighbours": 5
    }, 
    "1014": {
        "area": 683, 
        "av_neighbour_normed_area": 0.80013589125002349, 
        "neighbours": [
            1024, 
            997, 
            1005, 
            981, 
            1052
        ], 
        "norm_area": 0.57087930558154965, 
        "num_neighbours": 5
    }, 
    "1024": {
        "area": 1194, 
        "av_neighbour_normed_area": 1.1809043100358185, 
        "neighbours": [
            1058, 
            997, 
            877, 
            1014, 
            987, 
            1052
        ], 
        "norm_area": 0.57509833928465437, 
        "num_neighbours": 6
    }, 
    "1033": {
        "area": 756, 
        "av_neighbour_normed_area": 1.0940238396398811, 
        "neighbours": [
            0, 
            1069, 
            973, 
            981, 
            1052
        ], 
        "norm_area": 0.56916996147573118, 
        "num_neighbours": 4
    }, 
    "1052": {
        "area": 839, 
        "av_neighbour_normed_area": 0.79291891542451853, 
        "neighbours": [
            1024, 
            1058, 
            1033, 
            1069, 
            981, 
            1014
        ], 
        "norm_area": 0.80958507658835477, 
        "num_neighbours": 6
    }, 
    "1058": {
        "area": 710, 
        "av_neighbour_normed_area": 0.87285197125312219, 
        "neighbours": [
            0, 
            1024, 
            1069, 
            987, 
            1052
        ], 
        "norm_area": 0.48830811654454953, 
        "num_neighbours": 4
    }, 
    "1069": {
        "area": 641, 
        "av_neighbour_normed_area": 0.6223543846620937, 
        "neighbours": [
            0, 
            1033, 
            1058, 
            1052
        ], 
        "norm_area": 0.83427331987479825, 
        "num_neighbours": 3
    }
}