<?xml version="1.0" encoding="UTF-8" standalone="no"?>
<!-- Created with Inkscape (http://www.inkscape.org/) -->

<svg
   xmlns:dc="http://purl.org/dc/elements/1.1/"
   xmlns:cc="http://creativecommons.org/ns#"
   xmlns:rdf="http://www.w3.org/1999/02/22-rdf-syntax-ns#"
   xmlns:svg="http://www.w3.org/2000/svg"
   xmlns="http://www.w3.org/2000/svg"
   xmlns:xlink="http://www.w3.org/1999/xlink"
   xmlns:sodipodi="http://sodipodi.sourceforge.net/DTD/sodipodi-0.dtd"
   xmlns:inkscape="http://www.inkscape.org/namespaces/inkscape"
   width="209.04439mm"
   height="215.87695mm"
   viewBox="0 0 740.70846 764.91834"
   id="svg4262"
   version="1.1"
   inkscape:version="0.91 r13725"
   sodipodi:docname="figureS9_WT.svg">
  <defs
     id="defs4264" />
  <sodipodi:namedview
     id="base"
     pagecolor="#ffffff"
     bordercolor="#666666"
     borderopacity="1.0"
     inkscape:pageopacity="1"
     inkscape:pageshadow="2"
     inkscape:zoom="0.70710678"
     inkscape:cx="-402.16322"
     inkscape:cy="202.49067"
     inkscape:document-units="px"
     inkscape:current-layer="layer1"
     showgrid="false"
     inkscape:window-width="1920"
     inkscape:window-height="1032"
     inkscape:window-x="0"
     inkscape:window-y="0"
     inkscape:window-maximized="1"
     fit-margin-top="0"
     fit-margin-left="0"
     fit-margin-right="0"
     fit-margin-bottom="0" />
  <metadata
     id="metadata4267">
    <rdf:RDF>
      <cc:Work
         rdf:about="">
        <dc:format>image/svg+xml</dc:format>
        <dc:type
           rdf:resource="http://purl.org/dc/dcmitype/StillImage" />
        <dc:title />
      </cc:Work>
    </rdf:RDF>
  </metadata>
  <g
     inkscape:label="Layer 1"
     inkscape:groupmode="layer"
     id="layer1"
     transform="translate(0.64983993,7.4174572)">
    <g
       id="g4743"
       transform="translate(0,28.125)">
      <text
         id="text15"
         y="30.249083"
         x="16.675419"
         style="font-style:normal;font-weight:normal;font-size:15px;line-height:1.25;font-family:sans-serif;letter-spacing:0px;word-spacing:0px;fill:#ffffff;fill-opacity:1;stroke:none;stroke-width:0.9375"
         xml:space="preserve"><tspan
           style="fill:#ffffff;stroke-width:0.9375"
           y="30.249083"
           x="16.675419"
           id="tspan13"
           sodipodi:role="line">A</tspan></text>
      <text
         id="text15-5"
         y="30.249083"
         x="168.32687"
         style="font-style:normal;font-weight:normal;font-size:15px;line-height:1.25;font-family:sans-serif;letter-spacing:0px;word-spacing:0px;fill:#ffffff;fill-opacity:1;stroke:none;stroke-width:0.9375"
         xml:space="preserve"><tspan
           style="fill:#ffffff;stroke-width:0.9375"
           y="30.249083"
           x="168.32687"
           id="tspan13-5"
           sodipodi:role="line">B</tspan></text>
      <text
         id="text15-8"
         y="30.249083"
         x="314.86545"
         style="font-style:normal;font-weight:normal;font-size:15px;line-height:1.25;font-family:sans-serif;letter-spacing:0px;word-spacing:0px;fill:#ffffff;fill-opacity:1;stroke:none;stroke-width:0.9375"
         xml:space="preserve"><tspan
           style="fill:#ffffff;stroke-width:0.9375"
           y="30.249083"
           x="314.86545"
           id="tspan13-2"
           sodipodi:role="line">C</tspan></text>
      <text
         id="text15-1"
         y="30.249083"
         x="464.39462"
         style="font-style:normal;font-weight:normal;font-size:15px;line-height:1.25;font-family:sans-serif;letter-spacing:0px;word-spacing:0px;fill:#ffffff;fill-opacity:1;stroke:none;stroke-width:0.9375"
         xml:space="preserve"><tspan
           style="fill:#ffffff;stroke-width:0.9375"
           y="30.249083"
           x="464.39462"
           id="tspan13-27"
           sodipodi:role="line">D</tspan></text>
      <text
         id="text15-9"
         y="30.249083"
         x="617.91119"
         style="font-style:normal;font-weight:normal;font-size:15px;line-height:1.25;font-family:sans-serif;letter-spacing:0px;word-spacing:0px;fill:#ffffff;fill-opacity:1;stroke:none;stroke-width:0.9375"
         xml:space="preserve"><tspan
           style="fill:#ffffff;stroke-width:0.9375"
           y="30.249083"
           x="617.91119"
           id="tspan13-0"
           sodipodi:role="line">E</tspan></text>
    </g>
    <flowRoot
       xml:space="preserve"
       id="flowRoot4745"
       style="font-style:normal;font-variant:normal;font-weight:bold;font-stretch:normal;font-size:16px;line-height:1.25;font-family:sans-serif;-inkscape-font-specification:'sans-serif Bold';letter-spacing:0px;word-spacing:0px;fill:#000000;fill-opacity:1;stroke:none"
       transform="scale(0.9375)"><flowRegion
         id="flowRegion4747"><rect
           id="rect4749"
           width="821.05261"
           height="76.691727"
           x="-40.601505"
           y="26.279083" /></flowRegion><flowPara
         id="flowPara4751" /></flowRoot>    <flowRoot
       xml:space="preserve"
       id="flowRoot4753"
       style="font-style:normal;font-variant:normal;font-weight:bold;font-stretch:normal;font-size:16px;line-height:1.25;font-family:sans-serif;-inkscape-font-specification:'sans-serif Bold';letter-spacing:0px;word-spacing:0px;fill:#000000;fill-opacity:1;stroke:none"
       transform="scale(0.9375)"><flowRegion
         id="flowRegion4755"><rect
           id="rect4757"
           width="733.83459"
           height="84.210526"
           x="-34.586468"
           y="15.752769" /></flowRegion><flowPara
         id="flowPara4759" /></flowRoot>    <g
       id="g4743-4"
       transform="translate(1.39273,233.87709)">
      <text
         id="text15-4"
         y="30.249083"
         x="16.675419"
         style="font-style:normal;font-weight:normal;font-size:15px;line-height:1.25;font-family:sans-serif;letter-spacing:0px;word-spacing:0px;fill:#ffffff;fill-opacity:1;stroke:none;stroke-width:0.9375"
         xml:space="preserve"><tspan
           style="fill:#ffffff;stroke-width:0.9375"
           y="30.249083"
           x="16.675419"
           id="tspan13-9"
           sodipodi:role="line">F</tspan></text>
      <text
         id="text15-5-4"
         y="30.249083"
         x="168.32687"
         style="font-style:normal;font-weight:normal;font-size:15px;line-height:1.25;font-family:sans-serif;letter-spacing:0px;word-spacing:0px;fill:#ffffff;fill-opacity:1;stroke:none;stroke-width:0.9375"
         xml:space="preserve"><tspan
           style="fill:#ffffff;stroke-width:0.9375"
           y="30.249083"
           x="168.32687"
           id="tspan13-5-1"
           sodipodi:role="line">G</tspan></text>
      <text
         id="text15-8-2"
         y="30.249083"
         x="314.86545"
         style="font-style:normal;font-weight:normal;font-size:15px;line-height:1.25;font-family:sans-serif;letter-spacing:0px;word-spacing:0px;fill:#ffffff;fill-opacity:1;stroke:none;stroke-width:0.9375"
         xml:space="preserve"><tspan
           style="fill:#ffffff;stroke-width:0.9375"
           y="30.249083"
           x="314.86545"
           id="tspan13-2-0"
           sodipodi:role="line">H</tspan></text>
      <text
         id="text15-1-6"
         y="30.249083"
         x="464.39462"
         style="font-style:normal;font-weight:normal;font-size:15px;line-height:1.25;font-family:sans-serif;letter-spacing:0px;word-spacing:0px;fill:#ffffff;fill-opacity:1;stroke:none;stroke-width:0.9375"
         xml:space="preserve"><tspan
           style="fill:#ffffff;stroke-width:0.9375"
           y="30.249083"
           x="464.39462"
           id="tspan13-27-4"
           sodipodi:role="line">I</tspan></text>
      <text
         id="text15-9-9"
         y="30.249083"
         x="617.91119"
         style="font-style:normal;font-weight:normal;font-size:15px;line-height:1.25;font-family:sans-serif;letter-spacing:0px;word-spacing:0px;fill:#ffffff;fill-opacity:1;stroke:none;stroke-width:0.9375"
         xml:space="preserve"><tspan
           style="fill:#ffffff;stroke-width:0.9375"
           y="30.249083"
           x="617.91119"
           id="tspan13-0-1"
           sodipodi:role="line">J</tspan></text>
    </g>
    <text
       xml:space="preserve"
       style="font-style:normal;font-variant:normal;font-weight:bold;font-stretch:normal;font-size:24.99999809px;line-height:1.25;font-family:sans-serif;-inkscape-font-specification:'sans-serif Bold';letter-spacing:0px;word-spacing:0px;fill:#000000;fill-opacity:1;stroke:none;stroke-width:0.9375"
       x="112.4939"
       y="421.06027"
       id="text5026"><tspan
         sodipodi:role="line"
         id="tspan5024"
         x="112.4939"
         y="443.86853"
         style="stroke-width:0.9375" /></text>
    <image
       sodipodi:absref="/Users/carterr/Dropbox/Postdoc_stuff/pcgeometry/paper/figures/figureS9f.png"
       xlink:href="figureS9f.png"
       y="143.94385"
       x="-1.3073697"
       id="image4650"
       preserveAspectRatio="none"
       height="227.5"
       width="140" />
    <image
       sodipodi:absref="/Users/carterr/Dropbox/Postdoc_stuff/pcgeometry/paper/figures/figureS9a.png"
       xlink:href="figureS9a.png"
       y="-35.585209"
       x="-1.3347816"
       id="image4245"
       preserveAspectRatio="none"
       height="227.5"
       width="140" />
    <image
       sodipodi:absref="/Users/carterr/Dropbox/Postdoc_stuff/pcgeometry/paper/figures/figureS9k.png"
       xlink:href="figureS9k.png"
       y="332.62482"
       x="105.27899"
       id="image5035"
       preserveAspectRatio="none"
       height="405"
       width="506.25" />
    <image
       sodipodi:absref="/Users/carterr/Dropbox/Postdoc_stuff/pcgeometry/paper/figures/figureS9g.png"
       xlink:href="figureS9g.png"
       y="143.94385"
       x="138.69263"
       id="image4715"
       preserveAspectRatio="none"
       height="227.5"
       width="140" />
    <image
       sodipodi:absref="/Users/carterr/Dropbox/Postdoc_stuff/pcgeometry/paper/figures/figureS9b.png"
       xlink:href="figureS9b.png"
       y="-33.585209"
       x="138.66522"
       id="image4310"
       preserveAspectRatio="none"
       height="227.5"
       width="140" />
    <image
       sodipodi:absref="/Users/carterr/Dropbox/Postdoc_stuff/pcgeometry/paper/figures/figureS9h.png"
       xlink:href="figureS9h.png"
       y="143.94385"
       x="278.69263"
       id="image4780"
       preserveAspectRatio="none"
       height="227.5"
       width="140" />
    <image
       sodipodi:absref="/Users/carterr/Dropbox/Postdoc_stuff/pcgeometry/paper/figures/figureS9c.png"
       xlink:href="figureS9c.png"
       y="-33.585209"
       x="278.66522"
       id="image4375"
       preserveAspectRatio="none"
       height="227.5"
       width="140" />
    <image
       sodipodi:absref="/Users/carterr/Dropbox/Postdoc_stuff/pcgeometry/paper/figures/figureS9i.png"
       xlink:href="figureS9i.png"
       y="143.94385"
       x="418.69263"
       id="image4845"
       preserveAspectRatio="none"
       height="227.5"
       width="140" />
    <image
       sodipodi:absref="/Users/carterr/Dropbox/Postdoc_stuff/pcgeometry/paper/figures/figureS9d.png"
       xlink:href="figureS9d.png"
       y="-33.585209"
       x="418.66522"
       id="image4440"
       preserveAspectRatio="none"
       height="227.5"
       width="140" />
    <image
       sodipodi:absref="/Users/carterr/Dropbox/Postdoc_stuff/pcgeometry/paper/figures/figureS9j.png"
       xlink:href="figureS9j.png"
       y="143.94385"
       x="558.69263"
       id="image4910"
       preserveAspectRatio="none"
       height="227.5"
       width="140" />
    <image
       sodipodi:absref="/Users/carterr/Dropbox/Postdoc_stuff/pcgeometry/paper/figures/figureS9e.png"
       xlink:href="figureS9e.png"
       y="-33.585209"
       x="558.66522"
       id="image4505"
       preserveAspectRatio="none"
       height="227.5"
       width="140" />
    <text
       xml:space="preserve"
       style="font-style:normal;font-weight:normal;font-size:40px;line-height:125%;font-family:sans-serif;letter-spacing:0px;word-spacing:0px;fill:#000000;fill-opacity:1;stroke:none;stroke-width:1px;stroke-linecap:butt;stroke-linejoin:miter;stroke-opacity:1"
       x="13.815814"
       y="22.382641"
       id="text4913"
       sodipodi:linespacing="125%"><tspan
         sodipodi:role="line"
         id="tspan4915"
         x="13.815814"
         y="22.382641"
         style="font-size:20px;fill:#ffffff">A</tspan></text>
    <text
       sodipodi:linespacing="125%"
       id="text4917"
       y="23.040171"
       x="153.86964"
       style="font-style:normal;font-weight:normal;font-size:40px;line-height:125%;font-family:sans-serif;letter-spacing:0px;word-spacing:0px;fill:#000000;fill-opacity:1;stroke:none;stroke-width:1px;stroke-linecap:butt;stroke-linejoin:miter;stroke-opacity:1"
       xml:space="preserve"><tspan
         style="font-weight:normal;font-size:20px;fill:#ffffff"
         y="23.040171"
         x="153.86964"
         id="tspan4919"
         sodipodi:role="line">B</tspan></text>
    <text
       xml:space="preserve"
       style="font-style:normal;font-weight:normal;font-size:40px;line-height:125%;font-family:sans-serif;letter-spacing:0px;word-spacing:0px;fill:#000000;fill-opacity:1;stroke:none;stroke-width:1px;stroke-linecap:butt;stroke-linejoin:miter;stroke-opacity:1"
       x="293.92346"
       y="28.300409"
       id="text4921"
       sodipodi:linespacing="125%"><tspan
         sodipodi:role="line"
         id="tspan4923"
         x="293.92346"
         y="28.300409"
         style="font-size:20px;fill:#ffffff">C</tspan></text>
    <text
       sodipodi:linespacing="125%"
       id="text4925"
       y="32.245586"
       x="433.31976"
       style="font-style:normal;font-weight:normal;font-size:40px;line-height:125%;font-family:sans-serif;letter-spacing:0px;word-spacing:0px;fill:#000000;fill-opacity:1;stroke:none;stroke-width:1px;stroke-linecap:butt;stroke-linejoin:miter;stroke-opacity:1"
       xml:space="preserve"><tspan
         style="font-size:20px;fill:#ffffff"
         y="32.245586"
         x="433.31976"
         id="tspan4927"
         sodipodi:role="line">D</tspan></text>
    <text
       xml:space="preserve"
       style="font-style:normal;font-weight:normal;font-size:40px;line-height:125%;font-family:sans-serif;letter-spacing:0px;word-spacing:0px;fill:#000000;fill-opacity:1;stroke:none;stroke-width:1px;stroke-linecap:butt;stroke-linejoin:miter;stroke-opacity:1"
       x="433.31976"
       y="32.245586"
       id="text4929"
       sodipodi:linespacing="125%"><tspan
         sodipodi:role="line"
         id="tspan4931"
         x="433.31976"
         y="32.245586"
         style="font-size:20px;fill:#ffffff">D</tspan></text>
    <text
       sodipodi:linespacing="125%"
       id="text4933"
       y="34.218174"
       x="573.3736"
       style="font-style:normal;font-weight:normal;font-size:40px;line-height:125%;font-family:sans-serif;letter-spacing:0px;word-spacing:0px;fill:#000000;fill-opacity:1;stroke:none;stroke-width:1px;stroke-linecap:butt;stroke-linejoin:miter;stroke-opacity:1"
       xml:space="preserve"><tspan
         style="font-size:20px;fill:#ffffff"
         y="34.218174"
         x="573.3736"
         id="tspan4935"
         sodipodi:role="line">E</tspan></text>
    <text
       xml:space="preserve"
       style="font-style:normal;font-weight:normal;font-size:40px;line-height:125%;font-family:sans-serif;letter-spacing:0px;word-spacing:0px;fill:#000000;fill-opacity:1;stroke:none;stroke-width:1px;stroke-linecap:butt;stroke-linejoin:miter;stroke-opacity:1"
       x="13.815795"
       y="209.12108"
       id="text4937"
       sodipodi:linespacing="125%"><tspan
         sodipodi:role="line"
         id="tspan4939"
         x="13.815795"
         y="209.12108"
         style="font-size:20px;fill:#ffffff">F</tspan></text>
    <text
       sodipodi:linespacing="125%"
       id="text4941"
       y="211.09367"
       x="153.86963"
       style="font-style:normal;font-weight:normal;font-size:40px;line-height:125%;font-family:sans-serif;letter-spacing:0px;word-spacing:0px;fill:#000000;fill-opacity:1;stroke:none;stroke-width:1px;stroke-linecap:butt;stroke-linejoin:miter;stroke-opacity:1"
       xml:space="preserve"><tspan
         style="font-size:20px;fill:#ffffff"
         y="211.09367"
         x="153.86963"
         id="tspan4943"
         sodipodi:role="line">G</tspan></text>
    <text
       xml:space="preserve"
       style="font-style:normal;font-weight:normal;font-size:40px;line-height:125%;font-family:sans-serif;letter-spacing:0px;word-spacing:0px;fill:#000000;fill-opacity:1;stroke:none;stroke-width:1px;stroke-linecap:butt;stroke-linejoin:miter;stroke-opacity:1"
       x="294.58099"
       y="212.40874"
       id="text4945"
       sodipodi:linespacing="125%"><tspan
         sodipodi:role="line"
         id="tspan4947"
         x="294.58099"
         y="212.40874"
         style="font-size:20px;fill:#ffffff">H</tspan></text>
    <text
       sodipodi:linespacing="125%"
       id="text4949"
       y="214.38133"
       x="433.31976"
       style="font-style:normal;font-weight:normal;font-size:40px;line-height:125%;font-family:sans-serif;letter-spacing:0px;word-spacing:0px;fill:#000000;fill-opacity:1;stroke:none;stroke-width:1px;stroke-linecap:butt;stroke-linejoin:miter;stroke-opacity:1"
       xml:space="preserve"><tspan
         style="font-size:20px;fill:#ffffff"
         y="214.38133"
         x="433.31976"
         id="tspan4951"
         sodipodi:role="line">I</tspan></text>
    <text
       xml:space="preserve"
       style="font-style:normal;font-weight:normal;font-size:40px;line-height:125%;font-family:sans-serif;letter-spacing:0px;word-spacing:0px;fill:#000000;fill-opacity:1;stroke:none;stroke-width:1px;stroke-linecap:butt;stroke-linejoin:miter;stroke-opacity:1"
       x="577.3736"
       y="215.06627"
       id="text4953"
       sodipodi:linespacing="125%"><tspan
         sodipodi:role="line"
         id="tspan4955"
         x="577.3736"
         y="215.06627"
         style="font-size:20px;fill:#ffffff">J</tspan></text>
    <rect
       style="opacity:1;fill:#000000;fill-opacity:1;stroke:none;stroke-width:2;stroke-miterlimit:4;stroke-dasharray:none;stroke-dashoffset:0;stroke-opacity:1"
       id="rect5038"
       width="12.063"
       height="4.1999998"
       x="106.76716"
       y="148.42284" />
    <rect
       style="opacity:1;fill:#000000;fill-opacity:1;stroke:none;stroke-width:2;stroke-miterlimit:4;stroke-dasharray:none;stroke-dashoffset:0;stroke-opacity:1"
       id="rect5040"
       width="9.9412184"
       height="4.1999998"
       x="248.92169"
       y="153.03044" />
    <rect
       style="opacity:1;fill:#000000;fill-opacity:1;stroke:none;stroke-width:2;stroke-miterlimit:4;stroke-dasharray:none;stroke-dashoffset:0;stroke-opacity:1"
       id="rect5042"
       width="14.17347"
       height="4.1999998"
       x="384.73901"
       y="147.15643" />
    <rect
       style="opacity:1;fill:#000000;fill-opacity:1;stroke:none;stroke-width:2;stroke-miterlimit:4;stroke-dasharray:none;stroke-dashoffset:0;stroke-opacity:1"
       id="rect5044"
       width="9.9440002"
       height="4.1999998"
       x="528.95026"
       y="142.75549" />
    <rect
       style="opacity:1;fill:#000000;fill-opacity:1;stroke:none;stroke-width:2;stroke-miterlimit:4;stroke-dasharray:none;stroke-dashoffset:0;stroke-opacity:1"
       id="rect5046"
       width="15.20219"
       height="4.1999998"
       x="663.63635"
       y="140.52689" />
    <rect
       style="opacity:1;fill:#000000;fill-opacity:1;stroke:none;stroke-width:2;stroke-miterlimit:4;stroke-dasharray:none;stroke-dashoffset:0;stroke-opacity:1"
       id="rect5048"
       width="16.230909"
       height="4.1999998"
       x="662.64575"
       y="317.39047" />
    <rect
       style="opacity:1;fill:#000000;fill-opacity:1;stroke:none;stroke-width:2;stroke-miterlimit:4;stroke-dasharray:none;stroke-dashoffset:0;stroke-opacity:1"
       id="rect5050"
       width="16.154709"
       height="4.1999998"
       x="522.70178"
       y="316.32364" />
    <rect
       style="opacity:1;fill:#000000;fill-opacity:1;stroke:none;stroke-width:2;stroke-miterlimit:4;stroke-dasharray:none;stroke-dashoffset:0;stroke-opacity:1"
       id="rect5052"
       width="17.107227"
       height="4.1999998"
       x="381.80527"
       y="317.58096" />
    <rect
       style="opacity:1;fill:#000000;fill-opacity:1;stroke:none;stroke-width:2;stroke-miterlimit:4;stroke-dasharray:none;stroke-dashoffset:0;stroke-opacity:1"
       id="rect5054"
       width="16.954824"
       height="4.1999998"
       x="241.93748"
       y="324.66769" />
    <rect
       style="opacity:1;fill:#000000;fill-opacity:1;stroke:none;stroke-width:2;stroke-miterlimit:4;stroke-dasharray:none;stroke-dashoffset:0;stroke-opacity:1"
       id="rect5056"
       width="11.087312"
       height="4.1999998"
       x="107.82293"
       y="322.36234" />
    <text
       xml:space="preserve"
       style="font-style:normal;font-weight:normal;font-size:40px;line-height:125%;font-family:sans-serif;letter-spacing:0px;word-spacing:0px;fill:#000000;fill-opacity:1;stroke:none;stroke-width:1px;stroke-linecap:butt;stroke-linejoin:miter;stroke-opacity:1"
       x="170.63141"
       y="415.93839"
       id="text4229"
       sodipodi:linespacing="125%"><tspan
         sodipodi:role="line"
         id="tspan4231"
         x="170.63141"
         y="415.93839">K</tspan></text>
  </g>
</svg>
