{
    "0": {
        "area": 408490, 
        "av_neighbour_normed_area": 1.0442627616850042, 
        "centroid_x": 279.11356948762517, 
        "centroid_y": 500.52519278317709, 
        "neighbours": [
            646, 
            397, 
            4367, 
            2457, 
            4250, 
            1948, 
            1181, 
            2723, 
            420, 
            946, 
            1711, 
            4658, 
            1735, 
            4044, 
            1866, 
            1100, 
            4557, 
            4304, 
            1108, 
            3166, 
            2423, 
            378
        ], 
        "norm_area": 99.905283870521103, 
        "num_neighbours": 22
    }, 
    "378": {
        "area": 4415, 
        "av_neighbour_normed_area": 1.3235347923208509, 
        "centroid_x": 279.78437146092864, 
        "centroid_y": 791.72751981879958, 
        "neighbours": [
            0, 
            420, 
            397
        ], 
        "norm_area": 0.8890455094788029, 
        "num_neighbours": 2
    }, 
    "397": {
        "area": 4458, 
        "av_neighbour_normed_area": 0.98188975633549846, 
        "centroid_x": 236.54598474652312, 
        "centroid_y": 730.55428443248093, 
        "neighbours": [
            0, 
            378, 
            420, 
            646
        ], 
        "norm_area": 1.1049239920824208, 
        "num_neighbours": 3
    }, 
    "420": {
        "area": 5474, 
        "av_neighbour_normed_area": 0.86507319471688504, 
        "centroid_x": 283.59554256485205, 
        "centroid_y": 679.9605407380343, 
        "neighbours": [
            0, 
            646, 
            1100, 
            397, 
            946, 
            378
        ], 
        "norm_area": 1.5421455938828161, 
        "num_neighbours": 5
    }, 
    "646": {
        "area": 2215, 
        "av_neighbour_normed_area": 1.1514398954243767, 
        "centroid_x": 230.93544018058691, 
        "centroid_y": 665.64288939051914, 
        "neighbours": [
            0, 
            420, 
            1100, 
            397
        ], 
        "norm_area": 0.51447816662676604, 
        "num_neighbours": 3
    }, 
    "946": {
        "area": 3676, 
        "av_neighbour_normed_area": 1.0024999518659781, 
        "centroid_x": 283.98394994559305, 
        "centroid_y": 592.95021762785632, 
        "neighbours": [
            0, 
            420, 
            1100, 
            1681, 
            1108, 
            1181
        ], 
        "norm_area": 1.0096682048021755, 
        "num_neighbours": 5
    }, 
    "1100": {
        "area": 2984, 
        "av_neighbour_normed_area": 1.006491638950936, 
        "centroid_x": 233.27747989276139, 
        "centroid_y": 612.93934316353887, 
        "neighbours": [
            0, 
            420, 
            646, 
            946, 
            1181
        ], 
        "norm_area": 0.80725010145933318, 
        "num_neighbours": 4
    }, 
    "1108": {
        "area": 2654, 
        "av_neighbour_normed_area": 0.88938248855110147, 
        "centroid_x": 338.10248681235868, 
        "centroid_y": 572.87942727957795, 
        "neighbours": [
            0, 
            1681, 
            946, 
            1711
        ], 
        "norm_area": 0.77731133458254131, 
        "num_neighbours": 3
    }, 
    "1181": {
        "area": 3421, 
        "av_neighbour_normed_area": 0.94774221466028441, 
        "centroid_x": 221.74773458053201, 
        "centroid_y": 558.38614440222159, 
        "neighbours": [
            0, 
            1100, 
            1681, 
            946, 
            1948
        ], 
        "norm_area": 0.95967459149847811, 
        "num_neighbours": 4
    }, 
    "1681": {
        "area": 3671, 
        "av_neighbour_normed_area": 1.0293703459106658, 
        "centroid_x": 284.51430128030512, 
        "centroid_y": 529.88558975755927, 
        "neighbours": [
            2129, 
            1735, 
            1711, 
            946, 
            1108, 
            1948, 
            1181
        ], 
        "norm_area": 0.9261181389092219, 
        "num_neighbours": 7
    }, 
    "1711": {
        "area": 2896, 
        "av_neighbour_normed_area": 1.0396309104172043, 
        "centroid_x": 343.96788674033149, 
        "centroid_y": 523.95925414364638, 
        "neighbours": [
            0, 
            1681, 
            1735, 
            1108
        ], 
        "norm_area": 0.73236112283128973, 
        "num_neighbours": 3
    }, 
    "1735": {
        "area": 5538, 
        "av_neighbour_normed_area": 0.9015440740883035, 
        "centroid_x": 338.18165402672446, 
        "centroid_y": 457.72390754785118, 
        "neighbours": [
            0, 
            1681, 
            1711, 
            2129, 
            2423
        ], 
        "norm_area": 1.4154632587994811, 
        "num_neighbours": 4
    }, 
    "1866": {
        "area": 3431, 
        "av_neighbour_normed_area": 0.96475606616094112, 
        "centroid_x": 167.7301078402798, 
        "centroid_y": 446.7394345671816, 
        "neighbours": [
            0, 
            2457, 
            2084, 
            1948
        ], 
        "norm_area": 0.86242144953109845, 
        "num_neighbours": 3
    }, 
    "1948": {
        "area": 3928, 
        "av_neighbour_normed_area": 0.88786977006836942, 
        "centroid_x": 220.63263747454175, 
        "centroid_y": 495.50610997963338, 
        "neighbours": [
            0, 
            2084, 
            1681, 
            1866, 
            2129, 
            1181, 
            2399
        ], 
        "norm_area": 1.0479324144181494, 
        "num_neighbours": 6
    }, 
    "2084": {
        "area": 3210, 
        "av_neighbour_normed_area": 1.1295216354963724, 
        "centroid_x": 200.63956386292836, 
        "centroid_y": 411.28068535825543, 
        "neighbours": [
            2660, 
            1866, 
            2457, 
            1948, 
            3166, 
            2399
        ], 
        "norm_area": 0.68567766742543312, 
        "num_neighbours": 6
    }, 
    "2129": {
        "area": 5634, 
        "av_neighbour_normed_area": 1.1040412059669171, 
        "centroid_x": 278.31824636137736, 
        "centroid_y": 449.75878594249201, 
        "neighbours": [
            2660, 
            1735, 
            2423, 
            1681, 
            1948, 
            2399
        ], 
        "norm_area": 1.2631814954719163, 
        "num_neighbours": 6
    }, 
    "2399": {
        "area": 3123, 
        "av_neighbour_normed_area": 1.2292160455901766, 
        "centroid_x": 242.8786423310919, 
        "centroid_y": 416.34133845661222, 
        "neighbours": [
            2084, 
            1948, 
            2660, 
            2129
        ], 
        "norm_area": 0.63014527846193857, 
        "num_neighbours": 4
    }, 
    "2423": {
        "area": 3449, 
        "av_neighbour_normed_area": 1.2765798611354893, 
        "centroid_x": 344.51841113366191, 
        "centroid_y": 390.14612931284432, 
        "neighbours": [
            0, 
            2723, 
            2660, 
            1735, 
            2129, 
            2739
        ], 
        "norm_area": 0.68451554004232995, 
        "num_neighbours": 5
    }, 
    "2457": {
        "area": 4797, 
        "av_neighbour_normed_area": 0.90133302129111603, 
        "centroid_x": 150.64415259537211, 
        "centroid_y": 358.38336460287678, 
        "neighbours": [
            0, 
            1866, 
            2084, 
            3166
        ], 
        "norm_area": 1.1606581176039972, 
        "num_neighbours": 3
    }, 
    "2660": {
        "area": 7052, 
        "av_neighbour_normed_area": 0.78508870231030714, 
        "centroid_x": 279.2719795802609, 
        "centroid_y": 342.69469653998868, 
        "neighbours": [
            2129, 
            3281, 
            2739, 
            2423, 
            2084, 
            3515, 
            3453, 
            3166, 
            2399
        ], 
        "norm_area": 1.9200726062744233, 
        "num_neighbours": 9
    }, 
    "2723": {
        "area": 4635, 
        "av_neighbour_normed_area": 0.910090771097539, 
        "centroid_x": 402.09708737864077, 
        "centroid_y": 318.14476806903991, 
        "neighbours": [
            0, 
            3281, 
            2739, 
            2423, 
            4250
        ], 
        "norm_area": 1.2732641989006221, 
        "num_neighbours": 4
    }, 
    "2739": {
        "area": 2334, 
        "av_neighbour_normed_area": 1.1425255805047432, 
        "centroid_x": 338.12596401028276, 
        "centroid_y": 345.85047129391603, 
        "neighbours": [
            3281, 
            2660, 
            2723, 
            2423
        ], 
        "norm_area": 0.51091774750758334, 
        "num_neighbours": 4
    }, 
    "3166": {
        "area": 5758, 
        "av_neighbour_normed_area": 1.2027683531231625, 
        "centroid_x": 200.84178534213268, 
        "centroid_y": 322.67002431399794, 
        "neighbours": [
            0, 
            2660, 
            4044, 
            2457, 
            3453, 
            2084
        ], 
        "norm_area": 1.1558999478181495, 
        "num_neighbours": 5
    }, 
    "3281": {
        "area": 3137, 
        "av_neighbour_normed_area": 1.2420784661704565, 
        "centroid_x": 358.56359579215814, 
        "centroid_y": 291.47784507491235, 
        "neighbours": [
            2723, 
            2660, 
            2739, 
            4250, 
            3515
        ], 
        "norm_area": 0.69224997794412346, 
        "num_neighbours": 5
    }, 
    "3453": {
        "area": 3414, 
        "av_neighbour_normed_area": 1.2067228032510144, 
        "centroid_x": 274.27240773286468, 
        "centroid_y": 283.10486233157587, 
        "neighbours": [
            2660, 
            4044, 
            4045, 
            3515, 
            3166
        ], 
        "norm_area": 0.68975270730085747, 
        "num_neighbours": 5
    }, 
    "3515": {
        "area": 2996, 
        "av_neighbour_normed_area": 1.046183408409137, 
        "centroid_x": 328.55307076101468, 
        "centroid_y": 243.23464619492657, 
        "neighbours": [
            2660, 
            4045, 
            4304, 
            3281, 
            4250, 
            3453
        ], 
        "norm_area": 0.75345795960552187, 
        "num_neighbours": 6
    }, 
    "4044": {
        "area": 6434, 
        "av_neighbour_normed_area": 0.92298312072070199, 
        "centroid_x": 228.37270749145165, 
        "centroid_y": 238.92943736400372, 
        "neighbours": [
            0, 
            4557, 
            4045, 
            3453, 
            3166
        ], 
        "norm_area": 1.55768066821387, 
        "num_neighbours": 4
    }, 
    "4045": {
        "area": 2508, 
        "av_neighbour_normed_area": 0.9724053896723317, 
        "centroid_x": 297.56738437001593, 
        "centroid_y": 216.72767145135566, 
        "neighbours": [
            4044, 
            4557, 
            4304, 
            4367, 
            3515, 
            3453
        ], 
        "norm_area": 0.6465028355498299, 
        "num_neighbours": 6
    }, 
    "4250": {
        "area": 5641, 
        "av_neighbour_normed_area": 0.82370366006303142, 
        "centroid_x": 390.30632866513031, 
        "centroid_y": 232.28346037936535, 
        "neighbours": [
            0, 
            2723, 
            4304, 
            3281, 
            3515
        ], 
        "norm_area": 1.7526798198062101, 
        "num_neighbours": 4
    }, 
    "4304": {
        "area": 2106, 
        "av_neighbour_normed_area": 1.0526405300081376, 
        "centroid_x": 354.20892687559353, 
        "centroid_y": 180.71415004748337, 
        "neighbours": [
            0, 
            4045, 
            4367, 
            4250, 
            3515
        ], 
        "norm_area": 0.57584250462556219, 
        "num_neighbours": 4
    }, 
    "4367": {
        "area": 3484, 
        "av_neighbour_normed_area": 0.82874701358331959, 
        "centroid_x": 324.87657864523538, 
        "centroid_y": 151.31659012629163, 
        "neighbours": [
            0, 
            4557, 
            4045, 
            4304, 
            4658
        ], 
        "norm_area": 1.0579215061236293, 
        "num_neighbours": 4
    }, 
    "4557": {
        "area": 4842, 
        "av_neighbour_normed_area": 1.0387426826745665, 
        "centroid_x": 251.78624535315984, 
        "centroid_y": 168.70941759603468, 
        "neighbours": [
            0, 
            4044, 
            4045, 
            4658, 
            4367
        ], 
        "norm_area": 1.1997769931369542, 
        "num_neighbours": 4
    }, 
    "4658": {
        "area": 3717, 
        "av_neighbour_normed_area": 1.128849249065867, 
        "centroid_x": 287.91713747645952, 
        "centroid_y": 113.5318805488297, 
        "neighbours": [
            0, 
            4557, 
            4367
        ], 
        "norm_area": 0.89286572184967927, 
        "num_neighbours": 2
    }
}