{
    "0": {
        "area": 311448, 
        "av_neighbour_normed_area": 0.97097530143665411, 
        "centroid_x": 277.26280149495261, 
        "centroid_y": 487.80133441216509, 
        "neighbours": [
            669, 
            3181, 
            1821, 
            2373, 
            432, 
            164, 
            3494, 
            552, 
            1066, 
            3115, 
            172, 
            2222, 
            2205, 
            2992, 
            3507, 
            2233, 
            959, 
            452, 
            3397, 
            1350, 
            1485, 
            2895, 
            1362, 
            973, 
            859, 
            3682, 
            1123, 
            3176, 
            2157, 
            1135, 
            624, 
            1784, 
            1657
        ], 
        "norm_area": 122.26287427291382, 
        "num_neighbours": 33
    }, 
    "164": {
        "area": 3330, 
        "av_neighbour_normed_area": 0.85741200059907563, 
        "centroid_x": 268.68348348348349, 
        "centroid_y": 733.20780780780785, 
        "neighbours": [
            0, 
            452, 
            423, 
            172, 
            432
        ], 
        "norm_area": 1.248008994672541, 
        "num_neighbours": 4
    }, 
    "172": {
        "area": 1990, 
        "av_neighbour_normed_area": 1.1603576637489967, 
        "centroid_x": 301.19999999999999, 
        "centroid_y": 785.93115577889444, 
        "neighbours": [
            0, 
            164, 
            452
        ], 
        "norm_area": 0.58332111975496559, 
        "num_neighbours": 2
    }, 
    "423": {
        "area": 3292, 
        "av_neighbour_normed_area": 1.0495102281893713, 
        "centroid_x": 272.68712029161605, 
        "centroid_y": 652.96506682867562, 
        "neighbours": [
            432, 
            452, 
            837, 
            552, 
            624, 
            164
        ], 
        "norm_area": 1.1334136684574045, 
        "num_neighbours": 6
    }, 
    "432": {
        "area": 1898, 
        "av_neighbour_normed_area": 1.1284074185151334, 
        "centroid_x": 232.09641728134878, 
        "centroid_y": 699.61011591148576, 
        "neighbours": [
            624, 
            164, 
            0, 
            423
        ], 
        "norm_area": 0.64020688105553403, 
        "num_neighbours": 3
    }, 
    "452": {
        "area": 3493, 
        "av_neighbour_normed_area": 1.1388012746083591, 
        "centroid_x": 308.88376753507015, 
        "centroid_y": 705.57371886630403, 
        "neighbours": [
            0, 
            164, 
            423, 
            552, 
            172
        ], 
        "norm_area": 1.0727063339858103, 
        "num_neighbours": 4
    }, 
    "552": {
        "area": 4413, 
        "av_neighbour_normed_area": 0.88787150951516136, 
        "centroid_x": 312.15612961704056, 
        "centroid_y": 604.17221844550193, 
        "neighbours": [
            0, 
            1025, 
            452, 
            837, 
            423, 
            1135, 
            859
        ], 
        "norm_area": 1.5904613166873265, 
        "num_neighbours": 6
    }, 
    "624": {
        "area": 2272, 
        "av_neighbour_normed_area": 0.88746870642373499, 
        "centroid_x": 230.36707746478874, 
        "centroid_y": 647.80237676056333, 
        "neighbours": [
            0, 
            432, 
            836, 
            837, 
            423, 
            669
        ], 
        "norm_area": 1.0037995935438624, 
        "num_neighbours": 5
    }, 
    "669": {
        "area": 2316, 
        "av_neighbour_normed_area": 0.94840524120902014, 
        "centroid_x": 187.85189982728843, 
        "centroid_y": 636.38341968911914, 
        "neighbours": [
            0, 
            624, 
            836, 
            973
        ], 
        "norm_area": 1.1053133948593732, 
        "num_neighbours": 3
    }, 
    "836": {
        "area": 1790, 
        "av_neighbour_normed_area": 0.96717108155670373, 
        "centroid_x": 218.67765363128493, 
        "centroid_y": 597.73798882681569, 
        "neighbours": [
            837, 
            966, 
            973, 
            624, 
            669
        ], 
        "norm_area": 0.81653133839316761, 
        "num_neighbours": 5
    }, 
    "837": {
        "area": 2021, 
        "av_neighbour_normed_area": 1.0573002448278566, 
        "centroid_x": 262.65957446808511, 
        "centroid_y": 593.88767936665022, 
        "neighbours": [
            1025, 
            836, 
            966, 
            423, 
            552, 
            624
        ], 
        "norm_area": 0.74187825024066445, 
        "num_neighbours": 6
    }, 
    "859": {
        "area": 2396, 
        "av_neighbour_normed_area": 1.5904613150968649, 
        "centroid_x": 356.12479131886477, 
        "centroid_y": 598.11936560934896, 
        "neighbours": [
            0, 
            552
        ], 
        "norm_area": 0.54294130978202804, 
        "num_neighbours": 1
    }, 
    "959": {
        "area": 2160, 
        "av_neighbour_normed_area": 0.93813095066111019, 
        "centroid_x": 137.27083333333334, 
        "centroid_y": 574.32453703703709, 
        "neighbours": [
            0, 
            1066, 
            973, 
            1018
        ], 
        "norm_area": 1.1044826998602812, 
        "num_neighbours": 3
    }, 
    "965": {
        "area": 2774, 
        "av_neighbour_normed_area": 0.91400519154148074, 
        "centroid_x": 185.76351838500361, 
        "centroid_y": 521.07317952415281, 
        "neighbours": [
            1508, 
            966, 
            973, 
            1138, 
            1428, 
            1018
        ], 
        "norm_area": 1.3557057913293566, 
        "num_neighbours": 6
    }, 
    "966": {
        "area": 2128, 
        "av_neighbour_normed_area": 0.91889890986313327, 
        "centroid_x": 221.65648496240601, 
        "centroid_y": 553.18984962406012, 
        "neighbours": [
            1025, 
            836, 
            965, 
            973, 
            1138, 
            1310, 
            837
        ], 
        "norm_area": 0.95997937746835404, 
        "num_neighbours": 7
    }, 
    "973": {
        "area": 2224, 
        "av_neighbour_normed_area": 1.0297890643968008, 
        "centroid_x": 174.2185251798561, 
        "centroid_y": 583.29946043165467, 
        "neighbours": [
            0, 
            836, 
            965, 
            966, 
            1018, 
            669, 
            959
        ], 
        "norm_area": 1.0248847926384361, 
        "num_neighbours": 6
    }, 
    "1018": {
        "area": 1852, 
        "av_neighbour_normed_area": 1.1033778084661654, 
        "centroid_x": 152.16090712742979, 
        "centroid_y": 519.7834773218143, 
        "neighbours": [
            965, 
            1066, 
            973, 
            1428, 
            959
        ], 
        "norm_area": 0.83672178550006238, 
        "num_neighbours": 5
    }, 
    "1025": {
        "area": 2450, 
        "av_neighbour_normed_area": 1.0965520383610046, 
        "centroid_x": 266.80081632653059, 
        "centroid_y": 545.86122448979597, 
        "neighbours": [
            837, 
            966, 
            552, 
            1135, 
            1310
        ], 
        "norm_area": 0.83961617547432499, 
        "num_neighbours": 5
    }, 
    "1066": {
        "area": 1791, 
        "av_neighbour_normed_area": 0.95424587280761231, 
        "centroid_x": 124.94919039642657, 
        "centroid_y": 507.82970407593524, 
        "neighbours": [
            0, 
            1350, 
            1428, 
            1018, 
            959
        ], 
        "norm_area": 0.95278627478296318, 
        "num_neighbours": 4
    }, 
    "1123": {
        "area": 2190, 
        "av_neighbour_normed_area": 1.0213279265547619, 
        "centroid_x": 357.78082191780823, 
        "centroid_y": 498.53196347031962, 
        "neighbours": [
            0, 
            1464, 
            1362, 
            1135
        ], 
        "norm_area": 0.79752367080654041, 
        "num_neighbours": 3
    }, 
    "1135": {
        "area": 2996, 
        "av_neighbour_normed_area": 1.0926008354018506, 
        "centroid_x": 310.63584779706275, 
        "centroid_y": 524.61315086782372, 
        "neighbours": [
            0, 
            1025, 
            1123, 
            552, 
            1464, 
            1310
        ], 
        "norm_area": 0.99667332003860687, 
        "num_neighbours": 5
    }, 
    "1138": {
        "area": 1226, 
        "av_neighbour_normed_area": 1.1582401781051761, 
        "centroid_x": 212.98776508972267, 
        "centroid_y": 499.46411092985318, 
        "neighbours": [
            966, 
            1508, 
            965, 
            1310
        ], 
        "norm_area": 0.45990809341825845, 
        "num_neighbours": 4
    }, 
    "1310": {
        "area": 3032, 
        "av_neighbour_normed_area": 0.92827385676148411, 
        "centroid_x": 255.3202506596306, 
        "centroid_y": 494.6042216358839, 
        "neighbours": [
            1025, 
            1508, 
            966, 
            1610, 
            1135, 
            1138, 
            1464
        ], 
        "norm_area": 1.1937679284666241, 
        "num_neighbours": 7
    }, 
    "1350": {
        "area": 1389, 
        "av_neighbour_normed_area": 0.88207812112891726, 
        "centroid_x": 103.7257019438445, 
        "centroid_y": 480.69330453563714, 
        "neighbours": [
            0, 
            1066, 
            1428, 
            1485
        ], 
        "norm_area": 0.79674952200118354, 
        "num_neighbours": 3
    }, 
    "1362": {
        "area": 2297, 
        "av_neighbour_normed_area": 0.8811363998731756, 
        "centroid_x": 360.86286460600786, 
        "centroid_y": 454.67696996081844, 
        "neighbours": [
            0, 
            1123, 
            1581, 
            1464, 
            1657
        ], 
        "norm_area": 1.0256753739799678, 
        "num_neighbours": 4
    }, 
    "1428": {
        "area": 2118, 
        "av_neighbour_normed_area": 0.90053876032065194, 
        "centroid_x": 147.00377714825308, 
        "centroid_y": 459.25779036827197, 
        "neighbours": [
            1508, 
            965, 
            1350, 
            1546, 
            1485, 
            1018, 
            1066, 
            1535
        ], 
        "norm_area": 1.0790294848231681, 
        "num_neighbours": 8
    }, 
    "1464": {
        "area": 2945, 
        "av_neighbour_normed_area": 1.0234992554473545, 
        "centroid_x": 309.6509337860781, 
        "centroid_y": 463.99864176570458, 
        "neighbours": [
            1123, 
            1992, 
            1610, 
            1581, 
            1135, 
            1362, 
            1310
        ], 
        "norm_area": 1.0416350866670385, 
        "num_neighbours": 7
    }, 
    "1485": {
        "area": 1321, 
        "av_neighbour_normed_area": 0.96429867112841339, 
        "centroid_x": 93.255109765329294, 
        "centroid_y": 452.18016654049961, 
        "neighbours": [
            0, 
            1350, 
            1428, 
            1821, 
            1535
        ], 
        "norm_area": 0.61441860466269882, 
        "num_neighbours": 4
    }, 
    "1508": {
        "area": 2729, 
        "av_neighbour_normed_area": 0.98480269024539324, 
        "centroid_x": 200.41480395749358, 
        "centroid_y": 454.61084646390617, 
        "neighbours": [
            965, 
            1546, 
            1138, 
            1428, 
            1610, 
            1310, 
            1823
        ], 
        "norm_area": 1.1235076163146105, 
        "num_neighbours": 7
    }, 
    "1535": {
        "area": 2391, 
        "av_neighbour_normed_area": 0.97308875194975453, 
        "centroid_x": 122.64533667921371, 
        "centroid_y": 404.04098703471351, 
        "neighbours": [
            1952, 
            1546, 
            1485, 
            1714, 
            1428, 
            1821
        ], 
        "norm_area": 0.97386463920787592, 
        "num_neighbours": 6
    }, 
    "1546": {
        "area": 1456, 
        "av_neighbour_normed_area": 1.0814443486281609, 
        "centroid_x": 161.27197802197801, 
        "centroid_y": 425.27472527472526, 
        "neighbours": [
            1508, 
            1714, 
            1428, 
            1823, 
            1535
        ], 
        "norm_area": 0.55055584966700377, 
        "num_neighbours": 5
    }, 
    "1581": {
        "area": 1662, 
        "av_neighbour_normed_area": 1.1269075590467603, 
        "centroid_x": 351.67749699157639, 
        "centroid_y": 418.14500601684716, 
        "neighbours": [
            1992, 
            1362, 
            1657, 
            1464, 
            1913
        ], 
        "norm_area": 0.58773604923672185, 
        "num_neighbours": 5
    }, 
    "1610": {
        "area": 3305, 
        "av_neighbour_normed_area": 1.0711242903397875, 
        "centroid_x": 252.9573373676248, 
        "centroid_y": 436.47715582450832, 
        "neighbours": [
            1508, 
            1959, 
            1992, 
            1464, 
            2045, 
            1310, 
            1823
        ], 
        "norm_area": 1.0765973288774693, 
        "num_neighbours": 7
    }, 
    "1657": {
        "area": 2161, 
        "av_neighbour_normed_area": 0.80078722641810096, 
        "centroid_x": 408.32808884775568, 
        "centroid_y": 419.29199444701527, 
        "neighbours": [
            0, 
            1581, 
            1362, 
            1913, 
            1784
        ], 
        "norm_area": 1.0976507936635378, 
        "num_neighbours": 4
    }, 
    "1714": {
        "area": 2893, 
        "av_neighbour_normed_area": 1.0083773963881399, 
        "centroid_x": 151.25095057034221, 
        "centroid_y": 369.88696854476325, 
        "neighbours": [
            1952, 
            1546, 
            2170, 
            1535, 
            1823
        ], 
        "norm_area": 1.0527656477559193, 
        "num_neighbours": 5
    }, 
    "1784": {
        "area": 1489, 
        "av_neighbour_normed_area": 1.1283309122904968, 
        "centroid_x": 410.8576225654802, 
        "centroid_y": 384.07991940899933, 
        "neighbours": [
            0, 
            1657, 
            2157, 
            1913
        ], 
        "norm_area": 0.60668205895538774, 
        "num_neighbours": 3
    }, 
    "1821": {
        "area": 2702, 
        "av_neighbour_normed_area": 0.96363750503959111, 
        "centroid_x": 85.707994078460402, 
        "centroid_y": 394.26572908956331, 
        "neighbours": [
            1952, 
            0, 
            1485, 
            2222, 
            1535
        ], 
        "norm_area": 1.0075510394457248, 
        "num_neighbours": 4
    }, 
    "1823": {
        "area": 3092, 
        "av_neighbour_normed_area": 0.90210979955271975, 
        "centroid_x": 201.56597671410091, 
        "centroid_y": 394.38260025873223, 
        "neighbours": [
            1508, 
            1959, 
            1546, 
            1714, 
            2170, 
            1610
        ], 
        "norm_area": 1.1780543561206755, 
        "num_neighbours": 6
    }, 
    "1913": {
        "area": 2427, 
        "av_neighbour_normed_area": 0.97308398056750223, 
        "centroid_x": 360.11948908117017, 
        "centroid_y": 381.39142974866093, 
        "neighbours": [
            2146, 
            1992, 
            2157, 
            1581, 
            1657, 
            1784
        ], 
        "norm_area": 0.98305542430111392, 
        "num_neighbours": 6
    }, 
    "1952": {
        "area": 4241, 
        "av_neighbour_normed_area": 0.90509572336142607, 
        "centroid_x": 123.66423013440226, 
        "centroid_y": 320.76232020749825, 
        "neighbours": [
            2373, 
            2222, 
            1714, 
            2170, 
            1821, 
            2270, 
            1535
        ], 
        "norm_area": 1.5342118863171013, 
        "num_neighbours": 7
    }, 
    "1959": {
        "area": 2805, 
        "av_neighbour_normed_area": 1.1303620823071585, 
        "centroid_x": 232.7283422459893, 
        "centroid_y": 361.55472370766489, 
        "neighbours": [
            1610, 
            2170, 
            2134, 
            2138, 
            2045, 
            1823
        ], 
        "norm_area": 0.80403210396700608, 
        "num_neighbours": 6
    }, 
    "1992": {
        "area": 4309, 
        "av_neighbour_normed_area": 0.9804139440444769, 
        "centroid_x": 304.61174286377349, 
        "centroid_y": 392.99883963796702, 
        "neighbours": [
            2146, 
            1610, 
            1581, 
            2134, 
            1464, 
            1913, 
            2045
        ], 
        "norm_area": 1.4865211177490512, 
        "num_neighbours": 7
    }, 
    "2045": {
        "area": 2577, 
        "av_neighbour_normed_area": 1.2787612751553283, 
        "centroid_x": 272.98641831587116, 
        "centroid_y": 364.03337213814513, 
        "neighbours": [
            1992, 
            1610, 
            2134, 
            1959
        ], 
        "norm_area": 0.67035182416463157, 
        "num_neighbours": 4
    }, 
    "2134": {
        "area": 4958, 
        "av_neighbour_normed_area": 0.87833896457966809, 
        "centroid_x": 307.10024203307785, 
        "centroid_y": 301.25050423557889, 
        "neighbours": [
            2146, 
            2436, 
            1959, 
            1992, 
            2985, 
            2414, 
            2265, 
            2138, 
            2045
        ], 
        "norm_area": 1.747894551306548, 
        "num_neighbours": 9
    }, 
    "2138": {
        "area": 4440, 
        "av_neighbour_normed_area": 0.98773346957820463, 
        "centroid_x": 238.80225225225226, 
        "centroid_y": 284.59414414414414, 
        "neighbours": [
            2470, 
            1959, 
            2414, 
            2134, 
            3068, 
            2170, 
            2270
        ], 
        "norm_area": 1.3040741828675673, 
        "num_neighbours": 7
    }, 
    "2146": {
        "area": 2417, 
        "av_neighbour_normed_area": 1.2199668514961466, 
        "centroid_x": 362.24451799751756, 
        "centroid_y": 337.34546959040131, 
        "neighbours": [
            1992, 
            2157, 
            1913, 
            2134, 
            2233, 
            2265
        ], 
        "norm_area": 0.75562734473822901, 
        "num_neighbours": 6
    }, 
    "2157": {
        "area": 2775, 
        "av_neighbour_normed_area": 0.81279489845356911, 
        "centroid_x": 413.54594594594596, 
        "centroid_y": 343.08108108108109, 
        "neighbours": [
            0, 
            2146, 
            1913, 
            1784, 
            2233, 
            2205
        ], 
        "norm_area": 1.3042865200351692, 
        "num_neighbours": 5
    }, 
    "2170": {
        "area": 2560, 
        "av_neighbour_normed_area": 1.0455945493828089, 
        "centroid_x": 188.80898437499999, 
        "centroid_y": 330.57851562500002, 
        "neighbours": [
            1952, 
            1959, 
            1714, 
            2138, 
            2270, 
            1823
        ], 
        "norm_area": 0.80520025163642062, 
        "num_neighbours": 6
    }, 
    "2205": {
        "area": 1573, 
        "av_neighbour_normed_area": 1.2258116292573484, 
        "centroid_x": 429.27972027972027, 
        "centroid_y": 296.8194532739987, 
        "neighbours": [
            0, 
            2233, 
            2157
        ], 
        "norm_area": 0.57127292538057017, 
        "num_neighbours": 2
    }, 
    "2222": {
        "area": 2774, 
        "av_neighbour_normed_area": 1.3018557998672009, 
        "centroid_x": 69.343907714491706, 
        "centroid_y": 332.40374909877431, 
        "neighbours": [
            0, 
            1952, 
            2373, 
            1821
        ], 
        "norm_area": 0.73205489093432619, 
        "num_neighbours": 3
    }, 
    "2233": {
        "area": 2732, 
        "av_neighbour_normed_area": 0.93255408679539564, 
        "centroid_x": 410.90080527086383, 
        "centroid_y": 265.66837481698389, 
        "neighbours": [
            0, 
            2146, 
            2436, 
            2157, 
            2895, 
            2265, 
            2205
        ], 
        "norm_area": 1.1473367397053398, 
        "num_neighbours": 6
    }, 
    "2265": {
        "area": 1991, 
        "av_neighbour_normed_area": 1.0871028277564181, 
        "centroid_x": 358.65344048216974, 
        "centroid_y": 298.7518834756404, 
        "neighbours": [
            2146, 
            2436, 
            2134, 
            2233
        ], 
        "norm_area": 0.65070675709962411, 
        "num_neighbours": 4
    }, 
    "2270": {
        "area": 1605, 
        "av_neighbour_normed_area": 1.2216670428059209, 
        "centroid_x": 187.0778816199377, 
        "centroid_y": 293.06542056074767, 
        "neighbours": [
            1952, 
            2373, 
            2470, 
            2138, 
            2170
        ], 
        "norm_area": 0.40042912031417893, 
        "num_neighbours": 5
    }, 
    "2373": {
        "area": 4425, 
        "av_neighbour_normed_area": 0.89121243166493269, 
        "centroid_x": 118.70621468926554, 
        "centroid_y": 263.69242937853107, 
        "neighbours": [
            0, 
            1952, 
            2470, 
            2222, 
            2992, 
            2270
        ], 
        "norm_area": 1.3638044751406324, 
        "num_neighbours": 5
    }, 
    "2414": {
        "area": 2656, 
        "av_neighbour_normed_area": 1.1674968881874481, 
        "centroid_x": 306.70406626506025, 
        "centroid_y": 249.90173192771084, 
        "neighbours": [
            2985, 
            2134, 
            2873, 
            2138, 
            3068
        ], 
        "norm_area": 0.72607982505245816, 
        "num_neighbours": 5
    }, 
    "2436": {
        "area": 2132, 
        "av_neighbour_normed_area": 1.1943842390199864, 
        "centroid_x": 378.92448405253282, 
        "centroid_y": 250.26454033771108, 
        "neighbours": [
            2985, 
            2895, 
            2134, 
            2265, 
            2233
        ], 
        "norm_area": 0.69755267636265794, 
        "num_neighbours": 5
    }, 
    "2470": {
        "area": 4375, 
        "av_neighbour_normed_area": 1.0683532198286321, 
        "centroid_x": 201.08937142857144, 
        "centroid_y": 231.69302857142858, 
        "neighbours": [
            2373, 
            3181, 
            2992, 
            2138, 
            3068, 
            2270
        ], 
        "norm_area": 1.1010444192895499, 
        "num_neighbours": 6
    }, 
    "2873": {
        "area": 1816, 
        "av_neighbour_normed_area": 0.92913163854866598, 
        "centroid_x": 328.9917400881057, 
        "centroid_y": 192.18447136563876, 
        "neighbours": [
            3397, 
            3176, 
            2985, 
            3115, 
            2414, 
            3068
        ], 
        "norm_area": 0.6459568413674911, 
        "num_neighbours": 6
    }, 
    "2895": {
        "area": 3399, 
        "av_neighbour_normed_area": 0.80180673922289181, 
        "centroid_x": 400.78758458370106, 
        "centroid_y": 195.0020594292439, 
        "neighbours": [
            0, 
            2436, 
            2985, 
            3115, 
            2233
        ], 
        "norm_area": 1.6158782980886772, 
        "num_neighbours": 4
    }, 
    "2985": {
        "area": 2202, 
        "av_neighbour_normed_area": 0.99759914711858044, 
        "centroid_x": 354.47456857402364, 
        "centroid_y": 214.09536784741144, 
        "neighbours": [
            2436, 
            3115, 
            2414, 
            2895, 
            2134, 
            2873
        ], 
        "norm_area": 0.81010485009412658, 
        "num_neighbours": 6
    }, 
    "2992": {
        "area": 3228, 
        "av_neighbour_normed_area": 1.2629615253517545, 
        "centroid_x": 157.45198265179678, 
        "centroid_y": 206.113073110285, 
        "neighbours": [
            0, 
            3181, 
            2470, 
            2373
        ], 
        "norm_area": 0.68832184236072003, 
        "num_neighbours": 3
    }, 
    "3068": {
        "area": 4874, 
        "av_neighbour_normed_area": 1.0210253712851649, 
        "centroid_x": 267.48707427164544, 
        "centroid_y": 214.14423471481331, 
        "neighbours": [
            2470, 
            3176, 
            3181, 
            2414, 
            2873, 
            2138
        ], 
        "norm_area": 1.3294540164690052, 
        "num_neighbours": 6
    }, 
    "3115": {
        "area": 1348, 
        "av_neighbour_normed_area": 1.0509742900766759, 
        "centroid_x": 373.81083086053411, 
        "centroid_y": 156.32789317507419, 
        "neighbours": [
            0, 
            3397, 
            2985, 
            2895, 
            2873
        ], 
        "norm_area": 0.55223269153124954, 
        "num_neighbours": 4
    }, 
    "3176": {
        "area": 3441, 
        "av_neighbour_normed_area": 1.1011854216647678, 
        "centroid_x": 291.70996803254866, 
        "centroid_y": 153.31909328683523, 
        "neighbours": [
            0, 
            3397, 
            3494, 
            3181, 
            2873, 
            3068
        ], 
        "norm_area": 1.0249612772669052, 
        "num_neighbours": 5
    }, 
    "3181": {
        "area": 5269, 
        "av_neighbour_normed_area": 1.0359453885875587, 
        "centroid_x": 220.47314480926173, 
        "centroid_y": 156.35528563294744, 
        "neighbours": [
            0, 
            2470, 
            3176, 
            2992, 
            3068
        ], 
        "norm_area": 1.3240356828880431, 
        "num_neighbours": 4
    }, 
    "3397": {
        "area": 2347, 
        "av_neighbour_normed_area": 0.76959350487444877, 
        "centroid_x": 349.79505752023863, 
        "centroid_y": 133.36046016190883, 
        "neighbours": [
            0, 
            3494, 
            3176, 
            3115, 
            3507, 
            2873
        ], 
        "norm_area": 1.1319571718073831, 
        "num_neighbours": 5
    }, 
    "3494": {
        "area": 2480, 
        "av_neighbour_normed_area": 0.96415009732045198, 
        "centroid_x": 319.51411290322579, 
        "centroid_y": 103.87298387096774, 
        "neighbours": [
            0, 
            3682, 
            3397, 
            3176, 
            3507
        ], 
        "norm_area": 1.0745233968931023, 
        "num_neighbours": 4
    }, 
    "3507": {
        "area": 1282, 
        "av_neighbour_normed_area": 1.1186230635568142, 
        "centroid_x": 361.57878315132604, 
        "centroid_y": 87.910296411856478, 
        "neighbours": [
            0, 
            3682, 
            3397, 
            3494
        ], 
        "norm_area": 0.55029331808308912, 
        "num_neighbours": 3
    }, 
    "3682": {
        "area": 2162, 
        "av_neighbour_normed_area": 0.81240835708189152, 
        "centroid_x": 363.27197039777985, 
        "centroid_y": 57.870952821461607, 
        "neighbours": [
            0, 
            3507, 
            3494
        ], 
        "norm_area": 1.1493886230885806, 
        "num_neighbours": 2
    }
}