{
    "0": {
        "area": 224727, 
        "av_neighbour_normed_area": 0.93751380363005321, 
        "centroid_x": 244.87697072447904, 
        "centroid_y": 540.15752001317151, 
        "neighbours": [
            2, 
            2435, 
            132, 
            390, 
            522, 
            2059, 
            3086, 
            2831, 
            274, 
            3092, 
            345, 
            938, 
            711, 
            2610, 
            2229, 
            2105, 
            1722, 
            443, 
            60, 
            1601, 
            454, 
            839, 
            969, 
            3021, 
            849, 
            1490, 
            1107, 
            1108, 
            2137, 
            2778, 
            219, 
            1246, 
            1381, 
            455, 
            2920, 
            3051, 
            3057, 
            1907, 
            760, 
            890
        ], 
        "norm_area": 108.35177551171712, 
        "num_neighbours": 40
    }, 
    "2": {
        "area": 1040, 
        "av_neighbour_normed_area": 1.0053429821717246, 
        "centroid_x": 477.5403846153846, 
        "centroid_y": 260.21826923076924, 
        "neighbours": [
            0, 
            2435, 
            2778, 
            2229
        ], 
        "norm_area": 0.51878949119895912, 
        "num_neighbours": 3
    }, 
    "60": {
        "area": 3271, 
        "av_neighbour_normed_area": 1.0888860996285008, 
        "centroid_x": 258.88627331091408, 
        "centroid_y": 797.96300825435651, 
        "neighbours": [
            0, 
            132, 
            219
        ], 
        "norm_area": 1.2458579318387393, 
        "num_neighbours": 2
    }, 
    "132": {
        "area": 2049, 
        "av_neighbour_normed_area": 1.0894167271786626, 
        "centroid_x": 294.77306002928259, 
        "centroid_y": 763.53343094192292, 
        "neighbours": [
            0, 
            60, 
            274, 
            219
        ], 
        "norm_area": 0.77369414727500818, 
        "num_neighbours": 3
    }, 
    "219": {
        "area": 3202, 
        "av_neighbour_normed_area": 0.91969134993477719, 
        "centroid_x": 261.43535290443475, 
        "centroid_y": 713.88850718301057, 
        "neighbours": [
            0, 
            132, 
            522, 
            274, 
            437, 
            345, 
            60
        ], 
        "norm_area": 1.4040780530708799, 
        "num_neighbours": 6
    }, 
    "274": {
        "area": 1472, 
        "av_neighbour_normed_area": 0.9814922359904843, 
        "centroid_x": 300.17391304347825, 
        "centroid_y": 710.20923913043475, 
        "neighbours": [
            0, 
            219, 
            132, 
            522
        ], 
        "norm_area": 0.61831419771578544, 
        "num_neighbours": 3
    }, 
    "345": {
        "area": 1842, 
        "av_neighbour_normed_area": 1.3174930547796795, 
        "centroid_x": 226.19109663409338, 
        "centroid_y": 681.15038002171548, 
        "neighbours": [
            0, 
            454, 
            499, 
            437, 
            219
        ], 
        "norm_area": 0.67250821468857069, 
        "num_neighbours": 4
    }, 
    "390": {
        "area": 959, 
        "av_neighbour_normed_area": 1.0669517428727255, 
        "centroid_x": 164.53076120959332, 
        "centroid_y": 689.1532846715329, 
        "neighbours": [
            0, 
            443, 
            454
        ], 
        "norm_area": 0.51420911529407243, 
        "num_neighbours": 2
    }, 
    "437": {
        "area": 3158, 
        "av_neighbour_normed_area": 0.91570734519983721, 
        "centroid_x": 265.7710576314123, 
        "centroid_y": 634.75712476250794, 
        "neighbours": [
            522, 
            721, 
            499, 
            692, 
            345, 
            219, 
            732
        ], 
        "norm_area": 1.441069100403193, 
        "num_neighbours": 7
    }, 
    "443": {
        "area": 1258, 
        "av_neighbour_normed_area": 1.042106398374987, 
        "centroid_x": 165.64705882352942, 
        "centroid_y": 652.62003179650242, 
        "neighbours": [
            0, 
            641, 
            454, 
            390, 
            711
        ], 
        "norm_area": 0.66019417476893205, 
        "num_neighbours": 4
    }, 
    "454": {
        "area": 2472, 
        "av_neighbour_normed_area": 0.78654899047827609, 
        "centroid_x": 193.41545307443366, 
        "centroid_y": 690.10720064724921, 
        "neighbours": [
            0, 
            641, 
            390, 
            499, 
            345, 
            443
        ], 
        "norm_area": 1.4737093120434708, 
        "num_neighbours": 5
    }, 
    "455": {
        "area": 2535, 
        "av_neighbour_normed_area": 0.86875898064741375, 
        "centroid_x": 343.86232741617357, 
        "centroid_y": 638.31913214990141, 
        "neighbours": [
            0, 
            522, 
            692, 
            839
        ], 
        "norm_area": 1.2175792507345196, 
        "num_neighbours": 3
    }, 
    "499": {
        "area": 2124, 
        "av_neighbour_normed_area": 1.0682776143741612, 
        "centroid_x": 225.56355932203391, 
        "centroid_y": 628.09227871939731, 
        "neighbours": [
            641, 
            454, 
            721, 
            437, 
            345, 
            698
        ], 
        "norm_area": 0.95111575491866773, 
        "num_neighbours": 6
    }, 
    "522": {
        "area": 1891, 
        "av_neighbour_normed_area": 1.0967473358541218, 
        "centroid_x": 302.37228979375993, 
        "centroid_y": 664.47911158117404, 
        "neighbours": [
            0, 
            455, 
            274, 
            692, 
            437, 
            219
        ], 
        "norm_area": 0.7667045086070573, 
        "num_neighbours": 5
    }, 
    "641": {
        "area": 2204, 
        "av_neighbour_normed_area": 0.99291878594576366, 
        "centroid_x": 184.80852994555354, 
        "centroid_y": 616.43375680580766, 
        "neighbours": [
            454, 
            711, 
            714, 
            499, 
            698, 
            443
        ], 
        "norm_area": 1.1347176935076866, 
        "num_neighbours": 6
    }, 
    "692": {
        "area": 1965, 
        "av_neighbour_normed_area": 1.0753880030867047, 
        "centroid_x": 305.74452926208653, 
        "centroid_y": 611.43053435114507, 
        "neighbours": [
            455, 
            522, 
            839, 
            437, 
            732
        ], 
        "norm_area": 0.80269607844297786, 
        "num_neighbours": 5
    }, 
    "698": {
        "area": 1673, 
        "av_neighbour_normed_area": 0.9979675101137917, 
        "centroid_x": 214.11177525403465, 
        "centroid_y": 578.48834429169153, 
        "neighbours": [
            641, 
            871, 
            714, 
            721, 
            499
        ], 
        "norm_area": 0.78952336008708623, 
        "num_neighbours": 5
    }, 
    "711": {
        "area": 1987, 
        "av_neighbour_normed_area": 1.0163881852397543, 
        "centroid_x": 140.01560140915953, 
        "centroid_y": 610.90437845998997, 
        "neighbours": [
            0, 
            641, 
            714, 
            760, 
            443
        ], 
        "norm_area": 1.045789473696825, 
        "num_neighbours": 4
    }, 
    "714": {
        "area": 2140, 
        "av_neighbour_normed_area": 1.0554069481679145, 
        "centroid_x": 171.48504672897195, 
        "centroid_y": 564.02663551401872, 
        "neighbours": [
            641, 
            871, 
            967, 
            711, 
            760, 
            698, 
            990
        ], 
        "norm_area": 1.0371806411525191, 
        "num_neighbours": 7
    }, 
    "721": {
        "area": 2050, 
        "av_neighbour_normed_area": 1.007658994584455, 
        "centroid_x": 256.75999999999999, 
        "centroid_y": 575.59365853658539, 
        "neighbours": [
            871, 
            1070, 
            499, 
            437, 
            698, 
            732
        ], 
        "norm_area": 0.89813800658323828, 
        "num_neighbours": 6
    }, 
    "732": {
        "area": 2266, 
        "av_neighbour_normed_area": 1.0620368338207209, 
        "centroid_x": 303.36231244483673, 
        "centroid_y": 562.73698146513675, 
        "neighbours": [
            961, 
            839, 
            1070, 
            721, 
            692, 
            437, 
            890
        ], 
        "norm_area": 0.9147108010031757, 
        "num_neighbours": 7
    }, 
    "760": {
        "area": 1998, 
        "av_neighbour_normed_area": 0.88706928116792461, 
        "centroid_x": 135.75125125125126, 
        "centroid_y": 555.46996996996995, 
        "neighbours": [
            0, 
            967, 
            714, 
            711, 
            1213, 
            849, 
            938
        ], 
        "norm_area": 1.2334602325462671, 
        "num_neighbours": 6
    }, 
    "839": {
        "area": 2390, 
        "av_neighbour_normed_area": 1.0096256581164809, 
        "centroid_x": 347.22887029288705, 
        "centroid_y": 579.57866108786607, 
        "neighbours": [
            0, 
            455, 
            692, 
            890, 
            732
        ], 
        "norm_area": 1.0368763557609653, 
        "num_neighbours": 4
    }, 
    "849": {
        "area": 1003, 
        "av_neighbour_normed_area": 0.9346820753564673, 
        "centroid_x": 97.956131605184453, 
        "centroid_y": 554.89332003988034, 
        "neighbours": [
            760, 
            938, 
            0
        ], 
        "norm_area": 0.66777629828231355, 
        "num_neighbours": 2
    }, 
    "871": {
        "area": 2077, 
        "av_neighbour_normed_area": 0.95689148743160435, 
        "centroid_x": 216.93500240731825, 
        "centroid_y": 533.65382763601349, 
        "neighbours": [
            1225, 
            714, 
            1070, 
            721, 
            698, 
            1083, 
            990
        ], 
        "norm_area": 0.96868545540481443, 
        "num_neighbours": 7
    }, 
    "890": {
        "area": 2454, 
        "av_neighbour_normed_area": 0.95084075438712512, 
        "centroid_x": 352.58353708231459, 
        "centroid_y": 526.97921760391193, 
        "neighbours": [
            0, 
            961, 
            839, 
            1097, 
            969, 
            732
        ], 
        "norm_area": 1.1035165032948764, 
        "num_neighbours": 5
    }, 
    "938": {
        "area": 1006, 
        "av_neighbour_normed_area": 1.0109621714696269, 
        "centroid_x": 100.33996023856859, 
        "centroid_y": 529.71669980119282, 
        "neighbours": [
            0, 
            849, 
            1108, 
            760, 
            1213
        ], 
        "norm_area": 0.63590391910134958, 
        "num_neighbours": 4
    }, 
    "961": {
        "area": 2927, 
        "av_neighbour_normed_area": 1.024075647314344, 
        "centroid_x": 303.34096344379913, 
        "centroid_y": 505.50085411684319, 
        "neighbours": [
            1479, 
            1097, 
            1070, 
            890, 
            1083, 
            732
        ], 
        "norm_area": 1.1711122966243817, 
        "num_neighbours": 6
    }, 
    "967": {
        "area": 1848, 
        "av_neighbour_normed_area": 1.1551401857445998, 
        "centroid_x": 149.71861471861473, 
        "centroid_y": 501.45400432900431, 
        "neighbours": [
            1285, 
            714, 
            760, 
            1213, 
            990
        ], 
        "norm_area": 0.87210948561816226, 
        "num_neighbours": 5
    }, 
    "969": {
        "area": 1435, 
        "av_neighbour_normed_area": 0.97545631176433234, 
        "centroid_x": 388.61463414634147, 
        "centroid_y": 506.99094076655052, 
        "neighbours": [
            0, 
            1198, 
            1107, 
            1097, 
            890
        ], 
        "norm_area": 0.71723103837240776, 
        "num_neighbours": 4
    }, 
    "990": {
        "area": 2656, 
        "av_neighbour_normed_area": 0.92104189991371743, 
        "centroid_x": 182.09600903614458, 
        "centroid_y": 501.44051204819277, 
        "neighbours": [
            1475, 
            1285, 
            871, 
            1225, 
            714, 
            967
        ], 
        "norm_area": 1.3435629373699662, 
        "num_neighbours": 6
    }, 
    "1070": {
        "area": 2397, 
        "av_neighbour_normed_area": 1.0263847278057237, 
        "centroid_x": 260.92949520233623, 
        "centroid_y": 526.86357947434294, 
        "neighbours": [
            961, 
            871, 
            721, 
            1083, 
            732
        ], 
        "norm_area": 0.98084949669745147, 
        "num_neighbours": 5
    }, 
    "1083": {
        "area": 2899, 
        "av_neighbour_normed_area": 0.97315608575681822, 
        "centroid_x": 249.45325974473957, 
        "centroid_y": 475.55846843739221, 
        "neighbours": [
            961, 
            1475, 
            1479, 
            1225, 
            871, 
            1070, 
            1343
        ], 
        "norm_area": 1.1792770804393926, 
        "num_neighbours": 7
    }, 
    "1097": {
        "area": 2101, 
        "av_neighbour_normed_area": 1.0080650787471122, 
        "centroid_x": 349.48548310328414, 
        "centroid_y": 479.10613993336506, 
        "neighbours": [
            961, 
            1479, 
            1198, 
            1301, 
            969, 
            890
        ], 
        "norm_area": 0.91427328112553596, 
        "num_neighbours": 6
    }, 
    "1107": {
        "area": 1640, 
        "av_neighbour_normed_area": 0.92200064544948546, 
        "centroid_x": 417.71036585365852, 
        "centroid_y": 494.83841463414632, 
        "neighbours": [
            0, 
            969, 
            1490, 
            1198
        ], 
        "norm_area": 0.9499903456397355, 
        "num_neighbours": 3
    }, 
    "1108": {
        "area": 1592, 
        "av_neighbour_normed_area": 0.92082978491410417, 
        "centroid_x": 85.01256281407035, 
        "centroid_y": 495.7424623115578, 
        "neighbours": [
            0, 
            938, 
            1298, 
            1213, 
            1246
        ], 
        "norm_area": 1.0789562860174415, 
        "num_neighbours": 4
    }, 
    "1198": {
        "area": 1808, 
        "av_neighbour_normed_area": 0.99546674099249755, 
        "centroid_x": 392.57411504424778, 
        "centroid_y": 455.27378318584073, 
        "neighbours": [
            1097, 
            1578, 
            1490, 
            1107, 
            1301, 
            969
        ], 
        "norm_area": 0.93404511797263823, 
        "num_neighbours": 6
    }, 
    "1213": {
        "area": 1735, 
        "av_neighbour_normed_area": 0.94423405547158368, 
        "centroid_x": 123.33083573487032, 
        "centroid_y": 487.64149855907783, 
        "neighbours": [
            1285, 
            967, 
            938, 
            1298, 
            1108, 
            760
        ], 
        "norm_area": 1.0636558700434475, 
        "num_neighbours": 6
    }, 
    "1225": {
        "area": 1194, 
        "av_neighbour_normed_area": 1.1430627877211386, 
        "centroid_x": 208.53768844221105, 
        "centroid_y": 480.35259631490788, 
        "neighbours": [
            871, 
            1475, 
            990, 
            1083
        ], 
        "norm_area": 0.46970889064846777, 
        "num_neighbours": 4
    }, 
    "1246": {
        "area": 1884, 
        "av_neighbour_normed_area": 0.87838283272064155, 
        "centroid_x": 56.810509554140125, 
        "centroid_y": 469.5865180467091, 
        "neighbours": [
            0, 
            1381, 
            1328, 
            1298, 
            1108
        ], 
        "norm_area": 1.2366261897078734, 
        "num_neighbours": 4
    }, 
    "1285": {
        "area": 2066, 
        "av_neighbour_normed_area": 0.90964020932992429, 
        "centroid_x": 143.91093901258469, 
        "centroid_y": 440.70813165537271, 
        "neighbours": [
            1475, 
            967, 
            1213, 
            1328, 
            1298, 
            1590, 
            1533, 
            990
        ], 
        "norm_area": 1.0978412487659388, 
        "num_neighbours": 8
    }, 
    "1298": {
        "area": 1277, 
        "av_neighbour_normed_area": 1.0222419368607789, 
        "centroid_x": 101.54815974941269, 
        "centroid_y": 460.93187157400155, 
        "neighbours": [
            1285, 
            1328, 
            1108, 
            1213, 
            1246
        ], 
        "norm_area": 0.74713316172457633, 
        "num_neighbours": 5
    }, 
    "1301": {
        "area": 2285, 
        "av_neighbour_normed_area": 0.94183301624678839, 
        "centroid_x": 352.99474835886213, 
        "centroid_y": 435.28052516411378, 
        "neighbours": [
            1479, 
            1097, 
            1578, 
            1198, 
            1529
        ], 
        "norm_area": 1.0706587948767277, 
        "num_neighbours": 5
    }, 
    "1328": {
        "area": 1269, 
        "av_neighbour_normed_area": 1.0335377718099379, 
        "centroid_x": 91.729708431836087, 
        "centroid_y": 432.13711583924351, 
        "neighbours": [
            1285, 
            1298, 
            1246, 
            1590, 
            1790, 
            1381
        ], 
        "norm_area": 0.63413009079143501, 
        "num_neighbours": 6
    }, 
    "1343": {
        "area": 3198, 
        "av_neighbour_normed_area": 1.066628393455014, 
        "centroid_x": 247.01719824890557, 
        "centroid_y": 417.91713570981864, 
        "neighbours": [
            1952, 
            1859, 
            1479, 
            1933, 
            1905, 
            1475, 
            1083
        ], 
        "norm_area": 1.0891840607326186, 
        "num_neighbours": 7
    }, 
    "1381": {
        "area": 1956, 
        "av_neighbour_normed_area": 0.9256115452764393, 
        "centroid_x": 54.620654396728014, 
        "centroid_y": 418.87116564417175, 
        "neighbours": [
            0, 
            1601, 
            1328, 
            1790, 
            1246
        ], 
        "norm_area": 1.053311793227496, 
        "num_neighbours": 4
    }, 
    "1475": {
        "area": 2536, 
        "av_neighbour_normed_area": 0.98994962117455332, 
        "centroid_x": 196.19203470031545, 
        "centroid_y": 435.82176656151421, 
        "neighbours": [
            1859, 
            1285, 
            1225, 
            1083, 
            1533, 
            990, 
            1343
        ], 
        "norm_area": 1.0807256788134432, 
        "num_neighbours": 7
    }, 
    "1479": {
        "area": 2879, 
        "av_neighbour_normed_area": 1.0701362829725118, 
        "centroid_x": 302.36193122612019, 
        "centroid_y": 445.08197290725946, 
        "neighbours": [
            961, 
            1097, 
            1905, 
            1301, 
            1529, 
            1083, 
            1343
        ], 
        "norm_area": 1.0518267223497071, 
        "num_neighbours": 7
    }, 
    "1490": {
        "area": 1936, 
        "av_neighbour_normed_area": 0.96049327334252455, 
        "centroid_x": 424.35278925619832, 
        "centroid_y": 434.15082644628097, 
        "neighbours": [
            0, 
            1578, 
            1198, 
            1107, 
            1722
        ], 
        "norm_area": 1.114725780925411, 
        "num_neighbours": 4
    }, 
    "1529": {
        "area": 1666, 
        "av_neighbour_normed_area": 1.1519182974009918, 
        "centroid_x": 342.93817527010805, 
        "centroid_y": 398.8847539015606, 
        "neighbours": [
            1479, 
            1578, 
            1905, 
            1301, 
            1818
        ], 
        "norm_area": 0.60309875471725882, 
        "num_neighbours": 5
    }, 
    "1533": {
        "area": 1466, 
        "av_neighbour_normed_area": 1.0807223755507509, 
        "centroid_x": 158.45770804911322, 
        "centroid_y": 406.86425648021827, 
        "neighbours": [
            1475, 
            1285, 
            1835, 
            1859, 
            1590
        ], 
        "norm_area": 0.57830374754567337, 
        "num_neighbours": 5
    }, 
    "1578": {
        "area": 2217, 
        "av_neighbour_normed_area": 0.89266617040662943, 
        "centroid_x": 400.96752368064955, 
        "centroid_y": 398.35814163283715, 
        "neighbours": [
            1704, 
            1198, 
            1490, 
            1301, 
            1529, 
            1818, 
            1722
        ], 
        "norm_area": 1.2059212060106348, 
        "num_neighbours": 7
    }, 
    "1590": {
        "area": 2268, 
        "av_neighbour_normed_area": 1.0084842014481117, 
        "centroid_x": 120.55291005291005, 
        "centroid_y": 385.82892416225752, 
        "neighbours": [
            2146, 
            1285, 
            1835, 
            1328, 
            1533, 
            1790
        ], 
        "norm_area": 0.95750070364233042, 
        "num_neighbours": 6
    }, 
    "1601": {
        "area": 1719, 
        "av_neighbour_normed_area": 1.0049915545050176, 
        "centroid_x": 44.972076788830712, 
        "centroid_y": 372.43339150668993, 
        "neighbours": [
            0, 
            1381, 
            1790, 
            2137
        ], 
        "norm_area": 0.72287636670711108, 
        "num_neighbours": 3
    }, 
    "1704": {
        "area": 1545, 
        "av_neighbour_normed_area": 1.0079848833195422, 
        "centroid_x": 404.88414239482199, 
        "centroid_y": 364.63883495145632, 
        "neighbours": [
            1578, 
            1996, 
            1907, 
            1818, 
            1722
        ], 
        "norm_area": 0.80628326898144864, 
        "num_neighbours": 5
    }, 
    "1722": {
        "area": 1282, 
        "av_neighbour_normed_area": 0.95488671882545073, 
        "centroid_x": 448.05850234009358, 
        "centroid_y": 381.08892355694229, 
        "neighbours": [
            0, 
            1704, 
            1578, 
            1490, 
            1907
        ], 
        "norm_area": 0.75201642470758323, 
        "num_neighbours": 4
    }, 
    "1790": {
        "area": 2556, 
        "av_neighbour_normed_area": 0.95945166895711353, 
        "centroid_x": 84.848591549295776, 
        "centroid_y": 374.92723004694835, 
        "neighbours": [
            1601, 
            2146, 
            1381, 
            1328, 
            1590, 
            2137
        ], 
        "norm_area": 1.108813534824949, 
        "num_neighbours": 6
    }, 
    "1818": {
        "area": 2347, 
        "av_neighbour_normed_area": 1.048587666177403, 
        "centroid_x": 352.4086067319983, 
        "centroid_y": 362.24158500213036, 
        "neighbours": [
            1704, 
            1578, 
            1996, 
            1905, 
            1529, 
            2012
        ], 
        "norm_area": 0.96783505155800487, 
        "num_neighbours": 6
    }, 
    "1835": {
        "area": 2858, 
        "av_neighbour_normed_area": 1.0053687860650773, 
        "centroid_x": 148.33519944016794, 
        "centroid_y": 351.46466060181945, 
        "neighbours": [
            2146, 
            1859, 
            2082, 
            1590, 
            1533
        ], 
        "norm_area": 1.0957748639029976, 
        "num_neighbours": 5
    }, 
    "1859": {
        "area": 2947, 
        "av_neighbour_normed_area": 0.90717507301446687, 
        "centroid_x": 197.20563284696303, 
        "centroid_y": 376.15134034611469, 
        "neighbours": [
            2082, 
            1835, 
            1933, 
            1475, 
            1533, 
            1343
        ], 
        "norm_area": 1.1717693837097662, 
        "num_neighbours": 6
    }, 
    "1905": {
        "area": 4084, 
        "av_neighbour_normed_area": 0.97681996190345699, 
        "centroid_x": 297.20959843290893, 
        "centroid_y": 374.8511263467189, 
        "neighbours": [
            1952, 
            1479, 
            1529, 
            1818, 
            2012, 
            2046, 
            1343
        ], 
        "norm_area": 1.4633497133618039, 
        "num_neighbours": 7
    }, 
    "1907": {
        "area": 1121, 
        "av_neighbour_normed_area": 0.91047704836396515, 
        "centroid_x": 445.63603925066906, 
        "centroid_y": 343.86440677966101, 
        "neighbours": [
            0, 
            1704, 
            2059, 
            1996, 
            1722
        ], 
        "norm_area": 0.69261662033919524, 
        "num_neighbours": 4
    }, 
    "1933": {
        "area": 2669, 
        "av_neighbour_normed_area": 1.1098913038004397, 
        "centroid_x": 226.84001498688647, 
        "centroid_y": 343.79168227800676, 
        "neighbours": [
            1952, 
            2082, 
            1859, 
            2405, 
            2046, 
            1343
        ], 
        "norm_area": 0.81583371543242034, 
        "num_neighbours": 6
    }, 
    "1952": {
        "area": 2539, 
        "av_neighbour_normed_area": 1.2498020580059237, 
        "centroid_x": 265.7179992122883, 
        "centroid_y": 346.73690429302877, 
        "neighbours": [
            1905, 
            1933, 
            2046, 
            1343
        ], 
        "norm_area": 0.70361646114519394, 
        "num_neighbours": 4
    }, 
    "1996": {
        "area": 2614, 
        "av_neighbour_normed_area": 0.8181827397420488, 
        "centroid_x": 405.33588370313697, 
        "centroid_y": 324.60022953328235, 
        "neighbours": [
            1704, 
            2059, 
            1907, 
            1818, 
            2012, 
            2525, 
            2111
        ], 
        "norm_area": 1.4215351149902782, 
        "num_neighbours": 7
    }, 
    "2012": {
        "area": 2424, 
        "av_neighbour_normed_area": 1.2153988895504699, 
        "centroid_x": 353.59158415841586, 
        "centroid_y": 319.99257425742576, 
        "neighbours": [
            1996, 
            2125, 
            1905, 
            1818, 
            2525, 
            2046
        ], 
        "norm_area": 0.7913379400515822, 
        "num_neighbours": 6
    }, 
    "2046": {
        "area": 4483, 
        "av_neighbour_normed_area": 0.89237502001466107, 
        "centroid_x": 298.84496988623687, 
        "centroid_y": 285.82043274592905, 
        "neighbours": [
            1952, 
            2405, 
            2470, 
            2125, 
            1933, 
            1905, 
            2325, 
            2297, 
            2012
        ], 
        "norm_area": 1.6308407437466541, 
        "num_neighbours": 9
    }, 
    "2059": {
        "area": 1033, 
        "av_neighbour_normed_area": 0.82809015257751062, 
        "centroid_x": 454.40561471442402, 
        "centroid_y": 313.13262342691189, 
        "neighbours": [
            0, 
            1996, 
            1907, 
            2229, 
            2111
        ], 
        "norm_area": 0.66207338568702767, 
        "num_neighbours": 4
    }, 
    "2082": {
        "area": 2363, 
        "av_neighbour_normed_area": 1.0521703294090223, 
        "centroid_x": 184.14219212865001, 
        "centroid_y": 313.32585696148965, 
        "neighbours": [
            1859, 
            2146, 
            2247, 
            1835, 
            1933, 
            2405
        ], 
        "norm_area": 0.78322837256682409, 
        "num_neighbours": 6
    }, 
    "2105": {
        "area": 3084, 
        "av_neighbour_normed_area": 1.3533806418999488, 
        "centroid_x": 65.776588845654999, 
        "centroid_y": 253.83009079118028, 
        "neighbours": [
            0, 
            2137, 
            2920, 
            2537
        ], 
        "norm_area": 0.68900804290773909, 
        "num_neighbours": 3
    }, 
    "2111": {
        "area": 1508, 
        "av_neighbour_normed_area": 1.1552733680682523, 
        "centroid_x": 420.4628647214854, 
        "centroid_y": 279.58819628647217, 
        "neighbours": [
            2059, 
            1996, 
            2229, 
            2778, 
            2525
        ], 
        "norm_area": 0.66157760815381683, 
        "num_neighbours": 5
    }, 
    "2125": {
        "area": 1957, 
        "av_neighbour_normed_area": 1.0600621517185023, 
        "centroid_x": 349.10884006131835, 
        "centroid_y": 281.9161982626469, 
        "neighbours": [
            2525, 
            2012, 
            2046, 
            2325
        ], 
        "norm_area": 0.66327741062002965, 
        "num_neighbours": 4
    }, 
    "2137": {
        "area": 2622, 
        "av_neighbour_normed_area": 1.0366675343057776, 
        "centroid_x": 70.114797864225778, 
        "centroid_y": 312.83066361556064, 
        "neighbours": [
            0, 
            1601, 
            2146, 
            2537, 
            2105, 
            1790
        ], 
        "norm_area": 0.85284933646759964, 
        "num_neighbours": 5
    }, 
    "2146": {
        "area": 3997, 
        "av_neighbour_normed_area": 0.90537975762034339, 
        "centroid_x": 122.1923942957218, 
        "centroid_y": 303.19039279459594, 
        "neighbours": [
            2247, 
            2537, 
            1835, 
            2082, 
            1590, 
            2137, 
            1790
        ], 
        "norm_area": 1.5360417238661608, 
        "num_neighbours": 7
    }, 
    "2229": {
        "area": 998, 
        "av_neighbour_normed_area": 0.96325306324987214, 
        "centroid_x": 450.39178356713427, 
        "centroid_y": 279.59418837675349, 
        "neighbours": [
            0, 
            2, 
            2059, 
            2778, 
            2111
        ], 
        "norm_area": 0.53663126765484204, 
        "num_neighbours": 4
    }, 
    "2247": {
        "area": 1532, 
        "av_neighbour_normed_area": 1.1690804736134288, 
        "centroid_x": 184.63054830287206, 
        "centroid_y": 276.53524804177545, 
        "neighbours": [
            2146, 
            2405, 
            2344, 
            2537, 
            2082
        ], 
        "norm_area": 0.41289348858348646, 
        "num_neighbours": 5
    }, 
    "2297": {
        "area": 2746, 
        "av_neighbour_normed_area": 1.147851802231884, 
        "centroid_x": 298.77166788055354, 
        "centroid_y": 235.84705025491624, 
        "neighbours": [
            2405, 
            2470, 
            2801, 
            2548, 
            2046
        ], 
        "norm_area": 0.79774562780777236, 
        "num_neighbours": 5
    }, 
    "2325": {
        "area": 2001, 
        "av_neighbour_normed_area": 1.1318937869547634, 
        "centroid_x": 369.82358820589707, 
        "centroid_y": 234.24687656171915, 
        "neighbours": [
            2470, 
            2125, 
            2831, 
            2525, 
            2046
        ], 
        "norm_area": 0.67251461989438599, 
        "num_neighbours": 5
    }, 
    "2344": {
        "area": 4077, 
        "av_neighbour_normed_area": 0.98330434812407719, 
        "centroid_x": 196.77900416973264, 
        "centroid_y": 216.9737552121658, 
        "neighbours": [
            2496, 
            2405, 
            2247, 
            2537, 
            2765, 
            2548
        ], 
        "norm_area": 1.118825466532172, 
        "num_neighbours": 6
    }, 
    "2405": {
        "area": 4099, 
        "av_neighbour_normed_area": 0.97949481147578854, 
        "centroid_x": 233.13564283971701, 
        "centroid_y": 268.73993656989512, 
        "neighbours": [
            2082, 
            2247, 
            2344, 
            1933, 
            2548, 
            2297, 
            2046
        ], 
        "norm_area": 1.2807088020114725, 
        "num_neighbours": 7
    }, 
    "2435": {
        "area": 1158, 
        "av_neighbour_normed_area": 1.1769853850972194, 
        "centroid_x": 478.2642487046632, 
        "centroid_y": 221.97754749568222, 
        "neighbours": [
            0, 
            2, 
            2610, 
            2778
        ], 
        "norm_area": 0.46882591094273685, 
        "num_neighbours": 3
    }, 
    "2470": {
        "area": 2221, 
        "av_neighbour_normed_area": 0.95967510161368286, 
        "centroid_x": 345.81809995497525, 
        "centroid_y": 199.05628095452499, 
        "neighbours": [
            2831, 
            2801, 
            2325, 
            2297, 
            2841, 
            2046
        ], 
        "norm_area": 0.84299089069966415, 
        "num_neighbours": 6
    }, 
    "2496": {
        "area": 2851, 
        "av_neighbour_normed_area": 1.3825511934783041, 
        "centroid_x": 156.81725710277095, 
        "centroid_y": 191.27814801823922, 
        "neighbours": [
            2920, 
            2537, 
            2765, 
            2344
        ], 
        "norm_area": 0.57844281005456044, 
        "num_neighbours": 4
    }, 
    "2525": {
        "area": 2894, 
        "av_neighbour_normed_area": 1.0853741497350813, 
        "centroid_x": 402.35556323427784, 
        "centroid_y": 249.01416724257084, 
        "neighbours": [
            1996, 
            2125, 
            2831, 
            2325, 
            2778, 
            2012, 
            2111
        ], 
        "norm_area": 1.1455553042414488, 
        "num_neighbours": 7
    }, 
    "2537": {
        "area": 4016, 
        "av_neighbour_normed_area": 1.0383936362427653, 
        "centroid_x": 119.14467131474103, 
        "centroid_y": 247.15214143426294, 
        "neighbours": [
            2496, 
            2146, 
            2247, 
            2920, 
            2344, 
            2137, 
            2105
        ], 
        "norm_area": 1.1265980042595958, 
        "num_neighbours": 7
    }, 
    "2548": {
        "area": 4534, 
        "av_neighbour_normed_area": 1.0294558073918003, 
        "centroid_x": 260.24283193647994, 
        "centroid_y": 199.7611380679312, 
        "neighbours": [
            2405, 
            2344, 
            2765, 
            2801, 
            2297, 
            2975
        ], 
        "norm_area": 1.2970962666406842, 
        "num_neighbours": 6
    }, 
    "2610": {
        "area": 2512, 
        "av_neighbour_normed_area": 1.2396988393129877, 
        "centroid_x": 459.93630573248407, 
        "centroid_y": 163.98964968152868, 
        "neighbours": [
            0, 
            2435, 
            2778
        ], 
        "norm_area": 1.0015948963467465, 
        "num_neighbours": 2
    }, 
    "2765": {
        "area": 4832, 
        "av_neighbour_normed_area": 1.1428254783447536, 
        "centroid_x": 215.71316225165563, 
        "centroid_y": 143.12727649006624, 
        "neighbours": [
            2496, 
            2920, 
            3021, 
            2344, 
            2548, 
            2975
        ], 
        "norm_area": 1.2040867181779675, 
        "num_neighbours": 6
    }, 
    "2778": {
        "area": 3858, 
        "av_neighbour_normed_area": 0.81568272347439708, 
        "centroid_x": 439.1765163297045, 
        "centroid_y": 203.22032141005701, 
        "neighbours": [
            0, 
            2, 
            2435, 
            2831, 
            2610, 
            2229, 
            2525, 
            2111
        ], 
        "norm_area": 2.0105717689229379, 
        "num_neighbours": 7
    }, 
    "2801": {
        "area": 1874, 
        "av_neighbour_normed_area": 0.94084966067007625, 
        "centroid_x": 319.34044823906083, 
        "centroid_y": 177.76627534685164, 
        "neighbours": [
            2470, 
            2548, 
            2869, 
            2297, 
            2841, 
            2975
        ], 
        "norm_area": 0.68762230920879774, 
        "num_neighbours": 6
    }, 
    "2831": {
        "area": 3322, 
        "av_neighbour_normed_area": 1.0609765041983388, 
        "centroid_x": 391.69024683925346, 
        "centroid_y": 179.72275737507525, 
        "neighbours": [
            0, 
            2470, 
            3051, 
            2325, 
            2841, 
            2778, 
            2525
        ], 
        "norm_area": 1.376804586597913, 
        "num_neighbours": 6
    }, 
    "2841": {
        "area": 1382, 
        "av_neighbour_normed_area": 1.007223607878067, 
        "centroid_x": 363.89146164978291, 
        "centroid_y": 141.616497829233, 
        "neighbours": [
            2470, 
            3051, 
            2831, 
            2801, 
            2869
        ], 
        "norm_area": 0.59252272338624934, 
        "num_neighbours": 5
    }, 
    "2869": {
        "area": 2124, 
        "av_neighbour_normed_area": 0.87417824140758493, 
        "centroid_x": 340.50800376647834, 
        "centroid_y": 118.56026365348399, 
        "neighbours": [
            3051, 
            3056, 
            2801, 
            2841, 
            3039, 
            2975
        ], 
        "norm_area": 1.0269965347848602, 
        "num_neighbours": 6
    }, 
    "2920": {
        "area": 6790, 
        "av_neighbour_normed_area": 0.79865097888775705, 
        "centroid_x": 159.42179675994109, 
        "centroid_y": 137.41899852724595, 
        "neighbours": [
            2496, 
            0, 
            2537, 
            3021, 
            2765, 
            3057, 
            2105
        ], 
        "norm_area": 2.080694586326032, 
        "num_neighbours": 6
    }, 
    "2975": {
        "area": 3345, 
        "av_neighbour_normed_area": 1.0301259816137807, 
        "centroid_x": 283.05680119581467, 
        "centroid_y": 138.97040358744394, 
        "neighbours": [
            2765, 
            3021, 
            3056, 
            2801, 
            2548, 
            2869
        ], 
        "norm_area": 1.0877459216420768, 
        "num_neighbours": 6
    }, 
    "3021": {
        "area": 2481, 
        "av_neighbour_normed_area": 1.1381704941691229, 
        "centroid_x": 264.5659008464329, 
        "centroid_y": 74.223700120918991, 
        "neighbours": [
            0, 
            2920, 
            2765, 
            3056, 
            3057, 
            3092, 
            2975
        ], 
        "norm_area": 0.69414782001581998, 
        "num_neighbours": 6
    }, 
    "3039": {
        "area": 1081, 
        "av_neighbour_normed_area": 1.083037949042938, 
        "centroid_x": 351.71137835337652, 
        "centroid_y": 75.238667900092508, 
        "neighbours": [
            3056, 
            3051, 
            2869, 
            3086
        ], 
        "norm_area": 0.50466853409156043, 
        "num_neighbours": 4
    }, 
    "3051": {
        "area": 2121, 
        "av_neighbour_normed_area": 0.8867275358905562, 
        "centroid_x": 386.43140028288542, 
        "centroid_y": 93.24516737388025, 
        "neighbours": [
            0, 
            3086, 
            2831, 
            2869, 
            2841, 
            3039
        ], 
        "norm_area": 1.1017037191063235, 
        "num_neighbours": 5
    }, 
    "3056": {
        "area": 2606, 
        "av_neighbour_normed_area": 0.82204518843397301, 
        "centroid_x": 310.27321565617802, 
        "centroid_y": 89.726400613967769, 
        "neighbours": [
            3021, 
            3086, 
            3092, 
            2869, 
            2975, 
            3039
        ], 
        "norm_area": 1.2708062418846797, 
        "num_neighbours": 6
    }, 
    "3057": {
        "area": 2316, 
        "av_neighbour_normed_area": 1.3874212024772155, 
        "centroid_x": 203.77029360967185, 
        "centroid_y": 66.166666666666671, 
        "neighbours": [
            0, 
            3021, 
            2920
        ], 
        "norm_area": 0.49962247870951032, 
        "num_neighbours": 2
    }, 
    "3086": {
        "area": 1717, 
        "av_neighbour_normed_area": 0.89081137840109803, 
        "centroid_x": 352.39662201514267, 
        "centroid_y": 47.811881188118811, 
        "neighbours": [
            0, 
            3051, 
            3056, 
            3092, 
            3039
        ], 
        "norm_area": 0.93264530147892588, 
        "num_neighbours": 4
    }, 
    "3092": {
        "area": 1556, 
        "av_neighbour_normed_area": 0.9658664541378531, 
        "centroid_x": 294.26349614395889, 
        "centroid_y": 41.220437017994861, 
        "neighbours": [
            0, 
            3056, 
            3021, 
            3086
        ], 
        "norm_area": 0.6860670194126397, 
        "num_neighbours": 3
    }
}