{
    "0": {
        "area": 338396, 
        "av_neighbour_normed_area": 0.91544164311720011, 
        "centroid_x": 293.56208406718753, 
        "centroid_y": 604.80023995555507, 
        "neighbours": [
            769, 
            1282, 
            2179, 
            3460, 
            2276, 
            2055, 
            665, 
            907, 
            1026, 
            1934, 
            2962, 
            4243, 
            5396, 
            1813, 
            5271, 
            4612, 
            3611, 
            1180, 
            3229, 
            4639, 
            4001, 
            1570, 
            1307, 
            1301, 
            5157, 
            2472, 
            5033, 
            5035, 
            4141, 
            1967, 
            1328, 
            2737, 
            4018, 
            1971, 
            185, 
            2244, 
            5366, 
            3142, 
            3271, 
            73, 
            258, 
            1868, 
            1314, 
            909, 
            2261, 
            472, 
            5337, 
            346, 
            985, 
            1758, 
            607, 
            1825, 
            99, 
            5348, 
            3044, 
            3944, 
            764, 
            1260, 
            1005, 
            613, 
            1010, 
            884, 
            4854, 
            1556, 
            1660, 
            582, 
            5119
        ], 
        "norm_area": 157.73951883343415, 
        "num_neighbours": 67
    }, 
    "73": {
        "area": 2134, 
        "av_neighbour_normed_area": 1.2415915772180555, 
        "centroid_x": 314.55295220243676, 
        "centroid_y": 971.78444236176199, 
        "neighbours": [
            0, 
            99, 
            185
        ], 
        "norm_area": 0.6061638971867277, 
        "num_neighbours": 2
    }, 
    "99": {
        "area": 3933, 
        "av_neighbour_normed_area": 0.97419080011029024, 
        "centroid_x": 312.39588100686501, 
        "centroid_y": 893.88278667683699, 
        "neighbours": [
            0, 
            73, 
            395, 
            472, 
            185, 
            346
        ], 
        "norm_area": 1.4041413780920657, 
        "num_neighbours": 5
    }, 
    "185": {
        "area": 3108, 
        "av_neighbour_normed_area": 0.93542839128428079, 
        "centroid_x": 349.87773487773489, 
        "centroid_y": 935.18597168597171, 
        "neighbours": [
            0, 
            472, 
            99, 
            73
        ], 
        "norm_area": 1.0790417775856369, 
        "num_neighbours": 3
    }, 
    "258": {
        "area": 1922, 
        "av_neighbour_normed_area": 0.8178769587944632, 
        "centroid_x": 238.63267429760666, 
        "centroid_y": 853.82049947970859, 
        "neighbours": [
            0, 
            346, 
            485, 
            582
        ], 
        "norm_area": 0.97662601627341805, 
        "num_neighbours": 3
    }, 
    "346": {
        "area": 2143, 
        "av_neighbour_normed_area": 1.2190085269661555, 
        "centroid_x": 274.02053196453568, 
        "centroid_y": 875.69622025198316, 
        "neighbours": [
            0, 
            258, 
            99, 
            485, 
            395
        ], 
        "norm_area": 0.7192481960178394, 
        "num_neighbours": 4
    }, 
    "395": {
        "area": 4046, 
        "av_neighbour_normed_area": 0.88130565748717782, 
        "centroid_x": 312.95402867029162, 
        "centroid_y": 797.78546712802768, 
        "neighbours": [
            99, 
            485, 
            1010, 
            1011, 
            884, 
            472, 
            665, 
            346
        ], 
        "norm_area": 1.6705202312259608, 
        "num_neighbours": 8
    }, 
    "472": {
        "area": 2574, 
        "av_neighbour_normed_area": 1.2006876780205364, 
        "centroid_x": 349.60800310800312, 
        "centroid_y": 854.72222222222217, 
        "neighbours": [
            0, 
            99, 
            395, 
            185, 
            665
        ], 
        "norm_area": 0.79597989950947745, 
        "num_neighbours": 4
    }, 
    "485": {
        "area": 2017, 
        "av_neighbour_normed_area": 1.0470605999902924, 
        "centroid_x": 271.02925136341099, 
        "centroid_y": 820.8284581060982, 
        "neighbours": [
            258, 
            582, 
            395, 
            884, 
            346
        ], 
        "norm_area": 0.82474648349218604, 
        "num_neighbours": 5
    }, 
    "582": {
        "area": 1744, 
        "av_neighbour_normed_area": 0.9060721136312303, 
        "centroid_x": 236.84059633027522, 
        "centroid_y": 795.85722477064223, 
        "neighbours": [
            0, 
            769, 
            258, 
            485, 
            884
        ], 
        "norm_area": 0.90963619769124127, 
        "num_neighbours": 4
    }, 
    "607": {
        "area": 2369, 
        "av_neighbour_normed_area": 0.93126356576272618, 
        "centroid_x": 394.67243562684678, 
        "centroid_y": 772.06880540312363, 
        "neighbours": [
            0, 
            665, 
            907, 
            1011
        ], 
        "norm_area": 0.9637917005827813, 
        "num_neighbours": 3
    }, 
    "613": {
        "area": 1419, 
        "av_neighbour_normed_area": 0.99318267229512369, 
        "centroid_x": 179.23185341789994, 
        "centroid_y": 789.68357998590557, 
        "neighbours": [
            0, 
            769, 
            764
        ], 
        "norm_area": 1.0346336128478382, 
        "num_neighbours": 2
    }, 
    "665": {
        "area": 1848, 
        "av_neighbour_normed_area": 1.0837320227706959, 
        "centroid_x": 355.23160173160176, 
        "centroid_y": 792.81872294372295, 
        "neighbours": [
            0, 
            395, 
            1011, 
            472, 
            607
        ], 
        "norm_area": 0.64904732637917029, 
        "num_neighbours": 4
    }, 
    "764": {
        "area": 1386, 
        "av_neighbour_normed_area": 0.90911996623402991, 
        "centroid_x": 171.43290043290042, 
        "centroid_y": 741.06349206349205, 
        "neighbours": [
            0, 
            769, 
            613, 
            1005, 
            909, 
            1042, 
            985
        ], 
        "norm_area": 1.1227217497081046, 
        "num_neighbours": 6
    }, 
    "769": {
        "area": 1357, 
        "av_neighbour_normed_area": 1.0883723154635148, 
        "centroid_x": 205.13190862196021, 
        "centroid_y": 772.03831982313932, 
        "neighbours": [
            0, 
            613, 
            582, 
            985, 
            764
        ], 
        "norm_area": 0.86364359587532535, 
        "num_neighbours": 4
    }, 
    "884": {
        "area": 2373, 
        "av_neighbour_normed_area": 1.0495690670023619, 
        "centroid_x": 273.93341761483356, 
        "centroid_y": 761.28908554572274, 
        "neighbours": [
            0, 
            485, 
            582, 
            395, 
            1010
        ], 
        "norm_area": 0.95927235979006376, 
        "num_neighbours": 4
    }, 
    "907": {
        "area": 3126, 
        "av_neighbour_normed_area": 0.95935859464355178, 
        "centroid_x": 401.58477287268073, 
        "centroid_y": 708.28694817658345, 
        "neighbours": [
            0, 
            1057, 
            1282, 
            1011, 
            607
        ], 
        "norm_area": 1.2401071109919757, 
        "num_neighbours": 4
    }, 
    "909": {
        "area": 844, 
        "av_neighbour_normed_area": 0.94903400457908704, 
        "centroid_x": 138.60071090047393, 
        "centroid_y": 725.21445497630327, 
        "neighbours": [
            0, 
            764, 
            1005
        ], 
        "norm_area": 0.72789995689160414, 
        "num_neighbours": 2
    }, 
    "985": {
        "area": 1736, 
        "av_neighbour_normed_area": 0.90394907509511968, 
        "centroid_x": 206.06278801843317, 
        "centroid_y": 728.95334101382491, 
        "neighbours": [
            0, 
            769, 
            1026, 
            1263, 
            1042, 
            764
        ], 
        "norm_area": 1.2864977026952469, 
        "num_neighbours": 5
    }, 
    "1005": {
        "area": 933, 
        "av_neighbour_normed_area": 0.94014141463487255, 
        "centroid_x": 143.79421221864951, 
        "centroid_y": 702.57449088960345, 
        "neighbours": [
            0, 
            764, 
            1195, 
            909, 
            1042, 
            1307, 
            1180
        ], 
        "norm_area": 0.77534626039910381, 
        "num_neighbours": 6
    }, 
    "1010": {
        "area": 2088, 
        "av_neighbour_normed_area": 1.0510134588222679, 
        "centroid_x": 317.75909961685824, 
        "centroid_y": 727.40613026819926, 
        "neighbours": [
            0, 
            1057, 
            395, 
            1260, 
            1011, 
            884
        ], 
        "norm_area": 0.79337335664962916, 
        "num_neighbours": 5
    }, 
    "1011": {
        "area": 2400, 
        "av_neighbour_normed_area": 1.0462370224082065, 
        "centroid_x": 357.55124999999998, 
        "centroid_y": 739.35333333333335, 
        "neighbours": [
            1057, 
            395, 
            907, 
            1010, 
            665, 
            607
        ], 
        "norm_area": 0.90463626084829618, 
        "num_neighbours": 6
    }, 
    "1026": {
        "area": 1178, 
        "av_neighbour_normed_area": 1.1802561863140535, 
        "centroid_x": 239.01697792869271, 
        "centroid_y": 698.29032258064512, 
        "neighbours": [
            0, 
            985, 
            1314, 
            1263
        ], 
        "norm_area": 0.63276633841855512, 
        "num_neighbours": 3
    }, 
    "1042": {
        "area": 1118, 
        "av_neighbour_normed_area": 1.0924101296856448, 
        "centroid_x": 178.47227191413239, 
        "centroid_y": 700.37477638640428, 
        "neighbours": [
            1180, 
            1005, 
            1263, 
            985, 
            764
        ], 
        "norm_area": 0.76669866960418187, 
        "num_neighbours": 5
    }, 
    "1057": {
        "area": 2441, 
        "av_neighbour_normed_area": 0.95714485813185779, 
        "centroid_x": 360.06513723883654, 
        "centroid_y": 678.39778779188862, 
        "neighbours": [
            1282, 
            907, 
            1260, 
            1616, 
            1010, 
            1011
        ], 
        "norm_area": 0.9605824096659592, 
        "num_neighbours": 6
    }, 
    "1180": {
        "area": 1528, 
        "av_neighbour_normed_area": 0.92380487322682792, 
        "centroid_x": 174.16492146596858, 
        "centroid_y": 668.61191099476434, 
        "neighbours": [
            0, 
            1195, 
            1005, 
            1263, 
            1042, 
            1301, 
            1660
        ], 
        "norm_area": 1.1435699139447986, 
        "num_neighbours": 6
    }, 
    "1195": {
        "area": 1210, 
        "av_neighbour_normed_area": 0.99508756368412765, 
        "centroid_x": 142.70330578512397, 
        "centroid_y": 658.03719008264466, 
        "neighbours": [
            1180, 
            1005, 
            1556, 
            1307, 
            1660
        ], 
        "norm_area": 0.91210613599855717, 
        "num_neighbours": 5
    }, 
    "1260": {
        "area": 1899, 
        "av_neighbour_normed_area": 0.95810294184703582, 
        "centroid_x": 316.3117430226435, 
        "centroid_y": 683.18694049499732, 
        "neighbours": [
            0, 
            1616, 
            1057, 
            1328, 
            1010
        ], 
        "norm_area": 0.7600560336320723, 
        "num_neighbours": 4
    }, 
    "1263": {
        "area": 1708, 
        "av_neighbour_normed_area": 0.94176141826103765, 
        "centroid_x": 219.33548009367681, 
        "centroid_y": 677.67213114754099, 
        "neighbours": [
            1570, 
            1314, 
            1026, 
            1042, 
            1301, 
            985, 
            1180
        ], 
        "norm_area": 1.1339150227733803, 
        "num_neighbours": 7
    }, 
    "1282": {
        "area": 2873, 
        "av_neighbour_normed_area": 1.0795895237368291, 
        "centroid_x": 403.85659589279499, 
        "centroid_y": 641.13574660633481, 
        "neighbours": [
            0, 
            1057, 
            907, 
            1967, 
            1616
        ], 
        "norm_area": 1.0084240084365295, 
        "num_neighbours": 4
    }, 
    "1301": {
        "area": 1382, 
        "av_neighbour_normed_area": 1.0124117752442958, 
        "centroid_x": 202.54558610709117, 
        "centroid_y": 633.17872648335742, 
        "neighbours": [
            0, 
            1570, 
            1180, 
            1263
        ], 
        "norm_area": 0.8826910794253332, 
        "num_neighbours": 3
    }, 
    "1307": {
        "area": 1134, 
        "av_neighbour_normed_area": 0.9013499686272628, 
        "centroid_x": 121.02821869488537, 
        "centroid_y": 662.05643738977074, 
        "neighbours": [
            0, 
            1556, 
            1195, 
            1005
        ], 
        "norm_area": 0.96785206260213086, 
        "num_neighbours": 3
    }, 
    "1314": {
        "area": 2141, 
        "av_neighbour_normed_area": 0.96617096604137298, 
        "centroid_x": 260.13171415226532, 
        "centroid_y": 642.11489957963568, 
        "neighbours": [
            0, 
            1571, 
            1026, 
            1570, 
            1263, 
            1328
        ], 
        "norm_area": 1.1203558346537896, 
        "num_neighbours": 5
    }, 
    "1328": {
        "area": 2604, 
        "av_neighbour_normed_area": 1.0570033680871909, 
        "centroid_x": 306.43855606758831, 
        "centroid_y": 637.21543778801845, 
        "neighbours": [
            0, 
            1616, 
            1314, 
            1571, 
            1260, 
            1979
        ], 
        "norm_area": 1.0421836228408685, 
        "num_neighbours": 5
    }, 
    "1556": {
        "area": 1372, 
        "av_neighbour_normed_area": 0.92679674016856051, 
        "centroid_x": 126.60276967930029, 
        "centroid_y": 618.81632653061229, 
        "neighbours": [
            0, 
            1195, 
            1647, 
            1813, 
            1307, 
            1660
        ], 
        "norm_area": 1.0165975103854772, 
        "num_neighbours": 5
    }, 
    "1570": {
        "area": 1461, 
        "av_neighbour_normed_area": 1.0745353838582528, 
        "centroid_x": 220.59479808350446, 
        "centroid_y": 621.02874743326493, 
        "neighbours": [
            0, 
            1825, 
            1571, 
            1314, 
            1263, 
            1301
        ], 
        "norm_area": 0.75975039002712008, 
        "num_neighbours": 5
    }, 
    "1571": {
        "area": 2604, 
        "av_neighbour_normed_area": 0.92082287429728538, 
        "centroid_x": 262.20852534562209, 
        "centroid_y": 589.53609831029189, 
        "neighbours": [
            1825, 
            1570, 
            2052, 
            1314, 
            2158, 
            1328, 
            1979
        ], 
        "norm_area": 1.2622394571131119, 
        "num_neighbours": 7
    }, 
    "1616": {
        "area": 2861, 
        "av_neighbour_normed_area": 1.0315788349066539, 
        "centroid_x": 356.65466620062915, 
        "centroid_y": 621.82034253757422, 
        "neighbours": [
            2016, 
            1328, 
            1282, 
            1057, 
            1260, 
            1967, 
            1979
        ], 
        "norm_area": 1.0362723791897894, 
        "num_neighbours": 7
    }, 
    "1647": {
        "area": 1379, 
        "av_neighbour_normed_area": 1.1097951870860951, 
        "centroid_x": 129.24002900652647, 
        "centroid_y": 589.1957940536621, 
        "neighbours": [
            1953, 
            2244, 
            1556, 
            1813, 
            1660
        ], 
        "norm_area": 0.77971276717202531, 
        "num_neighbours": 5
    }, 
    "1660": {
        "area": 1666, 
        "av_neighbour_normed_area": 1.0058917934864735, 
        "centroid_x": 163.19687875150061, 
        "centroid_y": 615.26650660264102, 
        "neighbours": [
            0, 
            2244, 
            1180, 
            1195, 
            1647, 
            1556
        ], 
        "norm_area": 1.0720720720842163, 
        "num_neighbours": 5
    }, 
    "1758": {
        "area": 1112, 
        "av_neighbour_normed_area": 0.82053794190706897, 
        "centroid_x": 477.74730215827338, 
        "centroid_y": 565.50989208633098, 
        "neighbours": [
            0, 
            1868, 
            2055
        ], 
        "norm_area": 0.72751063135155059, 
        "num_neighbours": 2
    }, 
    "1813": {
        "area": 1359, 
        "av_neighbour_normed_area": 0.95922285585766698, 
        "centroid_x": 89.363502575423112, 
        "centroid_y": 587.06107431935243, 
        "neighbours": [
            0, 
            1953, 
            1934, 
            1647, 
            1556
        ], 
        "norm_area": 0.90224066391267044, 
        "num_neighbours": 4
    }, 
    "1825": {
        "area": 1780, 
        "av_neighbour_normed_area": 0.86933769254452997, 
        "centroid_x": 227.62584269662921, 
        "centroid_y": 575.81910112359549, 
        "neighbours": [
            0, 
            1570, 
            1571, 
            2158, 
            1971
        ], 
        "norm_area": 0.97347552640018331, 
        "num_neighbours": 4
    }, 
    "1868": {
        "area": 1852, 
        "av_neighbour_normed_area": 0.92726645205241187, 
        "centroid_x": 447.90766738660909, 
        "centroid_y": 558.9357451403888, 
        "neighbours": [
            0, 
            2055, 
            2122, 
            1966, 
            1967, 
            1758
        ], 
        "norm_area": 0.90553491102295913, 
        "num_neighbours": 5
    }, 
    "1934": {
        "area": 1109, 
        "av_neighbour_normed_area": 1.0341302361096485, 
        "centroid_x": 71.528403967538324, 
        "centroid_y": 543.19116321009915, 
        "neighbours": [
            0, 
            1953, 
            2179, 
            1813
        ], 
        "norm_area": 0.6599880976118826, 
        "num_neighbours": 3
    }, 
    "1953": {
        "area": 2165, 
        "av_neighbour_normed_area": 0.8645623995038878, 
        "centroid_x": 111.08360277136259, 
        "centroid_y": 549.80969976905317, 
        "neighbours": [
            2179, 
            2244, 
            1934, 
            1647, 
            1813, 
            2205
        ], 
        "norm_area": 1.3805930492205059, 
        "num_neighbours": 6
    }, 
    "1966": {
        "area": 2584, 
        "av_neighbour_normed_area": 1.1556102585317145, 
        "centroid_x": 405.12538699690401, 
        "centroid_y": 527.02476780185759, 
        "neighbours": [
            2016, 
            2598, 
            2122, 
            1868, 
            1967, 
            2335
        ], 
        "norm_area": 0.89742996065053249, 
        "num_neighbours": 6
    }, 
    "1967": {
        "area": 2968, 
        "av_neighbour_normed_area": 1.0219955391994333, 
        "centroid_x": 409.3598382749326, 
        "centroid_y": 581.45653638814019, 
        "neighbours": [
            2016, 
            0, 
            1282, 
            1868, 
            1966, 
            1616
        ], 
        "norm_area": 1.0813961961791818, 
        "num_neighbours": 5
    }, 
    "1971": {
        "area": 1667, 
        "av_neighbour_normed_area": 1.1499020039091117, 
        "centroid_x": 216.55008998200361, 
        "centroid_y": 531.43971205758851, 
        "neighbours": [
            0, 
            1825, 
            2158, 
            2318, 
            2261
        ], 
        "norm_area": 0.71714347172614001, 
        "num_neighbours": 4
    }, 
    "1979": {
        "area": 2988, 
        "av_neighbour_normed_area": 1.0617392107591921, 
        "centroid_x": 309.73360107095044, 
        "centroid_y": 580.63052208835336, 
        "neighbours": [
            2016, 
            1328, 
            1571, 
            2052, 
            1616
        ], 
        "norm_area": 1.1060931369041942, 
        "num_neighbours": 5
    }, 
    "2016": {
        "area": 3553, 
        "av_neighbour_normed_area": 1.0385616107121192, 
        "centroid_x": 355.64846608499857, 
        "centroid_y": 556.7511961722488, 
        "neighbours": [
            2052, 
            2598, 
            1966, 
            1967, 
            1616, 
            1979
        ], 
        "norm_area": 1.2623164377193516, 
        "num_neighbours": 6
    }, 
    "2052": {
        "area": 1885, 
        "av_neighbour_normed_area": 1.0725667070649771, 
        "centroid_x": 298.26790450928382, 
        "centroid_y": 536.59575596816978, 
        "neighbours": [
            2016, 
            1571, 
            2598, 
            2216, 
            2158, 
            1979
        ], 
        "norm_area": 0.70568415799457918, 
        "num_neighbours": 6
    }, 
    "2055": {
        "area": 1205, 
        "av_neighbour_normed_area": 0.90062632076798732, 
        "centroid_x": 484.31535269709542, 
        "centroid_y": 527.31037344398339, 
        "neighbours": [
            0, 
            2276, 
            2122, 
            1868, 
            1758
        ], 
        "norm_area": 0.73554097361171678, 
        "num_neighbours": 4
    }, 
    "2122": {
        "area": 2357, 
        "av_neighbour_normed_area": 0.88410066088458183, 
        "centroid_x": 452.06151887993212, 
        "centroid_y": 498.32414085702163, 
        "neighbours": [
            2276, 
            2055, 
            1868, 
            1966, 
            2737, 
            2962, 
            2335
        ], 
        "norm_area": 1.194454499396344, 
        "num_neighbours": 7
    }, 
    "2158": {
        "area": 1582, 
        "av_neighbour_normed_area": 0.98239369579891977, 
        "centroid_x": 251.42098609355247, 
        "centroid_y": 529.52465233881162, 
        "neighbours": [
            1825, 
            1571, 
            2052, 
            2216, 
            2318, 
            1971
        ], 
        "norm_area": 0.7382174521810857, 
        "num_neighbours": 6
    }, 
    "2179": {
        "area": 1517, 
        "av_neighbour_normed_area": 0.95825469628543958, 
        "centroid_x": 81.605800922874096, 
        "centroid_y": 508.35596572181936, 
        "neighbours": [
            0, 
            1953, 
            2472, 
            2345, 
            1934, 
            2205
        ], 
        "norm_area": 0.81955699622989953, 
        "num_neighbours": 5
    }, 
    "2205": {
        "area": 1764, 
        "av_neighbour_normed_area": 1.0886572940809491, 
        "centroid_x": 130.2624716553288, 
        "centroid_y": 509.74546485260771, 
        "neighbours": [
            1953, 
            2179, 
            2244, 
            2345, 
            2261
        ], 
        "norm_area": 0.84840323202400925, 
        "num_neighbours": 5
    }, 
    "2216": {
        "area": 1698, 
        "av_neighbour_normed_area": 1.0829837512235969, 
        "centroid_x": 295.62544169611306, 
        "centroid_y": 507.03474676089519, 
        "neighbours": [
            2052, 
            2598, 
            2158, 
            2643, 
            2318
        ], 
        "norm_area": 0.66203992515168597, 
        "num_neighbours": 5
    }, 
    "2244": {
        "area": 2281, 
        "av_neighbour_normed_area": 1.0789833040473282, 
        "centroid_x": 155.85444980271811, 
        "centroid_y": 540.07628233231037, 
        "neighbours": [
            0, 
            1953, 
            1647, 
            2261, 
            1660, 
            2205
        ], 
        "norm_area": 1.1774726409374014, 
        "num_neighbours": 5
    }, 
    "2261": {
        "area": 2712, 
        "av_neighbour_normed_area": 0.96348596524185093, 
        "centroid_x": 179.39269911504425, 
        "centroid_y": 484.86172566371681, 
        "neighbours": [
            0, 
            2627, 
            2244, 
            2345, 
            2318, 
            1971, 
            2875, 
            2205
        ], 
        "norm_area": 1.3141354008148678, 
        "num_neighbours": 7
    }, 
    "2276": {
        "area": 1232, 
        "av_neighbour_normed_area": 0.83257610126534398, 
        "centroid_x": 487.28814935064935, 
        "centroid_y": 491.27110389610391, 
        "neighbours": [
            0, 
            2737, 
            2122, 
            2055
        ], 
        "norm_area": 0.77500524220172151, 
        "num_neighbours": 3
    }, 
    "2318": {
        "area": 3224, 
        "av_neighbour_normed_area": 0.89765959655776328, 
        "centroid_x": 237.72952853598014, 
        "centroid_y": 477.57165012406949, 
        "neighbours": [
            2627, 
            2727, 
            2216, 
            2158, 
            2643, 
            2261, 
            1971
        ], 
        "norm_area": 1.573779637390212, 
        "num_neighbours": 7
    }, 
    "2335": {
        "area": 2944, 
        "av_neighbour_normed_area": 1.0886597052166382, 
        "centroid_x": 408.83389945652175, 
        "centroid_y": 475.50203804347825, 
        "neighbours": [
            2598, 
            2122, 
            1966, 
            2962, 
            2740
        ], 
        "norm_area": 1.0854656736350601, 
        "num_neighbours": 5
    }, 
    "2345": {
        "area": 1721, 
        "av_neighbour_normed_area": 1.0553499634555612, 
        "centroid_x": 119.66589192330041, 
        "centroid_y": 476.01162115049391, 
        "neighbours": [
            2179, 
            2472, 
            2205, 
            2261, 
            2875, 
            3197
        ], 
        "norm_area": 0.75152838429072855, 
        "num_neighbours": 6
    }, 
    "2472": {
        "area": 2496, 
        "av_neighbour_normed_area": 0.89310443981839283, 
        "centroid_x": 78.737580128205124, 
        "centroid_y": 461.58133012820514, 
        "neighbours": [
            0, 
            2179, 
            3142, 
            2345, 
            3197
        ], 
        "norm_area": 1.1507607192383265, 
        "num_neighbours": 4
    }, 
    "2598": {
        "area": 3602, 
        "av_neighbour_normed_area": 0.95339371639071768, 
        "centroid_x": 354.23320377568018, 
        "centroid_y": 487.67851193781235, 
        "neighbours": [
            2016, 
            2052, 
            2216, 
            1966, 
            2643, 
            2740, 
            3061, 
            2335
        ], 
        "norm_area": 1.4044938343930002, 
        "num_neighbours": 8
    }, 
    "2627": {
        "area": 1979, 
        "av_neighbour_normed_area": 1.1474354488820062, 
        "centroid_x": 196.18191005558361, 
        "centroid_y": 444.36179888832743, 
        "neighbours": [
            2727, 
            2318, 
            3156, 
            2261, 
            2875
        ], 
        "norm_area": 0.83714043994399234, 
        "num_neighbours": 5
    }, 
    "2643": {
        "area": 2531, 
        "av_neighbour_normed_area": 1.0980111665413226, 
        "centroid_x": 293.73014618727774, 
        "centroid_y": 471.28763334650336, 
        "neighbours": [
            2598, 
            2727, 
            2216, 
            2764, 
            2318, 
            3061
        ], 
        "norm_area": 0.99274367524209195, 
        "num_neighbours": 6
    }, 
    "2727": {
        "area": 2171, 
        "av_neighbour_normed_area": 0.97550612877622345, 
        "centroid_x": 244.82542607093507, 
        "centroid_y": 426.16259788116076, 
        "neighbours": [
            2627, 
            2986, 
            2764, 
            2318, 
            3121, 
            2643, 
            3156
        ], 
        "norm_area": 1.0221968117421392, 
        "num_neighbours": 7
    }, 
    "2737": {
        "area": 1207, 
        "av_neighbour_normed_area": 1.0638182582892948, 
        "centroid_x": 486.52609776304888, 
        "centroid_y": 457.7158243579122, 
        "neighbours": [
            0, 
            2962, 
            2276, 
            2122
        ], 
        "norm_area": 0.56773283162054722, 
        "num_neighbours": 3
    }, 
    "2740": {
        "area": 2229, 
        "av_neighbour_normed_area": 1.2412398651459844, 
        "centroid_x": 396.44549125168237, 
        "centroid_y": 433.04127411395245, 
        "neighbours": [
            2977, 
            2598, 
            2962, 
            3061, 
            2335
        ], 
        "norm_area": 0.7249251983983368, 
        "num_neighbours": 5
    }, 
    "2764": {
        "area": 1509, 
        "av_neighbour_normed_area": 1.1101102689502695, 
        "centroid_x": 293.26043737574554, 
        "centroid_y": 432.27302849569253, 
        "neighbours": [
            2727, 
            3049, 
            2986, 
            2643, 
            3061
        ], 
        "norm_area": 0.62901208838141232, 
        "num_neighbours": 5
    }, 
    "2875": {
        "area": 1810, 
        "av_neighbour_normed_area": 0.94612824180911115, 
        "centroid_x": 152.49834254143647, 
        "centroid_y": 436.57237569060771, 
        "neighbours": [
            2627, 
            3012, 
            2345, 
            3156, 
            2261, 
            3197
        ], 
        "norm_area": 0.83893395134395898, 
        "num_neighbours": 6
    }, 
    "2962": {
        "area": 2789, 
        "av_neighbour_normed_area": 0.95729183834376608, 
        "centroid_x": 461.41125851559701, 
        "centroid_y": 432.65328074578701, 
        "neighbours": [
            0, 
            2977, 
            3044, 
            2122, 
            2737, 
            2740, 
            2335
        ], 
        "norm_area": 1.2219950343336372, 
        "num_neighbours": 6
    }, 
    "2977": {
        "area": 2946, 
        "av_neighbour_normed_area": 1.0185042099856758, 
        "centroid_x": 407.40393754243041, 
        "centroid_y": 391.00407331975561, 
        "neighbours": [
            3044, 
            2962, 
            2740, 
            3061, 
            3396, 
            3165, 
            3285
        ], 
        "norm_area": 1.1977000813219676, 
        "num_neighbours": 7
    }, 
    "2986": {
        "area": 2206, 
        "av_neighbour_normed_area": 0.87954753175688294, 
        "centroid_x": 264.60380779691752, 
        "centroid_y": 381.00407978241162, 
        "neighbours": [
            2727, 
            3049, 
            2764, 
            3632, 
            3121, 
            3306
        ], 
        "norm_area": 1.1606453875952385, 
        "num_neighbours": 6
    }, 
    "3012": {
        "area": 1189, 
        "av_neighbour_normed_area": 1.1170464725279663, 
        "centroid_x": 155.48444070647602, 
        "centroid_y": 397.23801513877208, 
        "neighbours": [
            3312, 
            3156, 
            2875, 
            3197, 
            3326
        ], 
        "norm_area": 0.42552430034726219, 
        "num_neighbours": 5
    }, 
    "3044": {
        "area": 2011, 
        "av_neighbour_normed_area": 0.97845386183355687, 
        "centroid_x": 466.50472401790154, 
        "centroid_y": 394.2362008950771, 
        "neighbours": [
            0, 
            2977, 
            3460, 
            2962, 
            3285, 
            3229
        ], 
        "norm_area": 0.97347274664763295, 
        "num_neighbours": 5
    }, 
    "3049": {
        "area": 1994, 
        "av_neighbour_normed_area": 0.8049358535836848, 
        "centroid_x": 308.14944834503513, 
        "centroid_y": 389.10882647943833, 
        "neighbours": [
            3306, 
            2764, 
            2986, 
            3344, 
            3061, 
            3165
        ], 
        "norm_area": 1.0784207679944906, 
        "num_neighbours": 6
    }, 
    "3061": {
        "area": 3093, 
        "av_neighbour_normed_area": 0.9602201300651535, 
        "centroid_x": 342.73294536049144, 
        "centroid_y": 426.38344649207886, 
        "neighbours": [
            2977, 
            2598, 
            3049, 
            2764, 
            2643, 
            2740, 
            3165
        ], 
        "norm_area": 1.2965447032874975, 
        "num_neighbours": 7
    }, 
    "3121": {
        "area": 1515, 
        "av_neighbour_normed_area": 1.1480967481737103, 
        "centroid_x": 231.22508250825084, 
        "centroid_y": 383.55049504950495, 
        "neighbours": [
            3632, 
            2986, 
            3156, 
            2727
        ], 
        "norm_area": 0.64709022958983442, 
        "num_neighbours": 4
    }, 
    "3142": {
        "area": 1997, 
        "av_neighbour_normed_area": 1.1327279210939962, 
        "centroid_x": 68.678517776665004, 
        "centroid_y": 408.68552829243868, 
        "neighbours": [
            0, 
            2472, 
            3197, 
            3271
        ], 
        "norm_area": 0.64102289750839181, 
        "num_neighbours": 3
    }, 
    "3156": {
        "area": 1903, 
        "av_neighbour_normed_area": 0.82963787535654288, 
        "centroid_x": 194.94324750394114, 
        "centroid_y": 398.70152390961641, 
        "neighbours": [
            2627, 
            3012, 
            2727, 
            3632, 
            3121, 
            2875, 
            3326
        ], 
        "norm_area": 0.98813144426628885, 
        "num_neighbours": 7
    }, 
    "3165": {
        "area": 1888, 
        "av_neighbour_normed_area": 1.1918259302295613, 
        "centroid_x": 353.97563559322032, 
        "centroid_y": 373.00900423728814, 
        "neighbours": [
            2977, 
            3396, 
            3049, 
            3566, 
            3344, 
            3061
        ], 
        "norm_area": 0.69424526568499412, 
        "num_neighbours": 6
    }, 
    "3197": {
        "area": 3441, 
        "av_neighbour_normed_area": 0.92536789367600403, 
        "centroid_x": 112.54489973844812, 
        "centroid_y": 409.86777099680324, 
        "neighbours": [
            3012, 
            3142, 
            3271, 
            2472, 
            2345, 
            3312, 
            2875
        ], 
        "norm_area": 1.3603094821376562, 
        "num_neighbours": 7
    }, 
    "3229": {
        "area": 1426, 
        "av_neighbour_normed_area": 0.77837516892698, 
        "centroid_x": 511.37517531556801, 
        "centroid_y": 371.48877980364654, 
        "neighbours": [
            0, 
            3044, 
            3460
        ], 
        "norm_area": 0.91970332152378909, 
        "num_neighbours": 2
    }, 
    "3271": {
        "area": 3409, 
        "av_neighbour_normed_area": 1.1961652525474691, 
        "centroid_x": 97.279260780287473, 
        "centroid_y": 337.34672924611323, 
        "neighbours": [
            0, 
            4001, 
            3142, 
            3312, 
            3611, 
            3197
        ], 
        "norm_area": 0.88711356303873368, 
        "num_neighbours": 5
    }, 
    "3285": {
        "area": 2078, 
        "av_neighbour_normed_area": 0.94691405685043362, 
        "centroid_x": 456.77526467757457, 
        "centroid_y": 349.15447545717035, 
        "neighbours": [
            2977, 
            3396, 
            3724, 
            4018, 
            3460, 
            3044
        ], 
        "norm_area": 0.96959328098214237, 
        "num_neighbours": 6
    }, 
    "3306": {
        "area": 1130, 
        "av_neighbour_normed_area": 1.104701832764279, 
        "centroid_x": 282.61769911504427, 
        "centroid_y": 351.58849557522126, 
        "neighbours": [
            3632, 
            3814, 
            3049, 
            3566, 
            3344, 
            2986
        ], 
        "norm_area": 0.47915194347369616, 
        "num_neighbours": 6
    }, 
    "3312": {
        "area": 5085, 
        "av_neighbour_normed_area": 0.93993401490031181, 
        "centroid_x": 154.902261553589, 
        "centroid_y": 326.22340216322516, 
        "neighbours": [
            4001, 
            3012, 
            3271, 
            3989, 
            3632, 
            3197, 
            3326
        ], 
        "norm_area": 1.7826914408899945, 
        "num_neighbours": 7
    }, 
    "3326": {
        "area": 1732, 
        "av_neighbour_normed_area": 1.1544401336470942, 
        "centroid_x": 173.14549653579678, 
        "centroid_y": 361.29618937644341, 
        "neighbours": [
            3312, 
            3632, 
            3156, 
            3012
        ], 
        "norm_area": 0.61516604511897888, 
        "num_neighbours": 4
    }, 
    "3344": {
        "area": 1268, 
        "av_neighbour_normed_area": 1.0028347576618459, 
        "centroid_x": 321.75236593059935, 
        "centroid_y": 350.0244479495268, 
        "neighbours": [
            3049, 
            3306, 
            3165, 
            3566
        ], 
        "norm_area": 0.57001573388420546, 
        "num_neighbours": 4
    }, 
    "3396": {
        "area": 3130, 
        "av_neighbour_normed_area": 1.0568950199959777, 
        "centroid_x": 410.08817891373803, 
        "centroid_y": 343.46964856230034, 
        "neighbours": [
            2977, 
            3754, 
            3724, 
            3566, 
            3285, 
            3165
        ], 
        "norm_area": 1.2487532415839941, 
        "num_neighbours": 6
    }, 
    "3460": {
        "area": 1090, 
        "av_neighbour_normed_area": 0.9508547110737261, 
        "centroid_x": 486.79266055045872, 
        "centroid_y": 349.06330275229357, 
        "neighbours": [
            0, 
            3044, 
            4018, 
            3285, 
            3229
        ], 
        "norm_area": 0.5832775919847023, 
        "num_neighbours": 4
    }, 
    "3566": {
        "area": 3886, 
        "av_neighbour_normed_area": 0.78817435407769931, 
        "centroid_x": 338.11991765311376, 
        "centroid_y": 316.14153371075656, 
        "neighbours": [
            3396, 
            3814, 
            3754, 
            3165, 
            3344, 
            4306, 
            4148, 
            4476, 
            3306
        ], 
        "norm_area": 1.7595210544970381, 
        "num_neighbours": 9
    }, 
    "3611": {
        "area": 3661, 
        "av_neighbour_normed_area": 1.1081388297690797, 
        "centroid_x": 92.994537011745422, 
        "centroid_y": 271.18929254302105, 
        "neighbours": [
            0, 
            4001, 
            3271
        ], 
        "norm_area": 0.86763834578990406, 
        "num_neighbours": 2
    }, 
    "3632": {
        "area": 3085, 
        "av_neighbour_normed_area": 0.85648980753879034, 
        "centroid_x": 223.88395461912481, 
        "centroid_y": 336.60453808752027, 
        "neighbours": [
            3312, 
            3814, 
            3306, 
            3121, 
            3156, 
            3989, 
            2986, 
            3326
        ], 
        "norm_area": 1.4214133502392718, 
        "num_neighbours": 8
    }, 
    "3724": {
        "area": 1722, 
        "av_neighbour_normed_area": 0.96617578467944576, 
        "centroid_x": 450.27758420441347, 
        "centroid_y": 286.68524970963995, 
        "neighbours": [
            3396, 
            4520, 
            3754, 
            4018, 
            4149, 
            3285
        ], 
        "norm_area": 0.73763118441902553, 
        "num_neighbours": 6
    }, 
    "3754": {
        "area": 2519, 
        "av_neighbour_normed_area": 1.0612739083181617, 
        "centroid_x": 404.08932115919015, 
        "centroid_y": 300.06232631996824, 
        "neighbours": [
            3396, 
            3724, 
            3566, 
            4148, 
            4149
        ], 
        "norm_area": 0.98267925412759305, 
        "num_neighbours": 5
    }, 
    "3814": {
        "area": 1711, 
        "av_neighbour_normed_area": 1.0198745131643923, 
        "centroid_x": 277.19871420222091, 
        "centroid_y": 313.73991817650494, 
        "neighbours": [
            3306, 
            3566, 
            3632, 
            4306, 
            3989
        ], 
        "norm_area": 0.6381947034801313, 
        "num_neighbours": 5
    }, 
    "3944": {
        "area": 1239, 
        "av_neighbour_normed_area": 1.4251935380625615, 
        "centroid_x": 516.79015334947542, 
        "centroid_y": 297.90556900726392, 
        "neighbours": [
            0, 
            4018, 
            4141
        ], 
        "norm_area": 0.37982832619215667, 
        "num_neighbours": 2
    }, 
    "3989": {
        "area": 2081, 
        "av_neighbour_normed_area": 1.2105259258242997, 
        "centroid_x": 226.25372417107161, 
        "centroid_y": 293.94521864488229, 
        "neighbours": [
            4001, 
            3814, 
            4110, 
            3312, 
            4306, 
            3632
        ], 
        "norm_area": 0.54084726675264971, 
        "num_neighbours": 6
    }, 
    "4001": {
        "area": 5030, 
        "av_neighbour_normed_area": 0.99152075353913161, 
        "centroid_x": 152.29483101391651, 
        "centroid_y": 262.43598409542744, 
        "neighbours": [
            0, 
            3271, 
            4110, 
            3312, 
            3989, 
            3611, 
            4639
        ], 
        "norm_area": 1.3291640976075645, 
        "num_neighbours": 6
    }, 
    "4018": {
        "area": 1960, 
        "av_neighbour_normed_area": 0.86536130818972712, 
        "centroid_x": 483.02908163265306, 
        "centroid_y": 298.51173469387754, 
        "neighbours": [
            0, 
            3460, 
            4520, 
            3724, 
            4141, 
            3944, 
            3285
        ], 
        "norm_area": 0.94064949609219473, 
        "num_neighbours": 6
    }, 
    "4110": {
        "area": 4952, 
        "av_neighbour_normed_area": 1.0299450373195087, 
        "centroid_x": 238.9747576736672, 
        "centroid_y": 226.78392568659129, 
        "neighbours": [
            4001, 
            4937, 
            4306, 
            3989, 
            4854, 
            4639
        ], 
        "norm_area": 1.1932530120601816, 
        "num_neighbours": 6
    }, 
    "4141": {
        "area": 4564, 
        "av_neighbour_normed_area": 0.79761166087856261, 
        "centroid_x": 501.49320771253286, 
        "centroid_y": 211.63058720420685, 
        "neighbours": [
            0, 
            4612, 
            5157, 
            4520, 
            5033, 
            3944, 
            4018, 
            4243
        ], 
        "norm_area": 1.9097375814581223, 
        "num_neighbours": 7
    }, 
    "4148": {
        "area": 1568, 
        "av_neighbour_normed_area": 1.1856095757550398, 
        "centroid_x": 376.73214285714283, 
        "centroid_y": 273.4795918367347, 
        "neighbours": [
            4324, 
            3754, 
            3566, 
            4149, 
            4476
        ], 
        "norm_area": 0.51718451086267359, 
        "num_neighbours": 5
    }, 
    "4149": {
        "area": 2511, 
        "av_neighbour_normed_area": 0.89756065144619679, 
        "centroid_x": 427.05256869773001, 
        "centroid_y": 245.86379928315412, 
        "neighbours": [
            4324, 
            4520, 
            3754, 
            3724, 
            4148, 
            4612
        ], 
        "norm_area": 1.0432795512893511, 
        "num_neighbours": 6
    }, 
    "4243": {
        "area": 1721, 
        "av_neighbour_normed_area": 1.3871763207634769, 
        "centroid_x": 543.69959325973275, 
        "centroid_y": 232.36606624055781, 
        "neighbours": [
            0, 
            5033, 
            4141
        ], 
        "norm_area": 0.47099069514098113, 
        "num_neighbours": 2
    }, 
    "4306": {
        "area": 3223, 
        "av_neighbour_normed_area": 1.0979094749724365, 
        "centroid_x": 279.89450822215326, 
        "centroid_y": 268.75954080049644, 
        "neighbours": [
            3814, 
            4937, 
            4110, 
            3989, 
            3566, 
            4476
        ], 
        "norm_area": 0.89843895187917999, 
        "num_neighbours": 6
    }, 
    "4324": {
        "area": 2803, 
        "av_neighbour_normed_area": 0.89586224068887099, 
        "centroid_x": 401.19550481626828, 
        "centroid_y": 205.62183374955404, 
        "neighbours": [
            4612, 
            4589, 
            4148, 
            4149, 
            4476, 
            5119
        ], 
        "norm_area": 1.0776624375358255, 
        "num_neighbours": 6
    }, 
    "4476": {
        "area": 3440, 
        "av_neighbour_normed_area": 1.0645899589980485, 
        "centroid_x": 349.28546511627906, 
        "centroid_y": 247.42180232558138, 
        "neighbours": [
            4324, 
            4937, 
            4589, 
            3566, 
            4306, 
            4148
        ], 
        "norm_area": 1.064905582511001, 
        "num_neighbours": 6
    }, 
    "4520": {
        "area": 1809, 
        "av_neighbour_normed_area": 1.2178808899405724, 
        "centroid_x": 474.26533996683253, 
        "centroid_y": 239.77722498618022, 
        "neighbours": [
            4612, 
            3724, 
            4141, 
            4018, 
            4149
        ], 
        "norm_area": 0.61209988496757528, 
        "num_neighbours": 5
    }, 
    "4589": {
        "area": 2448, 
        "av_neighbour_normed_area": 1.0309773420788169, 
        "centroid_x": 371.15277777777777, 
        "centroid_y": 180.92279411764707, 
        "neighbours": [
            4324, 
            4937, 
            5035, 
            5198, 
            4476, 
            5119
        ], 
        "norm_area": 0.74399756864663669, 
        "num_neighbours": 6
    }, 
    "4612": {
        "area": 4020, 
        "av_neighbour_normed_area": 1.0079117622894873, 
        "centroid_x": 450.71865671641791, 
        "centroid_y": 184.313184079602, 
        "neighbours": [
            0, 
            4324, 
            5157, 
            4520, 
            4141, 
            4149, 
            5119
        ], 
        "norm_area": 1.4581066376620495, 
        "num_neighbours": 6
    }, 
    "4639": {
        "area": 3518, 
        "av_neighbour_normed_area": 1.2884402972535112, 
        "centroid_x": 195.01222285389426, 
        "centroid_y": 199.91785105173395, 
        "neighbours": [
            0, 
            4001, 
            4110, 
            4854
        ], 
        "norm_area": 0.6775808936948472, 
        "num_neighbours": 3
    }, 
    "4854": {
        "area": 5594, 
        "av_neighbour_normed_area": 1.0605020815680177, 
        "centroid_x": 258.52163031819805, 
        "centroid_y": 145.39041830532713, 
        "neighbours": [
            0, 
            4937, 
            5198, 
            4110, 
            5337, 
            4639
        ], 
        "norm_area": 1.3429037833812283, 
        "num_neighbours": 5
    }, 
    "4937": {
        "area": 5454, 
        "av_neighbour_normed_area": 1.0488566337718428, 
        "centroid_x": 307.51558489182253, 
        "centroid_y": 206.40062339567291, 
        "neighbours": [
            4589, 
            4110, 
            4306, 
            5198, 
            4854, 
            4476
        ], 
        "norm_area": 1.3907352316315273, 
        "num_neighbours": 6
    }, 
    "5033": {
        "area": 2744, 
        "av_neighbour_normed_area": 1.0792399336521497, 
        "centroid_x": 522.60276967930031, 
        "centroid_y": 168.4271137026239, 
        "neighbours": [
            0, 
            4243, 
            5157, 
            4141
        ], 
        "norm_area": 0.86461506145600775, 
        "num_neighbours": 3
    }, 
    "5035": {
        "area": 2553, 
        "av_neighbour_normed_area": 0.81381079820943425, 
        "centroid_x": 391.53466509988249, 
        "centroid_y": 115.4445750097924, 
        "neighbours": [
            0, 
            4589, 
            5198, 
            5237, 
            5271, 
            5119
        ], 
        "norm_area": 1.0552203025664628, 
        "num_neighbours": 5
    }, 
    "5119": {
        "area": 1619, 
        "av_neighbour_normed_area": 1.083746736331807, 
        "centroid_x": 418.6886967263743, 
        "centroid_y": 140.77393452748609, 
        "neighbours": [
            0, 
            4324, 
            5035, 
            4589, 
            4612
        ], 
        "norm_area": 0.54769959405737734, 
        "num_neighbours": 4
    }, 
    "5157": {
        "area": 3236, 
        "av_neighbour_normed_area": 1.4108197597217866, 
        "centroid_x": 477.6659456118665, 
        "centroid_y": 114.85506798516687, 
        "neighbours": [
            0, 
            5033, 
            4612, 
            4141
        ], 
        "norm_area": 0.85699152543658541, 
        "num_neighbours": 3
    }, 
    "5198": {
        "area": 3873, 
        "av_neighbour_normed_area": 1.1354650440204808, 
        "centroid_x": 330.48747740769431, 
        "centroid_y": 138.27885360185903, 
        "neighbours": [
            4937, 
            5035, 
            4589, 
            5237, 
            4854, 
            5337
        ], 
        "norm_area": 1.0496409052016857, 
        "num_neighbours": 6
    }, 
    "5237": {
        "area": 3059, 
        "av_neighbour_normed_area": 0.8819166720924021, 
        "centroid_x": 359.70938215102973, 
        "centroid_y": 83.235371036286367, 
        "neighbours": [
            5348, 
            5035, 
            5198, 
            5366, 
            5271, 
            5337
        ], 
        "norm_area": 1.2886330127201449, 
        "num_neighbours": 6
    }, 
    "5271": {
        "area": 1098, 
        "av_neighbour_normed_area": 1.098664790711875, 
        "centroid_x": 404.91074681238615, 
        "centroid_y": 69.437158469945359, 
        "neighbours": [
            0, 
            5035, 
            5348, 
            5237
        ], 
        "norm_area": 0.43908291123513732, 
        "num_neighbours": 3
    }, 
    "5337": {
        "area": 3031, 
        "av_neighbour_normed_area": 0.97690933890985221, 
        "centroid_x": 308.60772022434838, 
        "centroid_y": 66.89046519300561, 
        "neighbours": [
            0, 
            5366, 
            5198, 
            5396, 
            5237, 
            4854
        ], 
        "norm_area": 0.99130036631234886, 
        "num_neighbours": 5
    }, 
    "5348": {
        "area": 1890, 
        "av_neighbour_normed_area": 0.84394347109478363, 
        "centroid_x": 401.88412698412696, 
        "centroid_y": 40.610052910052907, 
        "neighbours": [
            0, 
            5237, 
            5366, 
            5271
        ], 
        "norm_area": 0.95214105794768256, 
        "num_neighbours": 3
    }, 
    "5366": {
        "area": 1798, 
        "av_neighbour_normed_area": 0.90783223503061072, 
        "centroid_x": 340.24582869855396, 
        "centroid_y": 33.564516129032256, 
        "neighbours": [
            0, 
            5348, 
            5396, 
            5237, 
            5337
        ], 
        "norm_area": 0.80411449017301218, 
        "num_neighbours": 4
    }, 
    "5396": {
        "area": 964, 
        "av_neighbour_normed_area": 0.89770742779382673, 
        "centroid_x": 300.32987551867222, 
        "centroid_y": 20.810165975103736, 
        "neighbours": [
            0, 
            5337, 
            5366
        ], 
        "norm_area": 0.39925450405009943, 
        "num_neighbours": 2
    }
}