{
    "0": {
        "area": 265133, 
        "av_neighbour_normed_area": 0.99857301584720415, 
        "centroid_x": 285.88770164408049, 
        "centroid_y": 553.17526298122073, 
        "neighbours": [
            1282, 
            1795, 
            262, 
            1802, 
            2321, 
            402, 
            1043, 
            1558, 
            663, 
            2457, 
            2458, 
            2462, 
            927, 
            1185, 
            146, 
            679, 
            1449, 
            1581, 
            817, 
            179, 
            798, 
            1974, 
            1337, 
            954, 
            2107, 
            778, 
            960, 
            578, 
            323, 
            481, 
            712, 
            2249, 
            1357, 
            79, 
            210, 
            39, 
            853, 
            342, 
            1111, 
            1880, 
            218, 
            219, 
            1501, 
            101, 
            736, 
            865, 
            443, 
            2404, 
            2405, 
            999, 
            360, 
            490, 
            225, 
            370, 
            177, 
            1138, 
            1271, 
            153, 
            38, 
            1661, 
            510
        ], 
        "norm_area": 230.75438020778665, 
        "num_neighbours": 61
    }, 
    "38": {
        "area": 1826, 
        "av_neighbour_normed_area": 0.92397774678341316, 
        "centroid_x": 261.66046002190581, 
        "centroid_y": 899.15991237677986, 
        "neighbours": [
            0, 
            153, 
            84, 
            39
        ], 
        "norm_area": 1.2695249131080903, 
        "num_neighbours": 3
    }, 
    "39": {
        "area": 1311, 
        "av_neighbour_normed_area": 1.1699807863449314, 
        "centroid_x": 291.61708619374525, 
        "centroid_y": 920.60564454614803, 
        "neighbours": [
            0, 
            79, 
            84, 
            38
        ], 
        "norm_area": 0.81784154711191515, 
        "num_neighbours": 3
    }, 
    "79": {
        "area": 1441, 
        "av_neighbour_normed_area": 0.83374077233198196, 
        "centroid_x": 324.60097154753646, 
        "centroid_y": 908.10270645385151, 
        "neighbours": [
            0, 
            101, 
            102, 
            39, 
            84
        ], 
        "norm_area": 1.2013338891334702, 
        "num_neighbours": 4
    }, 
    "84": {
        "area": 1542, 
        "av_neighbour_normed_area": 1.0660231856890183, 
        "centroid_x": 291.1018158236057, 
        "centroid_y": 876.64980544747084, 
        "neighbours": [
            102, 
            38, 
            39, 
            79, 
            153, 
            156
        ], 
        "norm_area": 1.0390835579632143, 
        "num_neighbours": 6
    }, 
    "101": {
        "area": 848, 
        "av_neighbour_normed_area": 1.0716995151617916, 
        "centroid_x": 340.23349056603774, 
        "centroid_y": 866.41627358490564, 
        "neighbours": [
            0, 
            179, 
            102, 
            79
        ], 
        "norm_area": 0.66009340945693307, 
        "num_neighbours": 3
    }, 
    "102": {
        "area": 1097, 
        "av_neighbour_normed_area": 1.0587091126810035, 
        "centroid_x": 314.8778486782133, 
        "centroid_y": 860.81586144029166, 
        "neighbours": [
            192, 
            101, 
            79, 
            179, 
            84, 
            156
        ], 
        "norm_area": 0.81794457562960599, 
        "num_neighbours": 6
    }, 
    "146": {
        "area": 1213, 
        "av_neighbour_normed_area": 0.93991806189146698, 
        "centroid_x": 232.64303380049463, 
        "centroid_y": 818.17312448474854, 
        "neighbours": [
            0, 
            153, 
            219, 
            189
        ], 
        "norm_area": 0.93212090165245132, 
        "num_neighbours": 3
    }, 
    "153": {
        "area": 1462, 
        "av_neighbour_normed_area": 1.1704477803567543, 
        "centroid_x": 260.47469220246239, 
        "centroid_y": 838.51231190150475, 
        "neighbours": [
            0, 
            38, 
            146, 
            84, 
            156, 
            189
        ], 
        "norm_area": 0.9150081361990875, 
        "num_neighbours": 5
    }, 
    "156": {
        "area": 1767, 
        "av_neighbour_normed_area": 0.92931881197074317, 
        "centroid_x": 287.31522354272778, 
        "centroid_y": 819.70911148839843, 
        "neighbours": [
            192, 
            102, 
            84, 
            252, 
            153, 
            220, 
            189
        ], 
        "norm_area": 1.3744860540179644, 
        "num_neighbours": 7
    }, 
    "177": {
        "area": 931, 
        "av_neighbour_normed_area": 1.1345045634192481, 
        "centroid_x": 179.08378088077336, 
        "centroid_y": 803.30397422126748, 
        "neighbours": [
            0, 
            210, 
            342
        ], 
        "norm_area": 1.1360585723158634, 
        "num_neighbours": 2
    }, 
    "179": {
        "area": 1316, 
        "av_neighbour_normed_area": 0.85314193376057035, 
        "centroid_x": 342.7743161094225, 
        "centroid_y": 828.51747720364745, 
        "neighbours": [
            192, 
            0, 
            101, 
            102, 
            218
        ], 
        "norm_area": 1.1958200817939981, 
        "num_neighbours": 4
    }, 
    "189": {
        "area": 1641, 
        "av_neighbour_normed_area": 1.0295775179141973, 
        "centroid_x": 257.04875076173067, 
        "centroid_y": 784.41560024375383, 
        "neighbours": [
            352, 
            156, 
            369, 
            146, 
            153, 
            219, 
            220
        ], 
        "norm_area": 1.2370234762124994, 
        "num_neighbours": 7
    }, 
    "192": {
        "area": 1133, 
        "av_neighbour_normed_area": 1.0262184867895652, 
        "centroid_x": 316.10238305383939, 
        "centroid_y": 817.45013239187995, 
        "neighbours": [
            102, 
            252, 
            179, 
            218, 
            156
        ], 
        "norm_area": 0.88143768477915052, 
        "num_neighbours": 5
    }, 
    "210": {
        "area": 578, 
        "av_neighbour_normed_area": 1.1576219174994518, 
        "centroid_x": 185.54498269896195, 
        "centroid_y": 782.12975778546718, 
        "neighbours": [
            0, 
            225, 
            264, 
            177, 
            342
        ], 
        "norm_area": 0.67111756169527725, 
        "num_neighbours": 4
    }, 
    "218": {
        "area": 1324, 
        "av_neighbour_normed_area": 1.0259322365336478, 
        "centroid_x": 346.6080060422961, 
        "centroid_y": 786.96223564954687, 
        "neighbours": [
            0, 
            192, 
            262, 
            179, 
            252
        ], 
        "norm_area": 1.0530920660297336, 
        "num_neighbours": 4
    }, 
    "219": {
        "area": 801, 
        "av_neighbour_normed_area": 1.110904061871161, 
        "centroid_x": 230.45318352059925, 
        "centroid_y": 774.85393258426961, 
        "neighbours": [
            0, 
            225, 
            369, 
            146, 
            277, 
            189
        ], 
        "norm_area": 0.66772257420273251, 
        "num_neighbours": 5
    }, 
    "220": {
        "area": 1201, 
        "av_neighbour_normed_area": 0.98111093579314801, 
        "centroid_x": 286.51124063280599, 
        "centroid_y": 770.27726894254783, 
        "neighbours": [
            352, 
            156, 
            270, 
            252, 
            189
        ], 
        "norm_area": 0.92498459643822084, 
        "num_neighbours": 5
    }, 
    "225": {
        "area": 859, 
        "av_neighbour_normed_area": 0.88731035140606718, 
        "centroid_x": 203.54016298020954, 
        "centroid_y": 770.69499417927818, 
        "neighbours": [
            0, 
            292, 
            264, 
            210, 
            277, 
            219
        ], 
        "norm_area": 1.1617527725305814, 
        "num_neighbours": 5
    }, 
    "252": {
        "area": 923, 
        "av_neighbour_normed_area": 1.0526927386874367, 
        "centroid_x": 315.38461538461536, 
        "centroid_y": 779.20043336944741, 
        "neighbours": [
            192, 
            262, 
            156, 
            270, 
            218, 
            220
        ], 
        "norm_area": 0.68974965750274253, 
        "num_neighbours": 6
    }, 
    "262": {
        "area": 1657, 
        "av_neighbour_normed_area": 0.92024865050349702, 
        "centroid_x": 347.03802051901027, 
        "centroid_y": 743.24321062160527, 
        "neighbours": [
            0, 
            420, 
            270, 
            402, 
            218, 
            252
        ], 
        "norm_area": 1.3367215230846321, 
        "num_neighbours": 5
    }, 
    "264": {
        "area": 594, 
        "av_neighbour_normed_area": 1.1401245009933347, 
        "centroid_x": 179.60437710437711, 
        "centroid_y": 749.77104377104376, 
        "neighbours": [
            225, 
            292, 
            210, 
            342, 
            349
        ], 
        "norm_area": 0.7347847600312617, 
        "num_neighbours": 5
    }, 
    "270": {
        "area": 947, 
        "av_neighbour_normed_area": 0.9449885372472393, 
        "centroid_x": 315.55121436114047, 
        "centroid_y": 745.89651531151003, 
        "neighbours": [
            352, 
            420, 
            262, 
            252, 
            220
        ], 
        "norm_area": 0.74543450882761175, 
        "num_neighbours": 5
    }, 
    "277": {
        "area": 657, 
        "av_neighbour_normed_area": 1.1265877319053732, 
        "centroid_x": 226.33942161339422, 
        "centroid_y": 747.97564687975648, 
        "neighbours": [
            225, 
            292, 
            369, 
            343, 
            344, 
            219
        ], 
        "norm_area": 0.68976377953870871, 
        "num_neighbours": 6
    }, 
    "292": {
        "area": 1067, 
        "av_neighbour_normed_area": 0.84866449329350557, 
        "centroid_x": 201.60637300843487, 
        "centroid_y": 733.62417994376756, 
        "neighbours": [
            225, 
            388, 
            264, 
            277, 
            343, 
            349, 
            383
        ], 
        "norm_area": 1.6731630824496662, 
        "num_neighbours": 7
    }, 
    "323": {
        "area": 776, 
        "av_neighbour_normed_area": 1.1136835390911228, 
        "centroid_x": 144.10953608247422, 
        "centroid_y": 742.90979381443299, 
        "neighbours": [
            368, 
            360, 
            342, 
            0
        ], 
        "norm_area": 1.020157756367476, 
        "num_neighbours": 3
    }, 
    "342": {
        "area": 1061, 
        "av_neighbour_normed_area": 0.83946450225967784, 
        "centroid_x": 162.60037700282751, 
        "centroid_y": 743.61451460885962, 
        "neighbours": [
            0, 
            323, 
            264, 
            368, 
            177, 
            210, 
            349
        ], 
        "norm_area": 1.5978915662777233, 
        "num_neighbours": 6
    }, 
    "343": {
        "area": 682, 
        "av_neighbour_normed_area": 0.94880170846116807, 
        "centroid_x": 218.70967741935485, 
        "centroid_y": 710.08504398826983, 
        "neighbours": [
            292, 
            454, 
            277, 
            344, 
            388
        ], 
        "norm_area": 0.96463932108689399, 
        "num_neighbours": 5
    }, 
    "344": {
        "area": 678, 
        "av_neighbour_normed_area": 1.0192208264059479, 
        "centroid_x": 233.22713864306786, 
        "centroid_y": 709.31563421828912, 
        "neighbours": [
            454, 
            369, 
            277, 
            343, 
            409
        ], 
        "norm_area": 0.75838926175648314, 
        "num_neighbours": 5
    }, 
    "349": {
        "area": 477, 
        "av_neighbour_normed_area": 1.180955016321261, 
        "centroid_x": 176.42138364779873, 
        "centroid_y": 717.94968553459114, 
        "neighbours": [
            292, 
            264, 
            368, 
            342, 
            383
        ], 
        "norm_area": 0.59669752315355018, 
        "num_neighbours": 5
    }, 
    "352": {
        "area": 1214, 
        "av_neighbour_normed_area": 1.0975766167366532, 
        "centroid_x": 288.0840197693575, 
        "centroid_y": 731.60873146622737, 
        "neighbours": [
            420, 
            270, 
            369, 
            371, 
            220, 
            189
        ], 
        "norm_area": 0.85886098338603345, 
        "num_neighbours": 6
    }, 
    "360": {
        "area": 593, 
        "av_neighbour_normed_area": 1.0204600017716976, 
        "centroid_x": 133.52276559865092, 
        "centroid_y": 707.38785834738621, 
        "neighbours": [
            0, 
            323, 
            368, 
            433, 
            370, 
            471
        ], 
        "norm_area": 0.86518821127522605, 
        "num_neighbours": 5
    }, 
    "368": {
        "area": 628, 
        "av_neighbour_normed_area": 1.0385879705594905, 
        "centroid_x": 152.75, 
        "centroid_y": 701.61624203821657, 
        "neighbours": [
            323, 
            453, 
            360, 
            342, 
            471, 
            349, 
            383
        ], 
        "norm_area": 0.87797084083410226, 
        "num_neighbours": 7
    }, 
    "369": {
        "area": 1628, 
        "av_neighbour_normed_area": 0.89525902141142155, 
        "centroid_x": 254.66769041769041, 
        "centroid_y": 730.19287469287474, 
        "neighbours": [
            352, 
            219, 
            371, 
            277, 
            344, 
            409, 
            475, 
            189
        ], 
        "norm_area": 1.5338593805324683, 
        "num_neighbours": 8
    }, 
    "370": {
        "area": 711, 
        "av_neighbour_normed_area": 0.88424157201834297, 
        "centroid_x": 116.45147679324894, 
        "centroid_y": 711.90717299578057, 
        "neighbours": [
            360, 
            433, 
            443, 
            0
        ], 
        "norm_area": 1.1949579832072605, 
        "num_neighbours": 3
    }, 
    "371": {
        "area": 1707, 
        "av_neighbour_normed_area": 1.0876440544174537, 
        "centroid_x": 288.21089630931459, 
        "centroid_y": 691.05272407732866, 
        "neighbours": [
            352, 
            420, 
            488, 
            369, 
            475, 
            543
        ], 
        "norm_area": 1.2295318127371393, 
        "num_neighbours": 6
    }, 
    "383": {
        "area": 647, 
        "av_neighbour_normed_area": 0.92078805912520523, 
        "centroid_x": 177.48686244204018, 
        "centroid_y": 697.23029366306025, 
        "neighbours": [
            388, 
            453, 
            463, 
            368, 
            440, 
            292, 
            349
        ], 
        "norm_area": 1.0209648331945063, 
        "num_neighbours": 7
    }, 
    "388": {
        "area": 548, 
        "av_neighbour_normed_area": 1.0876245533981947, 
        "centroid_x": 201.7609489051095, 
        "centroid_y": 697.56386861313865, 
        "neighbours": [
            292, 
            454, 
            343, 
            440, 
            383
        ], 
        "norm_area": 0.7720484643677008, 
        "num_neighbours": 5
    }, 
    "402": {
        "area": 1647, 
        "av_neighbour_normed_area": 1.0208896707188229, 
        "centroid_x": 351.86217364905889, 
        "centroid_y": 687.96174863387978, 
        "neighbours": [
            0, 
            481, 
            420, 
            262, 
            503, 
            543
        ], 
        "norm_area": 1.1983410943080894, 
        "num_neighbours": 5
    }, 
    "409": {
        "area": 918, 
        "av_neighbour_normed_area": 0.90334629494034302, 
        "centroid_x": 248.12962962962962, 
        "centroid_y": 675.44662309368186, 
        "neighbours": [
            454, 
            527, 
            496, 
            369, 
            344, 
            475
        ], 
        "norm_area": 1.0571976967488061, 
        "num_neighbours": 6
    }, 
    "420": {
        "area": 1357, 
        "av_neighbour_normed_area": 1.1128246361860648, 
        "centroid_x": 321.7280766396463, 
        "centroid_y": 705.37140751658069, 
        "neighbours": [
            352, 
            262, 
            270, 
            402, 
            371, 
            543
        ], 
        "norm_area": 0.91462592676955634, 
        "num_neighbours": 6
    }, 
    "433": {
        "area": 519, 
        "av_neighbour_normed_area": 1.0571781187596792, 
        "centroid_x": 120.09248554913295, 
        "centroid_y": 677.86319845857417, 
        "neighbours": [
            360, 
            489, 
            370, 
            471, 
            443
        ], 
        "norm_area": 0.75611888113039338, 
        "num_neighbours": 5
    }, 
    "440": {
        "area": 568, 
        "av_neighbour_normed_area": 0.91325475306883308, 
        "centroid_x": 197.56866197183098, 
        "centroid_y": 678.56514084507046, 
        "neighbours": [
            388, 
            454, 
            491, 
            463, 
            383
        ], 
        "norm_area": 0.92871157620544809, 
        "num_neighbours": 5
    }, 
    "443": {
        "area": 673, 
        "av_neighbour_normed_area": 0.99138818452333688, 
        "centroid_x": 99.295690936106979, 
        "centroid_y": 674.47548291233284, 
        "neighbours": [
            0, 
            489, 
            490, 
            433, 
            370
        ], 
        "norm_area": 1.0314176245336515, 
        "num_neighbours": 4
    }, 
    "453": {
        "area": 660, 
        "av_neighbour_normed_area": 0.97354089711329861, 
        "centroid_x": 164.7590909090909, 
        "centroid_y": 659.42424242424238, 
        "neighbours": [
            614, 
            463, 
            368, 
            471, 
            504, 
            603, 
            383
        ], 
        "norm_area": 0.91612135634682335, 
        "num_neighbours": 7
    }, 
    "454": {
        "area": 585, 
        "av_neighbour_normed_area": 0.93369676323771356, 
        "centroid_x": 226.98803418803419, 
        "centroid_y": 672.91794871794866, 
        "neighbours": [
            388, 
            491, 
            496, 
            344, 
            343, 
            440, 
            409
        ], 
        "norm_area": 0.85064395514208346, 
        "num_neighbours": 7
    }, 
    "463": {
        "area": 488, 
        "av_neighbour_normed_area": 1.0354562950087125, 
        "centroid_x": 177.03073770491804, 
        "centroid_y": 662.62909836065569, 
        "neighbours": [
            453, 
            614, 
            491, 
            440, 
            383
        ], 
        "norm_area": 0.68080357143993309, 
        "num_neighbours": 5
    }, 
    "471": {
        "area": 793, 
        "av_neighbour_normed_area": 0.8903143679828216, 
        "centroid_x": 143.3783102143758, 
        "centroid_y": 674.42118537200508, 
        "neighbours": [
            453, 
            360, 
            489, 
            368, 
            433, 
            504
        ], 
        "norm_area": 1.2530945483397156, 
        "num_neighbours": 6
    }, 
    "475": {
        "area": 875, 
        "av_neighbour_normed_area": 1.1735981892900329, 
        "centroid_x": 264.99885714285716, 
        "centroid_y": 673.99542857142853, 
        "neighbours": [
            488, 
            527, 
            369, 
            371, 
            409
        ], 
        "norm_area": 0.66358258760422872, 
        "num_neighbours": 5
    }, 
    "481": {
        "area": 1280, 
        "av_neighbour_normed_area": 1.0232615789487349, 
        "centroid_x": 384.44687499999998, 
        "centroid_y": 674.97812499999998, 
        "neighbours": [
            0, 
            402, 
            510, 
            503
        ], 
        "norm_area": 0.97560975611081302, 
        "num_neighbours": 3
    }, 
    "488": {
        "area": 1526, 
        "av_neighbour_normed_area": 1.0088078953552611, 
        "centroid_x": 291.64678899082571, 
        "centroid_y": 644.03211009174311, 
        "neighbours": [
            716, 
            621, 
            527, 
            371, 
            600, 
            475, 
            543
        ], 
        "norm_area": 1.2468775534143728, 
        "num_neighbours": 7
    }, 
    "489": {
        "area": 662, 
        "av_neighbour_normed_area": 1.0262534549851774, 
        "centroid_x": 115.24773413897282, 
        "centroid_y": 651.00302114803628, 
        "neighbours": [
            490, 
            567, 
            433, 
            471, 
            504, 
            443
        ], 
        "norm_area": 0.94123222749972035, 
        "num_neighbours": 6
    }, 
    "490": {
        "area": 718, 
        "av_neighbour_normed_area": 0.95584676076974362, 
        "centroid_x": 88.116991643454043, 
        "centroid_y": 648.81197771587745, 
        "neighbours": [
            0, 
            578, 
            489, 
            567, 
            443
        ], 
        "norm_area": 1.0732436472473617, 
        "num_neighbours": 4
    }, 
    "491": {
        "area": 790, 
        "av_neighbour_normed_area": 0.83755329883865282, 
        "centroid_x": 198.7240506329114, 
        "centroid_y": 656.81898734177219, 
        "neighbours": [
            614, 
            454, 
            463, 
            496, 
            440, 
            538
        ], 
        "norm_area": 1.2418129421131963, 
        "num_neighbours": 6
    }, 
    "496": {
        "area": 630, 
        "av_neighbour_normed_area": 0.93876515646862702, 
        "centroid_x": 228.24920634920636, 
        "centroid_y": 647.81428571428569, 
        "neighbours": [
            454, 
            491, 
            527, 
            409, 
            633, 
            538
        ], 
        "norm_area": 0.81307808131916337, 
        "num_neighbours": 6
    }, 
    "503": {
        "area": 848, 
        "av_neighbour_normed_area": 1.1690634155365964, 
        "centroid_x": 357.04363207547169, 
        "centroid_y": 647.03537735849056, 
        "neighbours": [
            481, 
            579, 
            402, 
            510, 
            543
        ], 
        "norm_area": 0.56943325276429491, 
        "num_neighbours": 5
    }, 
    "504": {
        "area": 735, 
        "av_neighbour_normed_area": 1.0191732992381308, 
        "centroid_x": 140.19999999999999, 
        "centroid_y": 647.51564625850335, 
        "neighbours": [
            453, 
            489, 
            567, 
            471, 
            603
        ], 
        "norm_area": 0.98525469170097857, 
        "num_neighbours": 5
    }, 
    "510": {
        "area": 1441, 
        "av_neighbour_normed_area": 0.82053176436834918, 
        "centroid_x": 391.49132546842469, 
        "centroid_y": 635.22831367106176, 
        "neighbours": [
            0, 
            481, 
            579, 
            663, 
            503
        ], 
        "norm_area": 1.3020103907970817, 
        "num_neighbours": 4
    }, 
    "527": {
        "area": 814, 
        "av_neighbour_normed_area": 0.99467313521675116, 
        "centroid_x": 254.06511056511056, 
        "centroid_y": 635.93120393120398, 
        "neighbours": [
            488, 
            621, 
            496, 
            409, 
            633, 
            475
        ], 
        "norm_area": 0.80052450419097687, 
        "num_neighbours": 6
    }, 
    "538": {
        "area": 627, 
        "av_neighbour_normed_area": 1.1346366440582696, 
        "centroid_x": 201.30462519936205, 
        "centroid_y": 634.91547049441783, 
        "neighbours": [
            710, 
            614, 
            491, 
            496, 
            633
        ], 
        "norm_area": 0.68241184154379841, 
        "num_neighbours": 5
    }, 
    "543": {
        "area": 1730, 
        "av_neighbour_normed_area": 0.97310855776598792, 
        "centroid_x": 323.93988439306361, 
        "centroid_y": 655.20115606936417, 
        "neighbours": [
            579, 
            420, 
            488, 
            402, 
            371, 
            503, 
            600
        ], 
        "norm_area": 1.3080578958857074, 
        "num_neighbours": 7
    }, 
    "567": {
        "area": 782, 
        "av_neighbour_normed_area": 0.95660145802175733, 
        "centroid_x": 112.36828644501279, 
        "centroid_y": 624.01150895140665, 
        "neighbours": [
            578, 
            742, 
            489, 
            490, 
            504, 
            666, 
            603
        ], 
        "norm_area": 1.0583913379852166, 
        "num_neighbours": 7
    }, 
    "578": {
        "area": 559, 
        "av_neighbour_normed_area": 0.9585374906131694, 
        "centroid_x": 84.971377459749547, 
        "centroid_y": 620.69230769230774, 
        "neighbours": [
            0, 
            679, 
            490, 
            567, 
            666
        ], 
        "norm_area": 0.79234585401623314, 
        "num_neighbours": 4
    }, 
    "579": {
        "area": 1348, 
        "av_neighbour_normed_area": 1.0374402822652948, 
        "centroid_x": 357.61424332344211, 
        "centroid_y": 615.419881305638, 
        "neighbours": [
            503, 
            718, 
            663, 
            600, 
            698, 
            510, 
            543
        ], 
        "norm_area": 1.0612979417503532, 
        "num_neighbours": 7
    }, 
    "600": {
        "area": 825, 
        "av_neighbour_normed_area": 1.1300258909726473, 
        "centroid_x": 321.79636363636365, 
        "centroid_y": 613.97939393939396, 
        "neighbours": [
            579, 
            488, 
            716, 
            698, 
            543
        ], 
        "norm_area": 0.59165232359121778, 
        "num_neighbours": 5
    }, 
    "603": {
        "area": 833, 
        "av_neighbour_normed_area": 1.0528005167586589, 
        "centroid_x": 145.51500600240095, 
        "centroid_y": 625.11404561824725, 
        "neighbours": [
            667, 
            742, 
            614, 
            659, 
            567, 
            504, 
            453
        ], 
        "norm_area": 0.92702702703835138, 
        "num_neighbours": 7
    }, 
    "614": {
        "area": 919, 
        "av_neighbour_normed_area": 1.0437273756487033, 
        "centroid_x": 175.9075081610446, 
        "centroid_y": 621.84439608269861, 
        "neighbours": [
            710, 
            491, 
            463, 
            659, 
            538, 
            603, 
            453
        ], 
        "norm_area": 1.0696707682190441, 
        "num_neighbours": 7
    }, 
    "621": {
        "area": 1237, 
        "av_neighbour_normed_area": 0.98515358503873873, 
        "centroid_x": 258.00242522231207, 
        "centroid_y": 605.2797089733225, 
        "neighbours": [
            769, 
            488, 
            716, 
            527, 
            824, 
            633, 
            766
        ], 
        "norm_area": 1.1873028931969423, 
        "num_neighbours": 7
    }, 
    "633": {
        "area": 915, 
        "av_neighbour_normed_area": 0.975167482818319, 
        "centroid_x": 227.82513661202185, 
        "centroid_y": 616.19016393442621, 
        "neighbours": [
            710, 
            621, 
            527, 
            496, 
            538, 
            766
        ], 
        "norm_area": 1.0000000000116667, 
        "num_neighbours": 6
    }, 
    "659": {
        "area": 1276, 
        "av_neighbour_normed_area": 1.0357297472720104, 
        "centroid_x": 171.68808777429467, 
        "centroid_y": 591.40517241379314, 
        "neighbours": [
            603, 
            614, 
            710, 
            904, 
            747, 
            787, 
            667
        ], 
        "norm_area": 1.3092934623396335, 
        "num_neighbours": 7
    }, 
    "663": {
        "area": 951, 
        "av_neighbour_normed_area": 1.2474232444813089, 
        "centroid_x": 391.86435331230285, 
        "centroid_y": 599.9863301787592, 
        "neighbours": [
            736, 
            0, 
            579, 
            718, 
            510
        ], 
        "norm_area": 0.67578610766846692, 
        "num_neighbours": 4
    }, 
    "666": {
        "area": 713, 
        "av_neighbour_normed_area": 1.0526681914280915, 
        "centroid_x": 104.02244039270687, 
        "centroid_y": 600.08415147265077, 
        "neighbours": [
            578, 
            741, 
            742, 
            679, 
            567
        ], 
        "norm_area": 0.8826442188778213, 
        "num_neighbours": 5
    }, 
    "667": {
        "area": 966, 
        "av_neighbour_normed_area": 1.0775668478675753, 
        "centroid_x": 144.65838509316771, 
        "centroid_y": 582.43788819875772, 
        "neighbours": [
            742, 
            904, 
            659, 
            603, 
            830
        ], 
        "norm_area": 0.93640946104328038, 
        "num_neighbours": 5
    }, 
    "679": {
        "area": 609, 
        "av_neighbour_normed_area": 1.0218182463407326, 
        "centroid_x": 80.558292282430216, 
        "centroid_y": 592.37602627257797, 
        "neighbours": [
            0, 
            578, 
            741, 
            712, 
            666, 
            763
        ], 
        "norm_area": 0.81987075930081588, 
        "num_neighbours": 5
    }, 
    "698": {
        "area": 989, 
        "av_neighbour_normed_area": 1.142015410716847, 
        "centroid_x": 327.15672396359957, 
        "centroid_y": 588.72497472194141, 
        "neighbours": [
            579, 
            716, 
            718, 
            758, 
            600
        ], 
        "norm_area": 0.75289281365340588, 
        "num_neighbours": 5
    }, 
    "710": {
        "area": 1340, 
        "av_neighbour_normed_area": 0.93163359181727634, 
        "centroid_x": 210.74776119402986, 
        "centroid_y": 598.19701492537308, 
        "neighbours": [
            774, 
            747, 
            614, 
            659, 
            633, 
            538, 
            766
        ], 
        "norm_area": 1.5486214297629139, 
        "num_neighbours": 7
    }, 
    "712": {
        "area": 586, 
        "av_neighbour_normed_area": 0.87945554248337443, 
        "centroid_x": 59.786689419795223, 
        "centroid_y": 592.77986348122863, 
        "neighbours": [
            0, 
            778, 
            763, 
            679
        ], 
        "norm_area": 0.94465341215715748, 
        "num_neighbours": 3
    }, 
    "716": {
        "area": 1379, 
        "av_neighbour_normed_area": 0.90106442585402902, 
        "centroid_x": 290.5163161711385, 
        "centroid_y": 602.38578680203045, 
        "neighbours": [
            769, 
            488, 
            621, 
            758, 
            600, 
            698
        ], 
        "norm_area": 1.2810032512894225, 
        "num_neighbours": 6
    }, 
    "718": {
        "area": 2107, 
        "av_neighbour_normed_area": 0.84521166463634523, 
        "centroid_x": 358.36355007119124, 
        "centroid_y": 564.54722354057901, 
        "neighbours": [
            736, 
            865, 
            579, 
            1003, 
            942, 
            849, 
            758, 
            663, 
            698, 
            798
        ], 
        "norm_area": 2.0622491925343289, 
        "num_neighbours": 10
    }, 
    "736": {
        "area": 733, 
        "av_neighbour_normed_area": 1.155481069162497, 
        "centroid_x": 392.95634379263299, 
        "centroid_y": 575.97544338335604, 
        "neighbours": [
            0, 
            718, 
            798, 
            663
        ], 
        "norm_area": 0.56413545409089527, 
        "num_neighbours": 3
    }, 
    "741": {
        "area": 1137, 
        "av_neighbour_normed_area": 0.91772486725821767, 
        "centroid_x": 101.36587510993843, 
        "centroid_y": 562.17941952506601, 
        "neighbours": [
            742, 
            679, 
            873, 
            881, 
            841, 
            666, 
            763, 
            830
        ], 
        "norm_area": 1.4982704661624244, 
        "num_neighbours": 8
    }, 
    "742": {
        "area": 952, 
        "av_neighbour_normed_area": 1.0167413209991751, 
        "centroid_x": 126.13550420168067, 
        "centroid_y": 586.35399159663871, 
        "neighbours": [
            603, 
            741, 
            567, 
            666, 
            667, 
            830
        ], 
        "norm_area": 1.0944625407284365, 
        "num_neighbours": 6
    }, 
    "747": {
        "area": 694, 
        "av_neighbour_normed_area": 1.0244888836216162, 
        "centroid_x": 199.38472622478386, 
        "centroid_y": 570.93083573487036, 
        "neighbours": [
            774, 
            710, 
            787, 
            659, 
            831
        ], 
        "norm_area": 0.74849007766464626, 
        "num_neighbours": 5
    }, 
    "758": {
        "area": 909, 
        "av_neighbour_normed_area": 1.162375747879693, 
        "centroid_x": 320.15291529152915, 
        "centroid_y": 562.60176017601759, 
        "neighbours": [
            769, 
            716, 
            718, 
            849, 
            826, 
            698
        ], 
        "norm_area": 0.71387434556092799, 
        "num_neighbours": 6
    }, 
    "763": {
        "area": 719, 
        "av_neighbour_normed_area": 1.0290612204916083, 
        "centroid_x": 76.910987482614743, 
        "centroid_y": 566.01112656467319, 
        "neighbours": [
            741, 
            679, 
            712, 
            778, 
            881
        ], 
        "norm_area": 0.99117728151184448, 
        "num_neighbours": 5
    }, 
    "766": {
        "area": 842, 
        "av_neighbour_normed_area": 1.0882022292948359, 
        "centroid_x": 237.20783847980996, 
        "centroid_y": 568.32422802850351, 
        "neighbours": [
            710, 
            774, 
            872, 
            621, 
            824, 
            633
        ], 
        "norm_area": 0.81906614787128729, 
        "num_neighbours": 6
    }, 
    "769": {
        "area": 973, 
        "av_neighbour_normed_area": 0.98862658944578863, 
        "centroid_x": 282.99794450154161, 
        "centroid_y": 571.67625899280574, 
        "neighbours": [
            716, 
            621, 
            758, 
            824, 
            826
        ], 
        "norm_area": 0.91378662660837151, 
        "num_neighbours": 5
    }, 
    "774": {
        "area": 784, 
        "av_neighbour_normed_area": 0.93630212048569306, 
        "centroid_x": 216.8112244897959, 
        "centroid_y": 553.19897959183675, 
        "neighbours": [
            965, 
            872, 
            747, 
            876, 
            710, 
            766, 
            831
        ], 
        "norm_area": 0.89250284600249308, 
        "num_neighbours": 7
    }, 
    "778": {
        "area": 533, 
        "av_neighbour_normed_area": 0.93573967456510687, 
        "centroid_x": 54.572232645403375, 
        "centroid_y": 559.24953095684805, 
        "neighbours": [
            0, 
            712, 
            881, 
            853, 
            763
        ], 
        "norm_area": 0.82731858751691889, 
        "num_neighbours": 4
    }, 
    "787": {
        "area": 761, 
        "av_neighbour_normed_area": 1.0544329696635493, 
        "centroid_x": 179.96189224704335, 
        "centroid_y": 549.07752956636, 
        "neighbours": [
            904, 
            747, 
            659, 
            988, 
            831
        ], 
        "norm_area": 0.76054367380724364, 
        "num_neighbours": 5
    }, 
    "798": {
        "area": 840, 
        "av_neighbour_normed_area": 1.1064219614387183, 
        "centroid_x": 396.97023809523807, 
        "centroid_y": 554.09880952380956, 
        "neighbours": [
            0, 
            865, 
            1003, 
            718, 
            817, 
            736
        ], 
        "norm_area": 0.72840790844017689, 
        "num_neighbours": 5
    }, 
    "817": {
        "area": 534, 
        "av_neighbour_normed_area": 0.83858307986757452, 
        "centroid_x": 427.88202247191009, 
        "centroid_y": 545.5374531835206, 
        "neighbours": [
            0, 
            798, 
            865
        ], 
        "norm_area": 0.57854821236392195, 
        "num_neighbours": 2
    }, 
    "824": {
        "area": 844, 
        "av_neighbour_normed_area": 0.98245206140143526, 
        "centroid_x": 254.85071090047393, 
        "centroid_y": 560.16587677725113, 
        "neighbours": [
            769, 
            872, 
            621, 
            826, 
            766
        ], 
        "norm_area": 0.83481701287022558, 
        "num_neighbours": 5
    }, 
    "826": {
        "area": 955, 
        "av_neighbour_normed_area": 0.94522972490782742, 
        "centroid_x": 283.5298429319372, 
        "centroid_y": 546.35497382198957, 
        "neighbours": [
            769, 
            872, 
            849, 
            758, 
            824, 
            926
        ], 
        "norm_area": 0.92613544530005176, 
        "num_neighbours": 6
    }, 
    "830": {
        "area": 788, 
        "av_neighbour_normed_area": 1.0664524081548785, 
        "centroid_x": 136.34771573604061, 
        "centroid_y": 547.07741116751265, 
        "neighbours": [
            897, 
            741, 
            742, 
            904, 
            841, 
            667
        ], 
        "norm_area": 0.79770541590469879, 
        "num_neighbours": 6
    }, 
    "831": {
        "area": 475, 
        "av_neighbour_normed_area": 0.83104785713017781, 
        "centroid_x": 193.94736842105263, 
        "centroid_y": 538.33263157894737, 
        "neighbours": [
            774, 
            747, 
            876, 
            787, 
            988
        ], 
        "norm_area": 0.61148300722028581, 
        "num_neighbours": 5
    }, 
    "841": {
        "area": 378, 
        "av_neighbour_normed_area": 1.2242721894647051, 
        "centroid_x": 119.70899470899471, 
        "centroid_y": 540.12962962962968, 
        "neighbours": [
            873, 
            741, 
            830, 
            897
        ], 
        "norm_area": 0.35492957747567605, 
        "num_neighbours": 4
    }, 
    "849": {
        "area": 1237, 
        "av_neighbour_normed_area": 1.0813225182130177, 
        "centroid_x": 322.63379143088116, 
        "centroid_y": 532.36459175424409, 
        "neighbours": [
            718, 
            942, 
            758, 
            986, 
            826, 
            926
        ], 
        "norm_area": 1.0381871590549532, 
        "num_neighbours": 6
    }, 
    "853": {
        "area": 510, 
        "av_neighbour_normed_area": 0.90741519714199459, 
        "centroid_x": 53.517647058823528, 
        "centroid_y": 532.97058823529414, 
        "neighbours": [
            960, 
            0, 
            930, 
            778, 
            881
        ], 
        "norm_area": 0.75193512717737931, 
        "num_neighbours": 4
    }, 
    "865": {
        "area": 1006, 
        "av_neighbour_normed_area": 1.0930250242741832, 
        "centroid_x": 401.44433399602383, 
        "centroid_y": 531.12723658051686, 
        "neighbours": [
            0, 
            936, 
            1003, 
            718, 
            817, 
            798, 
            927
        ], 
        "norm_area": 0.94875825213355547, 
        "num_neighbours": 6
    }, 
    "872": {
        "area": 1048, 
        "av_neighbour_normed_area": 0.95615476282359335, 
        "centroid_x": 246.05916030534351, 
        "centroid_y": 529.06583969465646, 
        "neighbours": [
            965, 
            774, 
            972, 
            766, 
            824, 
            826, 
            926
        ], 
        "norm_area": 1.0659691950129759, 
        "num_neighbours": 7
    }, 
    "873": {
        "area": 1150, 
        "av_neighbour_normed_area": 0.94428413609153594, 
        "centroid_x": 99.27391304347826, 
        "centroid_y": 516.57913043478266, 
        "neighbours": [
            897, 
            741, 
            881, 
            1064, 
            1000, 
            841, 
            1016, 
            923
        ], 
        "norm_area": 1.3458162668343854, 
        "num_neighbours": 8
    }, 
    "876": {
        "area": 396, 
        "av_neighbour_normed_area": 1.049468291364096, 
        "centroid_x": 205.59343434343435, 
        "centroid_y": 525.89898989898995, 
        "neighbours": [
            988, 
            965, 
            774, 
            831
        ], 
        "norm_area": 0.41015018126426206, 
        "num_neighbours": 4
    }, 
    "881": {
        "area": 762, 
        "av_neighbour_normed_area": 0.95624018457431215, 
        "centroid_x": 73.465879265091857, 
        "centroid_y": 534.78608923884519, 
        "neighbours": [
            930, 
            763, 
            741, 
            873, 
            778, 
            853, 
            923
        ], 
        "norm_area": 1.0551928783497864, 
        "num_neighbours": 7
    }, 
    "897": {
        "area": 1185, 
        "av_neighbour_normed_area": 0.95826775944828424, 
        "centroid_x": 134.5831223628692, 
        "centroid_y": 516.21265822784812, 
        "neighbours": [
            904, 
            873, 
            1001, 
            841, 
            1016, 
            830
        ], 
        "norm_area": 1.2552966101815837, 
        "num_neighbours": 6
    }, 
    "904": {
        "area": 1309, 
        "av_neighbour_normed_area": 1.0607189450445125, 
        "centroid_x": 162.64858670741023, 
        "centroid_y": 541.26890756302521, 
        "neighbours": [
            897, 
            1001, 
            787, 
            659, 
            667, 
            988, 
            830
        ], 
        "norm_area": 1.2593457944043223, 
        "num_neighbours": 7
    }, 
    "923": {
        "area": 612, 
        "av_neighbour_normed_area": 0.92678642919504761, 
        "centroid_x": 75.218954248366018, 
        "centroid_y": 505.58823529411762, 
        "neighbours": [
            993, 
            930, 
            1000, 
            873, 
            881
        ], 
        "norm_area": 0.74816625918020041, 
        "num_neighbours": 5
    }, 
    "926": {
        "area": 1176, 
        "av_neighbour_normed_area": 0.96124187442368481, 
        "centroid_x": 285.31802721088434, 
        "centroid_y": 518.86394557823132, 
        "neighbours": [
            872, 
            972, 
            849, 
            986, 
            1020, 
            826
        ], 
        "norm_area": 1.1047440112847393, 
        "num_neighbours": 6
    }, 
    "927": {
        "area": 861, 
        "av_neighbour_normed_area": 0.85671910094381343, 
        "centroid_x": 418.77700348432057, 
        "centroid_y": 499.27293844367017, 
        "neighbours": [
            0, 
            865, 
            999, 
            936, 
            1038, 
            1013, 
            954
        ], 
        "norm_area": 1.1781071835923511, 
        "num_neighbours": 6
    }, 
    "930": {
        "area": 394, 
        "av_neighbour_normed_area": 0.90753766420861626, 
        "centroid_x": 53.13451776649746, 
        "centroid_y": 505.87563451776651, 
        "neighbours": [
            960, 
            993, 
            881, 
            853, 
            923
        ], 
        "norm_area": 0.53099730459327221, 
        "num_neighbours": 5
    }, 
    "936": {
        "area": 634, 
        "av_neighbour_normed_area": 1.0791613330660335, 
        "centroid_x": 393.96056782334387, 
        "centroid_y": 504.2492113564669, 
        "neighbours": [
            865, 
            1003, 
            1013, 
            927
        ], 
        "norm_area": 0.63241895263003489, 
        "num_neighbours": 4
    }, 
    "942": {
        "area": 818, 
        "av_neighbour_normed_area": 1.295420365950867, 
        "centroid_x": 350.04767726161367, 
        "centroid_y": 513.43765281173592, 
        "neighbours": [
            1003, 
            718, 
            849, 
            1102, 
            986
        ], 
        "norm_area": 0.59035796767861715, 
        "num_neighbours": 5
    }, 
    "954": {
        "area": 373, 
        "av_neighbour_normed_area": 1.1085443174346761, 
        "centroid_x": 441.87131367292227, 
        "centroid_y": 503.23592493297588, 
        "neighbours": [
            0, 
            927, 
            999
        ], 
        "norm_area": 0.49014454666159657, 
        "num_neighbours": 2
    }, 
    "960": {
        "area": 1024, 
        "av_neighbour_normed_area": 0.7581516054788795, 
        "centroid_x": 35.6357421875, 
        "centroid_y": 501.62109375, 
        "neighbours": [
            993, 
            930, 
            0, 
            1138, 
            853
        ], 
        "norm_area": 1.2161520190154158, 
        "num_neighbours": 4
    }, 
    "965": {
        "area": 1354, 
        "av_neighbour_normed_area": 0.9621920653581526, 
        "centroid_x": 219.09084194977842, 
        "centroid_y": 502.59675036927621, 
        "neighbours": [
            1026, 
            774, 
            872, 
            1097, 
            972, 
            876, 
            988
        ], 
        "norm_area": 1.3503348055397821, 
        "num_neighbours": 7
    }, 
    "972": {
        "area": 927, 
        "av_neighbour_normed_area": 1.0980146134447135, 
        "centroid_x": 248.873786407767, 
        "centroid_y": 497.8133764832794, 
        "neighbours": [
            965, 
            872, 
            1097, 
            1019, 
            1020, 
            926
        ], 
        "norm_area": 0.76548307185272924, 
        "num_neighbours": 6
    }, 
    "986": {
        "area": 1184, 
        "av_neighbour_normed_area": 0.92633739041130769, 
        "centroid_x": 322.47297297297297, 
        "centroid_y": 499.76266891891891, 
        "neighbours": [
            942, 
            1102, 
            849, 
            1054, 
            1020, 
            926
        ], 
        "norm_area": 1.0905741480007645, 
        "num_neighbours": 6
    }, 
    "988": {
        "area": 1249, 
        "av_neighbour_normed_area": 0.9144411413045852, 
        "centroid_x": 184.76941553242594, 
        "centroid_y": 498.9007205764612, 
        "neighbours": [
            1026, 
            965, 
            904, 
            1001, 
            876, 
            787, 
            1048, 
            831
        ], 
        "norm_area": 1.3435525077432915, 
        "num_neighbours": 8
    }, 
    "993": {
        "area": 802, 
        "av_neighbour_normed_area": 0.91097858711324031, 
        "centroid_x": 59.365336658354117, 
        "centroid_y": 478.75935162094765, 
        "neighbours": [
            960, 
            930, 
            1000, 
            1098, 
            1138, 
            923
        ], 
        "norm_area": 0.76624203822783754, 
        "num_neighbours": 6
    }, 
    "999": {
        "area": 661, 
        "av_neighbour_normed_area": 0.88467777740227993, 
        "centroid_x": 445.93192133131618, 
        "centroid_y": 480.90317700453858, 
        "neighbours": [
            0, 
            1038, 
            1043, 
            1111, 
            954, 
            927
        ], 
        "norm_area": 1.0389814523855454, 
        "num_neighbours": 5
    }, 
    "1000": {
        "area": 982, 
        "av_neighbour_normed_area": 0.99842150949215636, 
        "centroid_x": 84.271894093686356, 
        "centroid_y": 476.06109979633402, 
        "neighbours": [
            993, 
            873, 
            1098, 
            1064, 
            923, 
            1183
        ], 
        "norm_area": 0.93568365889674288, 
        "num_neighbours": 6
    }, 
    "1001": {
        "area": 1051, 
        "av_neighbour_normed_area": 1.065120539478343, 
        "centroid_x": 156.11322549952428, 
        "centroid_y": 484.82683158896288, 
        "neighbours": [
            897, 
            1155, 
            904, 
            1131, 
            1048, 
            1016, 
            988
        ], 
        "norm_area": 1.0222314853525747, 
        "num_neighbours": 7
    }, 
    "1003": {
        "area": 1386, 
        "av_neighbour_normed_area": 0.94311346240595029, 
        "centroid_x": 369.8246753246753, 
        "centroid_y": 506.84343434343435, 
        "neighbours": [
            718, 
            865, 
            942, 
            936, 
            1102, 
            1013, 
            1052, 
            798
        ], 
        "norm_area": 1.3784186971773122, 
        "num_neighbours": 8
    }, 
    "1013": {
        "area": 757, 
        "av_neighbour_normed_area": 1.0465265849280088, 
        "centroid_x": 393.11360634081905, 
        "centroid_y": 479.25891677675031, 
        "neighbours": [
            936, 
            1003, 
            1038, 
            1071, 
            1052, 
            927
        ], 
        "norm_area": 0.81136120044007687, 
        "num_neighbours": 6
    }, 
    "1016": {
        "area": 988, 
        "av_neighbour_normed_area": 1.0823177794824279, 
        "centroid_x": 127.18421052631579, 
        "centroid_y": 487.07489878542509, 
        "neighbours": [
            897, 
            1064, 
            873, 
            1131, 
            1001
        ], 
        "norm_area": 0.96957801767631591, 
        "num_neighbours": 5
    }, 
    "1019": {
        "area": 1359, 
        "av_neighbour_normed_area": 0.9507186212269173, 
        "centroid_x": 274.72774098601911, 
        "centroid_y": 464.78513612950701, 
        "neighbours": [
            1126, 
            1097, 
            972, 
            1180, 
            1020, 
            1054
        ], 
        "norm_area": 1.1373971265288436, 
        "num_neighbours": 6
    }, 
    "1020": {
        "area": 1036, 
        "av_neighbour_normed_area": 1.0268317398903692, 
        "centroid_x": 284.29247104247105, 
        "centroid_y": 489.8899613899614, 
        "neighbours": [
            972, 
            1054, 
            986, 
            1019, 
            926
        ], 
        "norm_area": 0.88110222828187612, 
        "num_neighbours": 5
    }, 
    "1026": {
        "area": 1322, 
        "av_neighbour_normed_area": 1.056743134969611, 
        "centroid_x": 208.36611195158849, 
        "centroid_y": 460.37216338880484, 
        "neighbours": [
            1156, 
            965, 
            1097, 
            1233, 
            1048, 
            988
        ], 
        "norm_area": 1.20914634147543, 
        "num_neighbours": 6
    }, 
    "1038": {
        "area": 954, 
        "av_neighbour_normed_area": 1.0265142640646541, 
        "centroid_x": 423.88259958071279, 
        "centroid_y": 464.01048218029348, 
        "neighbours": [
            1153, 
            999, 
            1071, 
            1013, 
            1111, 
            927
        ], 
        "norm_area": 1.2186502022687908, 
        "num_neighbours": 6
    }, 
    "1043": {
        "area": 384, 
        "av_neighbour_normed_area": 0.9853719986558348, 
        "centroid_x": 457.5625, 
        "centroid_y": 467.92447916666669, 
        "neighbours": [
            0, 
            999, 
            1111
        ], 
        "norm_area": 0.60472440946184258, 
        "num_neighbours": 2
    }, 
    "1048": {
        "area": 769, 
        "av_neighbour_normed_area": 1.1534446837006753, 
        "centroid_x": 182.15084525357608, 
        "centroid_y": 461.53706111833549, 
        "neighbours": [
            1026, 
            1155, 
            1156, 
            1001, 
            988
        ], 
        "norm_area": 0.69229384228722191, 
        "num_neighbours": 5
    }, 
    "1052": {
        "area": 868, 
        "av_neighbour_normed_area": 1.0021866147378216, 
        "centroid_x": 370.16705069124424, 
        "centroid_y": 455.17050691244242, 
        "neighbours": [
            1184, 
            1003, 
            1102, 
            1071, 
            1013
        ], 
        "norm_area": 0.86368159205152839, 
        "num_neighbours": 5
    }, 
    "1054": {
        "area": 1233, 
        "av_neighbour_normed_area": 1.0177380409297585, 
        "centroid_x": 317.75263584752634, 
        "centroid_y": 469.13138686131384, 
        "neighbours": [
            1126, 
            1102, 
            986, 
            1019, 
            1020
        ], 
        "norm_area": 1.0359603428116013, 
        "num_neighbours": 5
    }, 
    "1064": {
        "area": 792, 
        "av_neighbour_normed_area": 1.1287750798752449, 
        "centroid_x": 110.85606060606061, 
        "centroid_y": 471.11994949494948, 
        "neighbours": [
            873, 
            1131, 
            1000, 
            1016, 
            1183
        ], 
        "norm_area": 0.73715562175384219, 
        "num_neighbours": 5
    }, 
    "1071": {
        "area": 895, 
        "av_neighbour_normed_area": 0.96925937086771408, 
        "centroid_x": 395.90502793296088, 
        "centroid_y": 451.03351955307261, 
        "neighbours": [
            1184, 
            1153, 
            1038, 
            1199, 
            1013, 
            1052
        ], 
        "norm_area": 1.0078828828945627, 
        "num_neighbours": 6
    }, 
    "1097": {
        "area": 1293, 
        "av_neighbour_normed_area": 1.0472946302850927, 
        "centroid_x": 236.72467130703791, 
        "centroid_y": 457.87238979118331, 
        "neighbours": [
            1026, 
            965, 
            972, 
            1200, 
            1233, 
            1019, 
            1180
        ], 
        "norm_area": 1.0485403151180781, 
        "num_neighbours": 7
    }, 
    "1098": {
        "area": 1606, 
        "av_neighbour_normed_area": 1.0129852664284671, 
        "centroid_x": 59.862391033623908, 
        "centroid_y": 416.9788293897883, 
        "neighbours": [
            993, 
            1282, 
            1508, 
            1000, 
            1232, 
            1138, 
            1183
        ], 
        "norm_area": 1.0514403292296091, 
        "num_neighbours": 7
    }, 
    "1102": {
        "area": 1014, 
        "av_neighbour_normed_area": 0.99093349645692685, 
        "centroid_x": 348.92307692307691, 
        "centroid_y": 463.07100591715977, 
        "neighbours": [
            1184, 
            1126, 
            1003, 
            942, 
            986, 
            1052, 
            1054
        ], 
        "norm_area": 0.90767263428239642, 
        "num_neighbours": 7
    }, 
    "1111": {
        "area": 609, 
        "av_neighbour_normed_area": 0.90413132143927433, 
        "centroid_x": 454.53366174055827, 
        "centroid_y": 448.15106732348113, 
        "neighbours": [
            0, 
            1185, 
            1153, 
            999, 
            1038, 
            1043
        ], 
        "norm_area": 0.93176254591149621, 
        "num_neighbours": 5
    }, 
    "1126": {
        "area": 1358, 
        "av_neighbour_normed_area": 0.9987042922752507, 
        "centroid_x": 317.36671575846833, 
        "centroid_y": 436.32916053019147, 
        "neighbours": [
            1184, 
            1102, 
            1295, 
            1239, 
            1019, 
            1180, 
            1054
        ], 
        "norm_area": 1.07194406857265, 
        "num_neighbours": 7
    }, 
    "1131": {
        "area": 917, 
        "av_neighbour_normed_area": 0.897266184215878, 
        "centroid_x": 131.453653217012, 
        "centroid_y": 448.96510359869137, 
        "neighbours": [
            1155, 
            1064, 
            1001, 
            1229, 
            1167, 
            1016, 
            1183
        ], 
        "norm_area": 1.0510889143720714, 
        "num_neighbours": 7
    }, 
    "1138": {
        "area": 1662, 
        "av_neighbour_normed_area": 1.1706254446395941, 
        "centroid_x": 38.12154031287605, 
        "centroid_y": 445.18050541516243, 
        "neighbours": [
            0, 
            993, 
            1282, 
            960, 
            1098
        ], 
        "norm_area": 0.98343195267518047, 
        "num_neighbours": 4
    }, 
    "1153": {
        "area": 914, 
        "av_neighbour_normed_area": 0.9075079223815854, 
        "centroid_x": 426.63019693654269, 
        "centroid_y": 432.72866520787744, 
        "neighbours": [
            1253, 
            1185, 
            1111, 
            1038, 
            1071, 
            1271, 
            1199
        ], 
        "norm_area": 1.190990320190406, 
        "num_neighbours": 7
    }, 
    "1155": {
        "area": 780, 
        "av_neighbour_normed_area": 0.95021918970002117, 
        "centroid_x": 162.84230769230768, 
        "centroid_y": 447.91153846153844, 
        "neighbours": [
            1156, 
            1223, 
            1001, 
            1131, 
            1167, 
            1048
        ], 
        "norm_area": 0.88468809074871457, 
        "num_neighbours": 6
    }, 
    "1156": {
        "area": 1152, 
        "av_neighbour_normed_area": 0.84642097272542927, 
        "centroid_x": 187.96961805555554, 
        "centroid_y": 423.71527777777777, 
        "neighbours": [
            1026, 
            1155, 
            1223, 
            1233, 
            1330, 
            1048
        ], 
        "norm_area": 1.3076049943368104, 
        "num_neighbours": 6
    }, 
    "1167": {
        "area": 568, 
        "av_neighbour_normed_area": 0.82728034276410267, 
        "centroid_x": 144.94014084507043, 
        "centroid_y": 429.79753521126759, 
        "neighbours": [
            1251, 
            1223, 
            1131, 
            1229, 
            1155
        ], 
        "norm_area": 0.71953382316826708, 
        "num_neighbours": 5
    }, 
    "1180": {
        "area": 1322, 
        "av_neighbour_normed_area": 1.1581803209259802, 
        "centroid_x": 271.83207261724658, 
        "centroid_y": 436.61422087745842, 
        "neighbours": [
            1126, 
            1097, 
            1295, 
            1200, 
            1019
        ], 
        "norm_area": 0.90128170167528776, 
        "num_neighbours": 5
    }, 
    "1183": {
        "area": 1335, 
        "av_neighbour_normed_area": 0.83976682256614088, 
        "centroid_x": 93.370037453183514, 
        "centroid_y": 441.75505617977529, 
        "neighbours": [
            1319, 
            1064, 
            1098, 
            1131, 
            1229, 
            1232, 
            1000
        ], 
        "norm_area": 1.3417085427254845, 
        "num_neighbours": 7
    }, 
    "1184": {
        "area": 973, 
        "av_neighbour_normed_area": 0.98219554443521428, 
        "centroid_x": 359.28982528263106, 
        "centroid_y": 426.44501541623845, 
        "neighbours": [
            1126, 
            1261, 
            1102, 
            1071, 
            1239, 
            1199, 
            1052
        ], 
        "norm_area": 0.90559765989694718, 
        "num_neighbours": 7
    }, 
    "1185": {
        "area": 355, 
        "av_neighbour_normed_area": 1.0229785311671098, 
        "centroid_x": 455.59154929577466, 
        "centroid_y": 430.95492957746478, 
        "neighbours": [
            1153, 
            1111, 
            0, 
            1271
        ], 
        "norm_area": 0.46731022379391834, 
        "num_neighbours": 3
    }, 
    "1199": {
        "area": 862, 
        "av_neighbour_normed_area": 1.086670024136781, 
        "centroid_x": 398.99883990719258, 
        "centroid_y": 419.56032482598607, 
        "neighbours": [
            1184, 
            1153, 
            1253, 
            1318, 
            1261, 
            1071
        ], 
        "norm_area": 0.82527525132779478, 
        "num_neighbours": 6
    }, 
    "1200": {
        "area": 1605, 
        "av_neighbour_normed_area": 0.88891371173888778, 
        "centroid_x": 229.81682242990655, 
        "centroid_y": 404.1682242990654, 
        "neighbours": [
            1376, 
            1097, 
            1295, 
            1233, 
            1330, 
            1397, 
            1180
        ], 
        "norm_area": 1.3692870201216452, 
        "num_neighbours": 7
    }, 
    "1223": {
        "area": 833, 
        "av_neighbour_normed_area": 0.92124900702619694, 
        "centroid_x": 163.99279711884753, 
        "centroid_y": 407.63385354141656, 
        "neighbours": [
            1251, 
            1156, 
            1167, 
            1330, 
            1155, 
            1428
        ], 
        "norm_area": 0.90856207963340119, 
        "num_neighbours": 6
    }, 
    "1229": {
        "area": 593, 
        "av_neighbour_normed_area": 0.94797669733439405, 
        "centroid_x": 118.86509274873525, 
        "centroid_y": 420.48060708263068, 
        "neighbours": [
            1251, 
            1319, 
            1131, 
            1167, 
            1183
        ], 
        "norm_area": 0.60596770898321273, 
        "num_neighbours": 5
    }, 
    "1232": {
        "area": 826, 
        "av_neighbour_normed_area": 1.0485487996143994, 
        "centroid_x": 78.466101694915253, 
        "centroid_y": 412.63317191283295, 
        "neighbours": [
            1098, 
            1183, 
            1508, 
            1319
        ], 
        "norm_area": 0.55557423912354631, 
        "num_neighbours": 4
    }, 
    "1233": {
        "area": 743, 
        "av_neighbour_normed_area": 1.1440563614225823, 
        "centroid_x": 212.99865410497981, 
        "centroid_y": 418.95962314939436, 
        "neighbours": [
            1026, 
            1156, 
            1097, 
            1200, 
            1330
        ], 
        "norm_area": 0.59813234584922559, 
        "num_neighbours": 5
    }, 
    "1239": {
        "area": 1248, 
        "av_neighbour_normed_area": 1.0932016119412096, 
        "centroid_x": 318.76602564102564, 
        "centroid_y": 404.70512820512823, 
        "neighbours": [
            1184, 
            1126, 
            1355, 
            1261, 
            1295, 
            1392
        ], 
        "norm_area": 0.93928750628351743, 
        "num_neighbours": 6
    }, 
    "1251": {
        "area": 824, 
        "av_neighbour_normed_area": 1.012512508236727, 
        "centroid_x": 133.82645631067962, 
        "centroid_y": 401.753640776699, 
        "neighbours": [
            1223, 
            1319, 
            1229, 
            1167, 
            1428, 
            1594
        ], 
        "norm_area": 0.68609492091039403, 
        "num_neighbours": 6
    }, 
    "1253": {
        "area": 941, 
        "av_neighbour_normed_area": 1.1463970497073634, 
        "centroid_x": 426.21253985122212, 
        "centroid_y": 401.86928799149842, 
        "neighbours": [
            1153, 
            1318, 
            1449, 
            1199, 
            1271, 
            1401
        ], 
        "norm_area": 0.95549162295963785, 
        "num_neighbours": 6
    }, 
    "1261": {
        "area": 1276, 
        "av_neighbour_normed_area": 0.86843607091892538, 
        "centroid_x": 363.71081504702192, 
        "centroid_y": 401.96081504702192, 
        "neighbours": [
            1184, 
            1473, 
            1318, 
            1199, 
            1392, 
            1239
        ], 
        "norm_area": 1.2596248766162454, 
        "num_neighbours": 6
    }, 
    "1271": {
        "area": 756, 
        "av_neighbour_normed_area": 1.0253490182719609, 
        "centroid_x": 454.98544973544972, 
        "centroid_y": 409.89814814814815, 
        "neighbours": [
            0, 
            1153, 
            1253, 
            1185, 
            1449, 
            1337
        ], 
        "norm_area": 0.94618272842240547, 
        "num_neighbours": 5
    }, 
    "1282": {
        "area": 3328, 
        "av_neighbour_normed_area": 0.92430783607997136, 
        "centroid_x": 61.4765625, 
        "centroid_y": 335.19831730769232, 
        "neighbours": [
            0, 
            1795, 
            1508, 
            1098, 
            1138, 
            1757
        ], 
        "norm_area": 1.6486673932561389, 
        "num_neighbours": 5
    }, 
    "1295": {
        "area": 1719, 
        "av_neighbour_normed_area": 1.1327601304471009, 
        "centroid_x": 269.86096567771961, 
        "centroid_y": 404.90575916230364, 
        "neighbours": [
            1376, 
            1379, 
            1126, 
            1355, 
            1200, 
            1239, 
            1180
        ], 
        "norm_area": 1.1637330754468656, 
        "num_neighbours": 7
    }, 
    "1318": {
        "area": 1268, 
        "av_neighbour_normed_area": 0.95915180232095965, 
        "centroid_x": 394.91561514195581, 
        "centroid_y": 382.47397476340694, 
        "neighbours": [
            1473, 
            1253, 
            1261, 
            1199, 
            1488, 
            1401, 
            1598
        ], 
        "norm_area": 1.2004327833495563, 
        "num_neighbours": 7
    }, 
    "1319": {
        "area": 1249, 
        "av_neighbour_normed_area": 0.96743658789625786, 
        "centroid_x": 99.736589271417131, 
        "centroid_y": 391.32506004803844, 
        "neighbours": [
            1251, 
            1508, 
            1229, 
            1232, 
            1594, 
            1183
        ], 
        "norm_area": 0.94145728644372995, 
        "num_neighbours": 6
    }, 
    "1330": {
        "area": 839, 
        "av_neighbour_normed_area": 0.97945154117087552, 
        "centroid_x": 185.83790226460073, 
        "centroid_y": 387.41477949940406, 
        "neighbours": [
            1156, 
            1223, 
            1200, 
            1233, 
            1428, 
            1397
        ], 
        "norm_area": 0.78570313720500395, 
        "num_neighbours": 6
    }, 
    "1337": {
        "area": 467, 
        "av_neighbour_normed_area": 1.2466316378829301, 
        "centroid_x": 462.60599571734474, 
        "centroid_y": 388.38543897216272, 
        "neighbours": [
            0, 
            1271, 
            1357, 
            1449
        ], 
        "norm_area": 0.56720647774468425, 
        "num_neighbours": 3
    }, 
    "1355": {
        "area": 2125, 
        "av_neighbour_normed_area": 0.82060267922764785, 
        "centroid_x": 307.89694117647059, 
        "centroid_y": 365.72847058823527, 
        "neighbours": [
            1536, 
            1473, 
            1707, 
            1295, 
            1392, 
            1651, 
            1239, 
            1379
        ], 
        "norm_area": 1.8023748939902002, 
        "num_neighbours": 8
    }, 
    "1357": {
        "area": 396, 
        "av_neighbour_normed_area": 0.56720647717747774, 
        "centroid_x": 485.51767676767679, 
        "centroid_y": 385.62878787878788, 
        "neighbours": [
            0, 
            1337
        ], 
        "norm_area": 0.84796573877650971, 
        "num_neighbours": 1
    }, 
    "1376": {
        "area": 1553, 
        "av_neighbour_normed_area": 0.99187170504840583, 
        "centroid_x": 231.44494526722474, 
        "centroid_y": 363.03799098518994, 
        "neighbours": [
            1379, 
            1572, 
            1515, 
            1295, 
            1200, 
            1397, 
            1535
        ], 
        "norm_area": 1.1757516764122853, 
        "num_neighbours": 7
    }, 
    "1379": {
        "area": 1129, 
        "av_neighbour_normed_area": 1.3056201820639568, 
        "centroid_x": 269.27369353410097, 
        "centroid_y": 369.67759078830824, 
        "neighbours": [
            1376, 
            1355, 
            1295, 
            1651, 
            1515
        ], 
        "norm_area": 0.66939404720688012, 
        "num_neighbours": 5
    }, 
    "1392": {
        "area": 521, 
        "av_neighbour_normed_area": 1.2463438507375602, 
        "centroid_x": 338.36660268714013, 
        "centroid_y": 382.89635316698656, 
        "neighbours": [
            1473, 
            1355, 
            1261, 
            1239
        ], 
        "norm_area": 0.35593509821755082, 
        "num_neighbours": 4
    }, 
    "1397": {
        "area": 736, 
        "av_neighbour_normed_area": 1.1223139000969116, 
        "centroid_x": 198.12635869565219, 
        "centroid_y": 368.55570652173913, 
        "neighbours": [
            1376, 
            1200, 
            1330, 
            1428, 
            1535
        ], 
        "norm_area": 0.54925373135438216, 
        "num_neighbours": 5
    }, 
    "1401": {
        "area": 791, 
        "av_neighbour_normed_area": 1.1238065107964419, 
        "centroid_x": 420.57142857142856, 
        "centroid_y": 368.03666245259166, 
        "neighbours": [
            1253, 
            1318, 
            1449, 
            1574, 
            1488
        ], 
        "norm_area": 0.76975476840390999, 
        "num_neighbours": 5
    }, 
    "1428": {
        "area": 1338, 
        "av_neighbour_normed_area": 0.91486357941892282, 
        "centroid_x": 155.39611360239164, 
        "centroid_y": 372.99626307922273, 
        "neighbours": [
            1251, 
            1223, 
            1519, 
            1330, 
            1397, 
            1594, 
            1535
        ], 
        "norm_area": 1.1438690767092405, 
        "num_neighbours": 7
    }, 
    "1449": {
        "area": 1318, 
        "av_neighbour_normed_area": 0.73781023621452579, 
        "centroid_x": 450.7981790591806, 
        "centroid_y": 365.81411229135051, 
        "neighbours": [
            0, 
            1569, 
            1253, 
            1574, 
            1271, 
            1558, 
            1337, 
            1401, 
            1501
        ], 
        "norm_area": 1.9457464476965065, 
        "num_neighbours": 8
    }, 
    "1473": {
        "area": 1206, 
        "av_neighbour_normed_area": 1.041904329238744, 
        "centroid_x": 356.65671641791045, 
        "centroid_y": 367.70729684908787, 
        "neighbours": [
            1536, 
            1318, 
            1355, 
            1261, 
            1392, 
            1598
        ], 
        "norm_area": 0.98408812730662176, 
        "num_neighbours": 6
    }, 
    "1488": {
        "area": 869, 
        "av_neighbour_normed_area": 1.0967436601200165, 
        "centroid_x": 396.67663981588032, 
        "centroid_y": 346.27733026467206, 
        "neighbours": [
            1318, 
            1574, 
            1401, 
            1629, 
            1598
        ], 
        "norm_area": 0.7397003745433145, 
        "num_neighbours": 5
    }, 
    "1501": {
        "area": 526, 
        "av_neighbour_normed_area": 1.6310749059255305, 
        "centroid_x": 485.05133079847911, 
        "centroid_y": 350.60646387832702, 
        "neighbours": [
            0, 
            1449, 
            1802, 
            1581, 
            1558
        ], 
        "norm_area": 0.42505050506156766, 
        "num_neighbours": 4
    }, 
    "1508": {
        "area": 1757, 
        "av_neighbour_normed_area": 1.1639878836681585, 
        "centroid_x": 83.655093910073987, 
        "centroid_y": 352.73306772908364, 
        "neighbours": [
            1282, 
            1319, 
            1098, 
            1232, 
            1594, 
            1757
        ], 
        "norm_area": 0.85958904110732304, 
        "num_neighbours": 6
    }, 
    "1515": {
        "area": 1557, 
        "av_neighbour_normed_area": 0.86291051868065904, 
        "centroid_x": 245.86062941554272, 
        "centroid_y": 321.63134232498396, 
        "neighbours": [
            1376, 
            1675, 
            1572, 
            1774, 
            1651, 
            1815, 
            1379
        ], 
        "norm_area": 1.2822352941294788, 
        "num_neighbours": 7
    }, 
    "1519": {
        "area": 966, 
        "av_neighbour_normed_area": 1.1367953530631771, 
        "centroid_x": 158.60869565217391, 
        "centroid_y": 335.94409937888202, 
        "neighbours": [
            1428, 
            1780, 
            1594, 
            1723, 
            1535
        ], 
        "norm_area": 0.58178752109042153, 
        "num_neighbours": 5
    }, 
    "1535": {
        "area": 1365, 
        "av_neighbour_normed_area": 0.8696374470315783, 
        "centroid_x": 190.82930402930404, 
        "centroid_y": 337.75164835164833, 
        "neighbours": [
            1376, 
            1572, 
            1519, 
            1428, 
            1397, 
            1815, 
            1723
        ], 
        "norm_area": 1.1369585911586972, 
        "num_neighbours": 7
    }, 
    "1536": {
        "area": 714, 
        "av_neighbour_normed_area": 1.205326386201897, 
        "centroid_x": 338.85854341736695, 
        "centroid_y": 335.16106442577029, 
        "neighbours": [
            1473, 
            1699, 
            1707, 
            1355, 
            1598
        ], 
        "norm_area": 0.45293072825246894, 
        "num_neighbours": 5
    }, 
    "1558": {
        "area": 536, 
        "av_neighbour_normed_area": 0.97725555245725459, 
        "centroid_x": 472.70895522388059, 
        "centroid_y": 324.34701492537312, 
        "neighbours": [
            0, 
            1569, 
            1449, 
            1581, 
            1501, 
            1661
        ], 
        "norm_area": 0.67523305619678753, 
        "num_neighbours": 5
    }, 
    "1569": {
        "area": 660, 
        "av_neighbour_normed_area": 1.0938384014849567, 
        "centroid_x": 452.07727272727271, 
        "centroid_y": 333.43484848484849, 
        "neighbours": [
            1574, 
            1449, 
            1611, 
            1558, 
            1661
        ], 
        "norm_area": 0.78590140510802342, 
        "num_neighbours": 5
    }, 
    "1572": {
        "area": 1135, 
        "av_neighbour_normed_area": 1.1505039892796052, 
        "centroid_x": 219.76740088105726, 
        "centroid_y": 321.95859030837005, 
        "neighbours": [
            1376, 
            1515, 
            1535, 
            1815
        ], 
        "norm_area": 0.77224017691276403, 
        "num_neighbours": 4
    }, 
    "1574": {
        "area": 742, 
        "av_neighbour_normed_area": 1.0498774496047945, 
        "centroid_x": 422.51482479784369, 
        "centroid_y": 338.55525606469001, 
        "neighbours": [
            1569, 
            1449, 
            1642, 
            1611, 
            1488, 
            1401, 
            1629
        ], 
        "norm_area": 0.77766132655700104, 
        "num_neighbours": 7
    }, 
    "1581": {
        "area": 424, 
        "av_neighbour_normed_area": 1.5543167421308601, 
        "centroid_x": 486.70518867924528, 
        "centroid_y": 327.90566037735852, 
        "neighbours": [
            0, 
            1802, 
            1558, 
            1501
        ], 
        "norm_area": 0.34065345475136044, 
        "num_neighbours": 3
    }, 
    "1594": {
        "area": 2625, 
        "av_neighbour_normed_area": 0.86198218529580151, 
        "centroid_x": 122.34438095238096, 
        "centroid_y": 348.99809523809523, 
        "neighbours": [
            1251, 
            1508, 
            1319, 
            1519, 
            1428, 
            1780, 
            1757
        ], 
        "norm_area": 1.7556850754950231, 
        "num_neighbours": 7
    }, 
    "1598": {
        "area": 1449, 
        "av_neighbour_normed_area": 1.0162480457270107, 
        "centroid_x": 369.14906832298135, 
        "centroid_y": 334.16839199447895, 
        "neighbours": [
            1536, 
            1473, 
            1699, 
            1318, 
            1488, 
            1629
        ], 
        "norm_area": 1.1801275960483453, 
        "num_neighbours": 6
    }, 
    "1611": {
        "area": 562, 
        "av_neighbour_normed_area": 0.95579019478168015, 
        "centroid_x": 440.91992882562278, 
        "centroid_y": 316.6886120996441, 
        "neighbours": [
            1569, 
            1642, 
            1661, 
            1574
        ], 
        "norm_area": 0.68162522742225595, 
        "num_neighbours": 4
    }, 
    "1629": {
        "area": 1624, 
        "av_neighbour_normed_area": 0.86027372736387153, 
        "centroid_x": 399.36330049261085, 
        "centroid_y": 299.88854679802955, 
        "neighbours": [
            1699, 
            1574, 
            1642, 
            1853, 
            1488, 
            1783, 
            1852, 
            1598
        ], 
        "norm_area": 1.5557418273380133, 
        "num_neighbours": 8
    }, 
    "1642": {
        "area": 855, 
        "av_neighbour_normed_area": 1.0225077336602486, 
        "centroid_x": 424.7812865497076, 
        "centroid_y": 301.940350877193, 
        "neighbours": [
            1574, 
            1611, 
            1629, 
            1853, 
            1661
        ], 
        "norm_area": 0.87067209777141552, 
        "num_neighbours": 5
    }, 
    "1651": {
        "area": 1479, 
        "av_neighbour_normed_area": 0.9749567335886925, 
        "centroid_x": 280.62609871534823, 
        "centroid_y": 330.85936443542937, 
        "neighbours": [
            1675, 
            1707, 
            1770, 
            1355, 
            1379, 
            1515
        ], 
        "norm_area": 1.1040059716465749, 
        "num_neighbours": 6
    }, 
    "1661": {
        "area": 1041, 
        "av_neighbour_normed_area": 0.71282327042824212, 
        "centroid_x": 454.7098943323727, 
        "centroid_y": 294.05091258405378, 
        "neighbours": [
            0, 
            1569, 
            1642, 
            1611, 
            1853, 
            1558, 
            1880
        ], 
        "norm_area": 1.3889259506460707, 
        "num_neighbours": 6
    }, 
    "1675": {
        "area": 891, 
        "av_neighbour_normed_area": 1.0229307686111051, 
        "centroid_x": 261.67564534231201, 
        "centroid_y": 295.42312008978678, 
        "neighbours": [
            1515, 
            1770, 
            1774, 
            1651, 
            1882, 
            1917
        ], 
        "norm_area": 0.6207617278326788, 
        "num_neighbours": 6
    }, 
    "1699": {
        "area": 1686, 
        "av_neighbour_normed_area": 1.0638009512402051, 
        "centroid_x": 356.13463819691577, 
        "centroid_y": 298.16725978647685, 
        "neighbours": [
            1536, 
            1924, 
            1707, 
            1629, 
            1783, 
            1917, 
            1598
        ], 
        "norm_area": 1.1645944345883363, 
        "num_neighbours": 7
    }, 
    "1707": {
        "area": 1416, 
        "av_neighbour_normed_area": 1.1401370889772688, 
        "centroid_x": 315.95197740112997, 
        "centroid_y": 315.26341807909603, 
        "neighbours": [
            1536, 
            1699, 
            1770, 
            1651, 
            1355, 
            1917
        ], 
        "norm_area": 0.89544688028130692, 
        "num_neighbours": 6
    }, 
    "1723": {
        "area": 1272, 
        "av_neighbour_normed_area": 0.91440326160637408, 
        "centroid_x": 172.49842767295598, 
        "centroid_y": 302.4182389937107, 
        "neighbours": [
            1519, 
            1843, 
            1780, 
            1815, 
            1535
        ], 
        "norm_area": 0.85748955104312941, 
        "num_neighbours": 5
    }, 
    "1757": {
        "area": 2630, 
        "av_neighbour_normed_area": 1.1845658596862461, 
        "centroid_x": 111.14562737642585, 
        "centroid_y": 284.26653992395438, 
        "neighbours": [
            1282, 
            1795, 
            1508, 
            1780, 
            1594, 
            2078
        ], 
        "norm_area": 1.0311029796248916, 
        "num_neighbours": 6
    }, 
    "1770": {
        "area": 920, 
        "av_neighbour_normed_area": 1.089400881532691, 
        "centroid_x": 292.28369565217389, 
        "centroid_y": 292.85108695652173, 
        "neighbours": [
            1707, 
            1651, 
            1675, 
            1917
        ], 
        "norm_area": 0.57952755906656694, 
        "num_neighbours": 4
    }, 
    "1774": {
        "area": 909, 
        "av_neighbour_normed_area": 0.88354590872650907, 
        "centroid_x": 233.12431243124311, 
        "centroid_y": 271.6820682068207, 
        "neighbours": [
            1515, 
            1675, 
            1815, 
            1882, 
            1915
        ], 
        "norm_area": 0.69114963504787863, 
        "num_neighbours": 5
    }, 
    "1780": {
        "area": 1702, 
        "av_neighbour_normed_area": 1.1066324588231231, 
        "centroid_x": 142.18683901292596, 
        "centroid_y": 291.78907168037603, 
        "neighbours": [
            1519, 
            1843, 
            1594, 
            1723, 
            1757, 
            2078
        ], 
        "norm_area": 0.78997447204659155, 
        "num_neighbours": 6
    }, 
    "1783": {
        "area": 588, 
        "av_neighbour_normed_area": 1.2601683085414515, 
        "centroid_x": 377.21938775510205, 
        "centroid_y": 274.48979591836735, 
        "neighbours": [
            1852, 
            1699, 
            1924, 
            1629
        ], 
        "norm_area": 0.37274167988414897, 
        "num_neighbours": 4
    }, 
    "1795": {
        "area": 2438, 
        "av_neighbour_normed_area": 1.4451558539265119, 
        "centroid_x": 107.8461853978671, 
        "centroid_y": 232.34618539786712, 
        "neighbours": [
            0, 
            1282, 
            2321, 
            1757, 
            2078
        ], 
        "norm_area": 0.69597487868716101, 
        "num_neighbours": 4
    }, 
    "1802": {
        "area": 2672, 
        "av_neighbour_normed_area": 0.42601762738405508, 
        "centroid_x": 505.51758982035926, 
        "centroid_y": 287.90157185628743, 
        "neighbours": [
            0, 
            1581, 
            1974, 
            1501
        ], 
        "norm_area": 3.5626666666885423, 
        "num_neighbours": 3
    }, 
    "1815": {
        "area": 1404, 
        "av_neighbour_normed_area": 0.93724049944040289, 
        "centroid_x": 203.43091168091169, 
        "centroid_y": 285.97150997150999, 
        "neighbours": [
            1723, 
            1572, 
            1515, 
            1774, 
            1843, 
            1915, 
            1535
        ], 
        "norm_area": 1.0070703965684629, 
        "num_neighbours": 7
    }, 
    "1843": {
        "area": 1980, 
        "av_neighbour_normed_area": 0.95528472761174321, 
        "centroid_x": 174.2348484848485, 
        "centroid_y": 255.43737373737375, 
        "neighbours": [
            1723, 
            1780, 
            1815, 
            1915, 
            2078
        ], 
        "norm_area": 1.0562253280821008, 
        "num_neighbours": 5
    }, 
    "1852": {
        "area": 1221, 
        "av_neighbour_normed_area": 0.83620720032060669, 
        "centroid_x": 393.38902538902539, 
        "centroid_y": 242.41687141687143, 
        "neighbours": [
            1924, 
            1958, 
            2088, 
            1783, 
            1629, 
            1911, 
            1853
        ], 
        "norm_area": 1.0681079730182741, 
        "num_neighbours": 7
    }, 
    "1853": {
        "area": 941, 
        "av_neighbour_normed_area": 1.1121224416179518, 
        "centroid_x": 422.58448459086077, 
        "centroid_y": 265.21041445270987, 
        "neighbours": [
            2249, 
            1642, 
            1629, 
            1911, 
            1880, 
            1852, 
            1661
        ], 
        "norm_area": 0.70858433736040993, 
        "num_neighbours": 7
    }, 
    "1880": {
        "area": 943, 
        "av_neighbour_normed_area": 1.380318823584056, 
        "centroid_x": 448.35843054082716, 
        "centroid_y": 258.99469777306467, 
        "neighbours": [
            2249, 
            1853, 
            0, 
            1661
        ], 
        "norm_area": 0.5549234994233837, 
        "num_neighbours": 3
    }, 
    "1882": {
        "area": 1183, 
        "av_neighbour_normed_area": 0.93824463310313722, 
        "centroid_x": 258.94082840236689, 
        "centroid_y": 259.91039729501267, 
        "neighbours": [
            2019, 
            1675, 
            1774, 
            1915, 
            1917
        ], 
        "norm_area": 0.7432772053394584, 
        "num_neighbours": 5
    }, 
    "1911": {
        "area": 496, 
        "av_neighbour_normed_area": 1.1419381228133392, 
        "centroid_x": 415.82258064516128, 
        "centroid_y": 239.30645161290323, 
        "neighbours": [
            2088, 
            2249, 
            1852, 
            1853
        ], 
        "norm_area": 0.30303956011462196, 
        "num_neighbours": 4
    }, 
    "1915": {
        "area": 1541, 
        "av_neighbour_normed_area": 0.98413452390225709, 
        "centroid_x": 219.79623621025308, 
        "centroid_y": 242.04802076573654, 
        "neighbours": [
            2019, 
            1815, 
            1774, 
            1843, 
            2231, 
            1882, 
            2078
        ], 
        "norm_area": 0.7643849206460126, 
        "num_neighbours": 7
    }, 
    "1917": {
        "area": 2564, 
        "av_neighbour_normed_area": 0.86539282598059075, 
        "centroid_x": 305.07722308892357, 
        "centroid_y": 263.99102964118566, 
        "neighbours": [
            2019, 
            1924, 
            1707, 
            2087, 
            1992, 
            1770, 
            1675, 
            1699, 
            1882
        ], 
        "norm_area": 1.7373889474596038, 
        "num_neighbours": 9
    }, 
    "1924": {
        "area": 1779, 
        "av_neighbour_normed_area": 0.97631133087524757, 
        "centroid_x": 356.58066329398537, 
        "centroid_y": 252.98988195615513, 
        "neighbours": [
            1699, 
            1958, 
            1992, 
            1783, 
            1852, 
            1917
        ], 
        "norm_area": 1.2522290004813503, 
        "num_neighbours": 6
    }, 
    "1958": {
        "area": 1305, 
        "av_neighbour_normed_area": 0.93473565882862375, 
        "centroid_x": 374.03295019157088, 
        "centroid_y": 211.73716475095785, 
        "neighbours": [
            2212, 
            2088, 
            2284, 
            2095, 
            1992, 
            1924, 
            1852
        ], 
        "norm_area": 0.91350000001130505, 
        "num_neighbours": 7
    }, 
    "1974": {
        "area": 1300, 
        "av_neighbour_normed_area": 2.1121314816237544, 
        "centroid_x": 470.25923076923078, 
        "centroid_y": 205.62076923076924, 
        "neighbours": [
            0, 
            2249, 
            1802, 
            2107
        ], 
        "norm_area": 0.5123489227652549, 
        "num_neighbours": 3
    }, 
    "1992": {
        "area": 1160, 
        "av_neighbour_normed_area": 1.2453553899723548, 
        "centroid_x": 335.89741379310345, 
        "centroid_y": 227.44482758620688, 
        "neighbours": [
            1924, 
            1958, 
            2087, 
            2212, 
            1917
        ], 
        "norm_area": 0.60153495126612944, 
        "num_neighbours": 5
    }, 
    "2019": {
        "area": 2053, 
        "av_neighbour_normed_area": 1.1429670141190746, 
        "centroid_x": 262.42571846078908, 
        "centroid_y": 219.35996103263517, 
        "neighbours": [
            2087, 
            2099, 
            2231, 
            1882, 
            1915, 
            1917
        ], 
        "norm_area": 0.8775379354677566, 
        "num_neighbours": 6
    }, 
    "2078": {
        "area": 3454, 
        "av_neighbour_normed_area": 0.98454860621911233, 
        "centroid_x": 159.59988419224089, 
        "centroid_y": 217.50376375217141, 
        "neighbours": [
            1795, 
            2084, 
            2321, 
            1843, 
            1780, 
            2231, 
            1915, 
            1757
        ], 
        "norm_area": 1.3575042987098052, 
        "num_neighbours": 8
    }, 
    "2084": {
        "area": 2335, 
        "av_neighbour_normed_area": 1.3601500166888403, 
        "centroid_x": 194.90235546038545, 
        "centroid_y": 165.43768736616701, 
        "neighbours": [
            2321, 
            2357, 
            2078, 
            2231
        ], 
        "norm_area": 0.63920065700584938, 
        "num_neighbours": 4
    }, 
    "2087": {
        "area": 2194, 
        "av_neighbour_normed_area": 1.1032584019071281, 
        "centroid_x": 314.93345487693711, 
        "centroid_y": 204.66180492251596, 
        "neighbours": [
            2019, 
            2212, 
            1992, 
            2099, 
            1917, 
            2143
        ], 
        "norm_area": 1.0536257403671265, 
        "num_neighbours": 6
    }, 
    "2088": {
        "area": 1269, 
        "av_neighbour_normed_area": 1.1399201862178563, 
        "centroid_x": 412.31442080378253, 
        "centroid_y": 203.94641449960599, 
        "neighbours": [
            1958, 
            2249, 
            2284, 
            1911, 
            1852
        ], 
        "norm_area": 0.74761399789060445, 
        "num_neighbours": 5
    }, 
    "2095": {
        "area": 422, 
        "av_neighbour_normed_area": 1.1850134921910098, 
        "centroid_x": 376.32938388625593, 
        "centroid_y": 183.67535545023696, 
        "neighbours": [
            2212, 
            2284, 
            1958
        ], 
        "norm_area": 0.23212321233200586, 
        "num_neighbours": 3
    }, 
    "2099": {
        "area": 3426, 
        "av_neighbour_normed_area": 1.014831342817637, 
        "centroid_x": 283.60974897840049, 
        "centroid_y": 169.2320490367776, 
        "neighbours": [
            2019, 
            2087, 
            2311, 
            2357, 
            2231, 
            2143
        ], 
        "norm_area": 1.4029484029607411, 
        "num_neighbours": 6
    }, 
    "2107": {
        "area": 1824, 
        "av_neighbour_normed_area": 1.4801289777434272, 
        "centroid_x": 449.43475877192981, 
        "centroid_y": 152.45778508771929, 
        "neighbours": [
            0, 
            2249, 
            2405, 
            1974
        ], 
        "norm_area": 0.73028159616884691, 
        "num_neighbours": 3
    }, 
    "2143": {
        "area": 1491, 
        "av_neighbour_normed_area": 1.028655212454574, 
        "centroid_x": 331.15492957746477, 
        "centroid_y": 149.52850435949028, 
        "neighbours": [
            2212, 
            2311, 
            2087, 
            2290, 
            2099, 
            2327
        ], 
        "norm_area": 0.73010691260405125, 
        "num_neighbours": 6
    }, 
    "2212": {
        "area": 1800, 
        "av_neighbour_normed_area": 0.77041180422339706, 
        "centroid_x": 354.53666666666669, 
        "centroid_y": 170.07611111111112, 
        "neighbours": [
            1958, 
            2087, 
            1992, 
            2284, 
            2095, 
            2290, 
            2143
        ], 
        "norm_area": 1.2700332627877442, 
        "num_neighbours": 7
    }, 
    "2231": {
        "area": 3129, 
        "av_neighbour_normed_area": 1.0375243947522508, 
        "centroid_x": 230.67625439437521, 
        "centroid_y": 185.66698625759028, 
        "neighbours": [
            2019, 
            2084, 
            2099, 
            2357, 
            1915, 
            2078
        ], 
        "norm_area": 1.1561768690844727, 
        "num_neighbours": 6
    }, 
    "2249": {
        "area": 3116, 
        "av_neighbour_normed_area": 0.85161136945620675, 
        "centroid_x": 433.69993581514763, 
        "centroid_y": 185.67939666238769, 
        "neighbours": [
            0, 
            2405, 
            2088, 
            2284, 
            1974, 
            1911, 
            1880, 
            2107, 
            1853
        ], 
        "norm_area": 2.0434461841260059, 
        "num_neighbours": 8
    }, 
    "2284": {
        "area": 2349, 
        "av_neighbour_normed_area": 1.0831132975254687, 
        "centroid_x": 392.15836526181351, 
        "centroid_y": 155.51596424010216, 
        "neighbours": [
            2212, 
            2405, 
            1958, 
            2088, 
            2249, 
            2095, 
            2290
        ], 
        "norm_area": 1.371507214958994, 
        "num_neighbours": 7
    }, 
    "2290": {
        "area": 1000, 
        "av_neighbour_normed_area": 1.2246216084309689, 
        "centroid_x": 366.83300000000003, 
        "centroid_y": 118.714, 
        "neighbours": [
            2212, 
            2405, 
            2284, 
            2327, 
            2143
        ], 
        "norm_area": 0.49048459879457917, 
        "num_neighbours": 5
    }, 
    "2311": {
        "area": 2356, 
        "av_neighbour_normed_area": 1.0150105741915256, 
        "centroid_x": 300.21604414261458, 
        "centroid_y": 114.11502546689304, 
        "neighbours": [
            2404, 
            2099, 
            2357, 
            2327, 
            2393, 
            2143
        ], 
        "norm_area": 1.0879704456363803, 
        "num_neighbours": 6
    }, 
    "2321": {
        "area": 4600, 
        "av_neighbour_normed_area": 0.9113379486598524, 
        "centroid_x": 193.72043478260869, 
        "centroid_y": 122.52673913043478, 
        "neighbours": [
            0, 
            1795, 
            2404, 
            2357, 
            2084, 
            2078
        ], 
        "norm_area": 1.7433487455603676, 
        "num_neighbours": 5
    }, 
    "2327": {
        "area": 1477, 
        "av_neighbour_normed_area": 0.96501787215570745, 
        "centroid_x": 344.92349356804334, 
        "centroid_y": 97.057549085985102, 
        "neighbours": [
            2405, 
            2311, 
            2415, 
            2290, 
            2393, 
            2143
        ], 
        "norm_area": 0.86686882520952757, 
        "num_neighbours": 6
    }, 
    "2357": {
        "area": 3429, 
        "av_neighbour_normed_area": 1.1183474790293972, 
        "centroid_x": 244.80023330417032, 
        "centroid_y": 120.48235637212015, 
        "neighbours": [
            2404, 
            2311, 
            2321, 
            2099, 
            2231, 
            2084
        ], 
        "norm_area": 1.1835701547608652, 
        "num_neighbours": 6
    }, 
    "2393": {
        "area": 1633, 
        "av_neighbour_normed_area": 0.74057969675680368, 
        "centroid_x": 319.78628291488059, 
        "centroid_y": 72.09308022045316, 
        "neighbours": [
            2457, 
            2404, 
            2311, 
            2415, 
            2327, 
            2458
        ], 
        "norm_area": 1.2261293955820598, 
        "num_neighbours": 6
    }, 
    "2404": {
        "area": 1537, 
        "av_neighbour_normed_area": 1.0852168262544519, 
        "centroid_x": 282.52504879635654, 
        "centroid_y": 60.917371502927779, 
        "neighbours": [
            0, 
            2311, 
            2321, 
            2357, 
            2393, 
            2458, 
            2462
        ], 
        "norm_area": 0.68043975504691945, 
        "num_neighbours": 6
    }, 
    "2405": {
        "area": 3077, 
        "av_neighbour_normed_area": 0.92900434382254027, 
        "centroid_x": 398.98537536561588, 
        "centroid_y": 95.151771205719854, 
        "neighbours": [
            0, 
            2249, 
            2284, 
            2415, 
            2290, 
            2327, 
            2457, 
            2107
        ], 
        "norm_area": 1.8845918278191496, 
        "num_neighbours": 7
    }, 
    "2415": {
        "area": 666, 
        "av_neighbour_normed_area": 1.1518019956061809, 
        "centroid_x": 353.92942942942943, 
        "centroid_y": 63.3993993993994, 
        "neighbours": [
            2457, 
            2327, 
            2405, 
            2393
        ], 
        "norm_area": 0.37082405346304287, 
        "num_neighbours": 4
    }, 
    "2457": {
        "area": 997, 
        "av_neighbour_normed_area": 1.0723256106879173, 
        "centroid_x": 352.73019057171513, 
        "centroid_y": 42.63691073219659, 
        "neighbours": [
            0, 
            2405, 
            2415, 
            2393, 
            2458
        ], 
        "norm_area": 0.62961793496578944, 
        "num_neighbours": 4
    }, 
    "2458": {
        "area": 958, 
        "av_neighbour_normed_area": 0.7496780337394009, 
        "centroid_x": 306.22338204592904, 
        "centroid_y": 35.577244258872653, 
        "neighbours": [
            0, 
            2404, 
            2393, 
            2457, 
            2462
        ], 
        "norm_area": 0.80775716695974276, 
        "num_neighbours": 4
    }, 
    "2462": {
        "area": 577, 
        "av_neighbour_normed_area": 0.74409846063128182, 
        "centroid_x": 274.6724436741768, 
        "centroid_y": 30.055459272097053, 
        "neighbours": [
            0, 
            2458, 
            2404
        ], 
        "norm_area": 0.46252505011251305, 
        "num_neighbours": 2
    }
}