{
    "0": {
        "area": 253489, 
        "av_neighbour_normed_area": 0.99808985513384973, 
        "neighbours": [
            1971, 
            3650, 
            3556, 
            1801, 
            1687, 
            3148, 
            2653, 
            1344, 
            4211, 
            2772, 
            1973, 
            3927, 
            2328, 
            3353, 
            4348, 
            4157, 
            4638, 
            2655
        ], 
        "norm_area": 71.677930157974657, 
        "num_neighbours": 18
    }, 
    "1344": {
        "area": 4053, 
        "av_neighbour_normed_area": 1.3431142174988286, 
        "neighbours": [
            1801, 
            0, 
            1687
        ], 
        "norm_area": 0.88979143898469037, 
        "num_neighbours": 2
    }, 
    "1687": {
        "area": 3486, 
        "av_neighbour_normed_area": 1.0144253054473857, 
        "neighbours": [
            0, 
            1344, 
            1801, 
            1971, 
            1973, 
            2071
        ], 
        "norm_area": 0.98703210927537566, 
        "num_neighbours": 5
    }, 
    "1801": {
        "area": 5624, 
        "av_neighbour_normed_area": 0.87839103386865702, 
        "neighbours": [
            0, 
            1344, 
            1687, 
            2071, 
            2328, 
            2377
        ], 
        "norm_area": 1.6991963270653963, 
        "num_neighbours": 5
    }, 
    "1971": {
        "area": 2474, 
        "av_neighbour_normed_area": 1.0118666445507383, 
        "neighbours": [
            0, 
            1687, 
            1973, 
            2071, 
            2686, 
            2655
        ], 
        "norm_area": 0.78310964901372115, 
        "num_neighbours": 5
    }, 
    "1973": {
        "area": 2794, 
        "av_neighbour_normed_area": 0.88507087870201295, 
        "neighbours": [
            0, 
            1971, 
            1687
        ], 
        "norm_area": 0.93758389362213745, 
        "num_neighbours": 2
    }, 
    "2071": {
        "area": 2714, 
        "av_neighbour_normed_area": 1.0737951966805381, 
        "neighbours": [
            2377, 
            1687, 
            1971, 
            1801, 
            2686
        ], 
        "norm_area": 0.76244521956540845, 
        "num_neighbours": 5
    }, 
    "2328": {
        "area": 3755, 
        "av_neighbour_normed_area": 1.0253012944179467, 
        "neighbours": [
            0, 
            1801, 
            2615, 
            2772, 
            2377
        ], 
        "norm_area": 1.0580445205856264, 
        "num_neighbours": 4
    }, 
    "2377": {
        "area": 2541, 
        "av_neighbour_normed_area": 1.0825440932605064, 
        "neighbours": [
            2615, 
            1801, 
            2071, 
            2328, 
            2686
        ], 
        "norm_area": 0.69464188181057462, 
        "num_neighbours": 5
    }, 
    "2615": {
        "area": 2524, 
        "av_neighbour_normed_area": 1.0877751781468847, 
        "neighbours": [
            2377, 
            2772, 
            3413, 
            2328, 
            2686
        ], 
        "norm_area": 0.68803838285722596, 
        "num_neighbours": 5
    }, 
    "2653": {
        "area": 2059, 
        "av_neighbour_normed_area": 0.99843531588566103, 
        "neighbours": [
            0, 
            3148, 
            2655
        ], 
        "norm_area": 0.78632805141447204, 
        "num_neighbours": 2
    }, 
    "2655": {
        "area": 3129, 
        "av_neighbour_normed_area": 0.92307567222800668, 
        "neighbours": [
            0, 
            3046, 
            3148, 
            1971, 
            2653, 
            2686
        ], 
        "norm_area": 1.1672759839912177, 
        "num_neighbours": 5
    }, 
    "2686": {
        "area": 3673, 
        "av_neighbour_normed_area": 0.93838942814220039, 
        "neighbours": [
            3046, 
            2377, 
            2071, 
            1971, 
            3413, 
            2615, 
            2655
        ], 
        "norm_area": 1.2049960173114183, 
        "num_neighbours": 7
    }, 
    "2772": {
        "area": 3507, 
        "av_neighbour_normed_area": 0.96570293089211989, 
        "neighbours": [
            0, 
            3556, 
            3413, 
            2615, 
            2328
        ], 
        "norm_area": 1.0193285869638913, 
        "num_neighbours": 4
    }, 
    "3046": {
        "area": 3089, 
        "av_neighbour_normed_area": 0.97704874756009685, 
        "neighbours": [
            3524, 
            3148, 
            3413, 
            3353, 
            2686, 
            2655
        ], 
        "norm_area": 1.0113499955449576, 
        "num_neighbours": 6
    }, 
    "3148": {
        "area": 2108, 
        "av_neighbour_normed_area": 0.87848485295712475, 
        "neighbours": [
            0, 
            3046, 
            3353, 
            2653, 
            2655
        ], 
        "norm_area": 0.82959464877853983, 
        "num_neighbours": 4
    }, 
    "3353": {
        "area": 1887, 
        "av_neighbour_normed_area": 1.0194629375113935, 
        "neighbours": [
            0, 
            3524, 
            3046, 
            3148, 
            3927
        ], 
        "norm_area": 0.54898538175633638, 
        "num_neighbours": 4
    }, 
    "3413": {
        "area": 4866, 
        "av_neighbour_normed_area": 0.90328544155978774, 
        "neighbours": [
            3524, 
            3046, 
            2615, 
            2772, 
            3701, 
            3991, 
            3556, 
            2686
        ], 
        "norm_area": 1.4618648851506875, 
        "num_neighbours": 8
    }, 
    "3524": {
        "area": 2663, 
        "av_neighbour_normed_area": 1.1382603690186823, 
        "neighbours": [
            3046, 
            3701, 
            3927, 
            3353, 
            3413
        ], 
        "norm_area": 0.64957556934943073, 
        "num_neighbours": 5
    }, 
    "3556": {
        "area": 2617, 
        "av_neighbour_normed_area": 1.1001977500213624, 
        "neighbours": [
            0, 
            3650, 
            2772, 
            3413, 
            3991
        ], 
        "norm_area": 0.65486393594064252, 
        "num_neighbours": 4
    }, 
    "3650": {
        "area": 3823, 
        "av_neighbour_normed_area": 1.0195857687967851, 
        "neighbours": [
            0, 
            3556, 
            4348, 
            3991
        ], 
        "norm_area": 1.0032365300446318, 
        "num_neighbours": 3
    }, 
    "3701": {
        "area": 4767, 
        "av_neighbour_normed_area": 1.1065758292308123, 
        "neighbours": [
            3524, 
            3991, 
            4211, 
            3927, 
            4157, 
            3413
        ], 
        "norm_area": 1.0817700463875823, 
        "num_neighbours": 6
    }, 
    "3927": {
        "area": 5889, 
        "av_neighbour_normed_area": 0.85841979521228295, 
        "neighbours": [
            0, 
            3524, 
            3701, 
            3353, 
            4157
        ], 
        "norm_area": 1.5873315373921086, 
        "num_neighbours": 4
    }, 
    "3991": {
        "area": 3789, 
        "av_neighbour_normed_area": 1.0933735950386021, 
        "neighbours": [
            3650, 
            3556, 
            4211, 
            3701, 
            4348, 
            3413
        ], 
        "norm_area": 0.91636099902643764, 
        "num_neighbours": 6
    }, 
    "4157": {
        "area": 5523, 
        "av_neighbour_normed_area": 1.1800251279860829, 
        "neighbours": [
            0, 
            3927, 
            4211, 
            3701
        ], 
        "norm_area": 1.1533481842142024, 
        "num_neighbours": 3
    }, 
    "4211": {
        "area": 3710, 
        "av_neighbour_normed_area": 1.0282144083211637, 
        "neighbours": [
            0, 
            3701, 
            3991, 
            4348, 
            4157, 
            4638
        ], 
        "norm_area": 0.87097380135858282, 
        "num_neighbours": 5
    }, 
    "4348": {
        "area": 5026, 
        "av_neighbour_normed_area": 0.82315794254236108, 
        "neighbours": [
            0, 
            3650, 
            4211, 
            3991, 
            4638
        ], 
        "norm_area": 1.4875323724428606, 
        "num_neighbours": 4
    }, 
    "4638": {
        "area": 2193, 
        "av_neighbour_normed_area": 1.1792530863110953, 
        "neighbours": [
            0, 
            4211, 
            4348
        ], 
        "norm_area": 0.50206044056294985, 
        "num_neighbours": 2
    }
}