{
    "0": {
        "area": 321756, 
        "av_neighbour_normed_area": 0.97474617111259088, 
        "neighbours": [
            2246, 
            3592, 
            2987, 
            3439, 
            1682, 
            2100, 
            3222, 
            2234, 
            2392, 
            2361, 
            3834, 
            3005
        ], 
        "norm_area": 92.136495968241391, 
        "num_neighbours": 12
    }, 
    "1682": {
        "area": 2892, 
        "av_neighbour_normed_area": 0.95111784772035601, 
        "neighbours": [
            0, 
            2100
        ], 
        "norm_area": 0.96015936355940246, 
        "num_neighbours": 1
    }, 
    "2100": {
        "area": 3012, 
        "av_neighbour_normed_area": 0.91970962662687494, 
        "neighbours": [
            0, 
            2246, 
            1682, 
            2392, 
            2361, 
            2234
        ], 
        "norm_area": 0.95111784867147398, 
        "num_neighbours": 5
    }, 
    "2234": {
        "area": 2844, 
        "av_neighbour_normed_area": 1.0090731712796168, 
        "neighbours": [
            0, 
            2392, 
            2100
        ], 
        "norm_area": 0.81912442496722926, 
        "num_neighbours": 2
    }, 
    "2246": {
        "area": 2320, 
        "av_neighbour_normed_area": 1.0133858016901987, 
        "neighbours": [
            0, 
            2361, 
            2100
        ], 
        "norm_area": 0.67658209490831145, 
        "num_neighbours": 2
    }, 
    "2361": {
        "area": 3846, 
        "av_neighbour_normed_area": 0.99852574879758738, 
        "neighbours": [
            0, 
            2246, 
            2987, 
            2100, 
            2392
        ], 
        "norm_area": 1.0756537557223089, 
        "num_neighbours": 4
    }, 
    "2392": {
        "area": 3932, 
        "av_neighbour_normed_area": 1.0363176465092376, 
        "neighbours": [
            0, 
            2987, 
            2100, 
            2361, 
            2234
        ], 
        "norm_area": 1.0670284948968332, 
        "num_neighbours": 4
    }, 
    "2987": {
        "area": 5038, 
        "av_neighbour_normed_area": 1.0416313790709724, 
        "neighbours": [
            0, 
            3222, 
            2392, 
            2361, 
            3005
        ], 
        "norm_area": 1.2993745577122562, 
        "num_neighbours": 4
    }, 
    "3005": {
        "area": 2143, 
        "av_neighbour_normed_area": 1.4599337745205971, 
        "neighbours": [
            0, 
            2987, 
            3222
        ], 
        "norm_area": 0.40335027391750711, 
        "num_neighbours": 2
    }, 
    "3222": {
        "area": 5588, 
        "av_neighbour_normed_area": 0.8055949544744383, 
        "neighbours": [
            0, 
            2987, 
            3005, 
            3439
        ], 
        "norm_area": 1.620492992788872, 
        "num_neighbours": 3
    }, 
    "3439": {
        "area": 3164, 
        "av_neighbour_normed_area": 1.2768276562982581, 
        "neighbours": [
            3592, 
            0, 
            3222
        ], 
        "norm_area": 0.71406003259914697, 
        "num_neighbours": 2
    }, 
    "3592": {
        "area": 3274, 
        "av_neighbour_normed_area": 0.94545396257585845, 
        "neighbours": [
            0, 
            3834, 
            3439
        ], 
        "norm_area": 0.93316232108447195, 
        "num_neighbours": 2
    }, 
    "3834": {
        "area": 3853, 
        "av_neighbour_normed_area": 0.93316232015130951, 
        "neighbours": [
            0, 
            3592
        ], 
        "norm_area": 1.176847893498024, 
        "num_neighbours": 1
    }
}